TMS320C2000 Assembler PC v6.2.11 Mon Jun 29 19:41:31 2020

Tools Copyright (c) 1996-2015 Texas Instruments Incorporated
convert.asm                                                          PAGE    1

       1              ;***************************************************************
       2              ;* TMS320C2000 C/C++ Codegen                        PC v6.2.11 *
       3              ;* Date/Time created: Mon Jun 29 19:41:31 2020                 *
       4              ;***************************************************************
       5                      .compiler_opts --cla_support=cla0 --float_support=fpu32 --hll_source=on --mem_model:code=flat --mem_m
       6        0002  FP      .set    XAR2
       7              
       8              $C$DW$CU        .dwtag  DW_TAG_compile_unit
       9                      .dwattr $C$DW$CU, DW_AT_name("../convert.c")
      10                      .dwattr $C$DW$CU, DW_AT_producer("TMS320C2000 C/C++ Codegen PC v6.2.11 Copyright (c) 1996-2015 Texas 
      11                      .dwattr $C$DW$CU, DW_AT_TI_version(0x01)
      12                      .dwattr $C$DW$CU, DW_AT_comp_dir("C:\Users\aen17\Desktop\Working\SVN\Repository\AEC_Standard\PTM075")
      13              ;**************************************************************
      14              ;* CINIT RECORDS                                              *
      15              ;**************************************************************
      16 00000000               .sect   ".cinit"
      17                      .align  1
      18 00000000 FFFE          .field          -2,16
      19 00000001 000A-         .field          _CNV_DegUnit+0,32
         00000002 0000 
      20 00000003 0000          .xfloat $strtod("0x1.68p+6")            ; _CNV_DegUnit @ 0
         00000004 42B4 
      21              
      22                      .global _CNV_CurrentRange
      23 00000000       _CNV_CurrentRange:      .usect  ".ebss",1,1,0
      24              $C$DW$1 .dwtag  DW_TAG_variable, DW_AT_name("CNV_CurrentRange")
      25                      .dwattr $C$DW$1, DW_AT_TI_symbol_name("_CNV_CurrentRange")
      26                      .dwattr $C$DW$1, DW_AT_location[DW_OP_addr _CNV_CurrentRange]
      27                      .dwattr $C$DW$1, DW_AT_type(*$C$DW$T$24)
      28                      .dwattr $C$DW$1, DW_AT_external
      29                      .global _CNV_ADPRange
      30 00000001       _CNV_ADPRange:  .usect  ".ebss",1,1,0
      31              $C$DW$2 .dwtag  DW_TAG_variable, DW_AT_name("CNV_ADPRange")
      32                      .dwattr $C$DW$2, DW_AT_TI_symbol_name("_CNV_ADPRange")
      33                      .dwattr $C$DW$2, DW_AT_location[DW_OP_addr _CNV_ADPRange]
      34                      .dwattr $C$DW$2, DW_AT_type(*$C$DW$T$10)
      35                      .dwattr $C$DW$2, DW_AT_external
      36                      .global _CNV_ADMRange
      37 00000002       _CNV_ADMRange:  .usect  ".ebss",1,1,0
      38              $C$DW$3 .dwtag  DW_TAG_variable, DW_AT_name("CNV_ADMRange")
      39                      .dwattr $C$DW$3, DW_AT_TI_symbol_name("_CNV_ADMRange")
      40                      .dwattr $C$DW$3, DW_AT_location[DW_OP_addr _CNV_ADMRange]
      41                      .dwattr $C$DW$3, DW_AT_type(*$C$DW$T$10)
      42                      .dwattr $C$DW$3, DW_AT_external
      43                      .global _CNV_ISafe5s
      44 00000003       _CNV_ISafe5s:   .usect  ".ebss",1,1,0
      45              $C$DW$4 .dwtag  DW_TAG_variable, DW_AT_name("CNV_ISafe5s")
      46                      .dwattr $C$DW$4, DW_AT_TI_symbol_name("_CNV_ISafe5s")
      47                      .dwattr $C$DW$4, DW_AT_location[DW_OP_addr _CNV_ISafe5s]
      48                      .dwattr $C$DW$4, DW_AT_type(*$C$DW$T$10)
      49                      .dwattr $C$DW$4, DW_AT_external
      50                      .global _CNV_ISafe0s2
      51 00000004       _CNV_ISafe0s2:  .usect  ".ebss",1,1,0
      52              $C$DW$5 .dwtag  DW_TAG_variable, DW_AT_name("CNV_ISafe0s2")
      53                      .dwattr $C$DW$5, DW_AT_TI_symbol_name("_CNV_ISafe0s2")
TMS320C2000 Assembler PC v6.2.11 Mon Jun 29 19:41:31 2020

Tools Copyright (c) 1996-2015 Texas Instruments Incorporated
convert.asm                                                          PAGE    2

      54                      .dwattr $C$DW$5, DW_AT_location[DW_OP_addr _CNV_ISafe0s2]
      55                      .dwattr $C$DW$5, DW_AT_type(*$C$DW$T$10)
      56                      .dwattr $C$DW$5, DW_AT_external
      57                      .global _CNV_CoupleUnit
      58 00000006       _CNV_CoupleUnit:        .usect  ".ebss",2,1,1
      59              $C$DW$6 .dwtag  DW_TAG_variable, DW_AT_name("CNV_CoupleUnit")
      60                      .dwattr $C$DW$6, DW_AT_TI_symbol_name("_CNV_CoupleUnit")
      61                      .dwattr $C$DW$6, DW_AT_location[DW_OP_addr _CNV_CoupleUnit]
      62                      .dwattr $C$DW$6, DW_AT_type(*$C$DW$T$16)
      63                      .dwattr $C$DW$6, DW_AT_external
      64                      .global _CNV_CurrentUnit
      65 00000008       _CNV_CurrentUnit:       .usect  ".ebss",2,1,1
      66              $C$DW$7 .dwtag  DW_TAG_variable, DW_AT_name("CNV_CurrentUnit")
      67                      .dwattr $C$DW$7, DW_AT_TI_symbol_name("_CNV_CurrentUnit")
      68                      .dwattr $C$DW$7, DW_AT_location[DW_OP_addr _CNV_CurrentUnit]
      69                      .dwattr $C$DW$7, DW_AT_type(*$C$DW$T$28)
      70                      .dwattr $C$DW$7, DW_AT_external
      71                      .global _CNV_DegUnit
      72 0000000a       _CNV_DegUnit:   .usect  ".ebss",2,1,1
      73              $C$DW$8 .dwtag  DW_TAG_variable, DW_AT_name("CNV_DegUnit")
      74                      .dwattr $C$DW$8, DW_AT_TI_symbol_name("_CNV_DegUnit")
      75                      .dwattr $C$DW$8, DW_AT_location[DW_OP_addr _CNV_DegUnit]
      76                      .dwattr $C$DW$8, DW_AT_type(*$C$DW$T$16)
      77                      .dwattr $C$DW$8, DW_AT_external
      78              ;       C:\ti\ccsv5\tools\compiler\c2000_6.2.11\bin\ac2000.exe -@C:\\Users\\ADMINI~1\\AppData\\Local\\Temp\\0
      79 00000000               .sect   "ramfuncs"
      80                      .clink
      81                      .global _CNV_Round
      82              
      83              $C$DW$9 .dwtag  DW_TAG_subprogram, DW_AT_name("CNV_Round")
      84                      .dwattr $C$DW$9, DW_AT_low_pc(_CNV_Round)
      85                      .dwattr $C$DW$9, DW_AT_high_pc(0x00)
      86                      .dwattr $C$DW$9, DW_AT_TI_symbol_name("_CNV_Round")
      87                      .dwattr $C$DW$9, DW_AT_external
      88                      .dwattr $C$DW$9, DW_AT_type(*$C$DW$T$12)
      89                      .dwattr $C$DW$9, DW_AT_TI_begin_file("../convert.c")
      90                      .dwattr $C$DW$9, DW_AT_TI_begin_line(0x23)
      91                      .dwattr $C$DW$9, DW_AT_TI_begin_column(0x06)
      92                      .dwattr $C$DW$9, DW_AT_TI_max_frame_size(-6)
      93                      .dwpsn  file "../convert.c",line 37,column 1,is_stmt,address _CNV_Round
      94              
      95                      .dwfde $C$DW$CIE, _CNV_Round
      96              $C$DW$10        .dwtag  DW_TAG_formal_parameter, DW_AT_name("arg")
      97                      .dwattr $C$DW$10, DW_AT_TI_symbol_name("_arg")
      98                      .dwattr $C$DW$10, DW_AT_type(*$C$DW$T$16)
      99                      .dwattr $C$DW$10, DW_AT_location[DW_OP_regx 0x2b]
     100              
     101              ;***************************************************************
     102              ;* FNAME: _CNV_Round                    FR SIZE:   4           *
     103              ;*                                                             *
     104              ;* FUNCTION ENVIRONMENT                                        *
     105              ;*                                                             *
     106              ;* FUNCTION PROPERTIES                                         *
     107              ;*                            2 Parameter,  2 Auto,  0 SOE     *
     108              ;***************************************************************
TMS320C2000 Assembler PC v6.2.11 Mon Jun 29 19:41:31 2020

Tools Copyright (c) 1996-2015 Texas Instruments Incorporated
convert.asm                                                          PAGE    3

     109              
     110 00000000       _CNV_Round:
     111                      .dwcfi  cfa_offset, -2
     112                      .dwcfi  save_reg_to_mem, 26, 0
     113                      .dwcfi  save_reg_to_reg, 78, 26
     114 00000000 FE04          ADDB      SP,#4                 ; [CPU_U] 
     115                      .dwcfi  cfa_offset, -6
     116              $C$DW$11        .dwtag  DW_TAG_variable, DW_AT_name("arg")
     117                      .dwattr $C$DW$11, DW_AT_TI_symbol_name("_arg")
     118                      .dwattr $C$DW$11, DW_AT_type(*$C$DW$T$16)
     119                      .dwattr $C$DW$11, DW_AT_location[DW_OP_breg20 -4]
     120 00000001 E203          MOV32     *-SP[4],R0H           ; [CPU_] |37| 
         00000002 0044 
     121                      .dwpsn  file "../convert.c",line 38,column 3,is_stmt
     122 00000003 E5A0          CMPF32    R0H,#0                ; [CPU_] |38| 
     123 00000004 AD14          MOVST0    ZF, NF                ; [CPU_] |38| 
     124 00000005 6310          B         $C$L1,GEQ             ; [CPU_] |38| 
     125                      ; branchcc occurs ; [] |38| 
     126                      .dwpsn  file "../convert.c",line 40,column 5,is_stmt
     127 00000006 E6AF          NEGF32    R0H,R0H               ; [CPU_] |40| 
         00000007 0000 
     128 00000008 E88F          ADDF32    R0H,R0H,#16128        ; [CPU_] |40| 
         00000009 C000 
     129 0000000a 7700          NOP       ; [CPU_] 
     130 0000000b E688          F32TOI32  R0H,R0H               ; [CPU_] |40| 
         0000000c 0000 
     131 0000000d 7700          NOP       ; [CPU_] 
     132 0000000e 7700          NOP       ; [CPU_] 
     133 0000000f BFA9          MOV32     ACC,R0H               ; [CPU_] |40| 
         00000010 0F12 
     134 00000011 FF54          NEG       ACC                   ; [CPU_] |40| 
     135 00000012 BDA9          MOV32     R0H,ACC               ; [CPU_] |40| 
         00000013 0F12 
     136 00000014 6F07          B         $C$L2,UNC             ; [CPU_] |40| 
     137                      ; branch occurs ; [] |40| 
     138 00000015       $C$L1:    
     139                      .dwpsn  file "../convert.c",line 44,column 5,is_stmt
     140 00000015 E88F          ADDF32    R0H,R0H,#16128        ; [CPU_] |44| 
         00000016 C000 
     141 00000017 7700          NOP       ; [CPU_] 
     142 00000018 E688          F32TOI32  R0H,R0H               ; [CPU_] |44| 
         00000019 0000 
     143 0000001a 7700          NOP       ; [CPU_] 
     144 0000001b       $C$L2:    
     145                      .dwpsn  file "../convert.c",line 46,column 1,is_stmt
     146 0000001b FE84          SUBB      SP,#4                 ; [CPU_U] |44| 
     147                      .dwcfi  cfa_offset, -2
     148 0000001c BFA9          MOV32     ACC,R0H               ; [CPU_] |44| 
         0000001d 0F12 
     149              $C$DW$12        .dwtag  DW_TAG_TI_branch
     150                      .dwattr $C$DW$12, DW_AT_low_pc(0x00)
     151                      .dwattr $C$DW$12, DW_AT_TI_return
     152 0000001e 0006          LRETR     ; [CPU_] 
     153                      ; return occurs ; [] 
     154                      .dwattr $C$DW$9, DW_AT_TI_end_file("../convert.c")
TMS320C2000 Assembler PC v6.2.11 Mon Jun 29 19:41:31 2020

Tools Copyright (c) 1996-2015 Texas Instruments Incorporated
convert.asm                                                          PAGE    4

     155                      .dwattr $C$DW$9, DW_AT_TI_end_line(0x2e)
     156                      .dwattr $C$DW$9, DW_AT_TI_end_column(0x01)
     157                      .dwendentry
     158                      .dwendtag $C$DW$9
     159              
     160 00000000               .sect   ".text"
     161                      .clink
     162                      .global _CNV_SwapWord
     163              
     164              $C$DW$13        .dwtag  DW_TAG_subprogram, DW_AT_name("CNV_SwapWord")
     165                      .dwattr $C$DW$13, DW_AT_low_pc(_CNV_SwapWord)
     166                      .dwattr $C$DW$13, DW_AT_high_pc(0x00)
     167                      .dwattr $C$DW$13, DW_AT_TI_symbol_name("_CNV_SwapWord")
     168                      .dwattr $C$DW$13, DW_AT_external
     169                      .dwattr $C$DW$13, DW_AT_type(*$C$DW$T$9)
     170                      .dwattr $C$DW$13, DW_AT_TI_begin_file("../convert.c")
     171                      .dwattr $C$DW$13, DW_AT_TI_begin_line(0x30)
     172                      .dwattr $C$DW$13, DW_AT_TI_begin_column(0x08)
     173                      .dwattr $C$DW$13, DW_AT_TI_max_frame_size(-4)
     174                      .dwpsn  file "../convert.c",line 49,column 1,is_stmt,address _CNV_SwapWord
     175              
     176                      .dwfde $C$DW$CIE, _CNV_SwapWord
     177              $C$DW$14        .dwtag  DW_TAG_formal_parameter, DW_AT_name("w")
     178                      .dwattr $C$DW$14, DW_AT_TI_symbol_name("_w")
     179                      .dwattr $C$DW$14, DW_AT_type(*$C$DW$T$9)
     180                      .dwattr $C$DW$14, DW_AT_location[DW_OP_reg0]
     181              
     182              ;***************************************************************
     183              ;* FNAME: _CNV_SwapWord                 FR SIZE:   2           *
     184              ;*                                                             *
     185              ;* FUNCTION ENVIRONMENT                                        *
     186              ;*                                                             *
     187              ;* FUNCTION PROPERTIES                                         *
     188              ;*                            0 Parameter,  1 Auto,  0 SOE     *
     189              ;***************************************************************
     190              
     191 00000000       _CNV_SwapWord:
     192                      .dwcfi  cfa_offset, -2
     193                      .dwcfi  save_reg_to_mem, 26, 0
     194                      .dwcfi  save_reg_to_reg, 78, 26
     195 00000000 FE02          ADDB      SP,#2                 ; [CPU_U] 
     196                      .dwcfi  cfa_offset, -4
     197              $C$DW$15        .dwtag  DW_TAG_variable, DW_AT_name("w")
     198                      .dwattr $C$DW$15, DW_AT_TI_symbol_name("_w")
     199                      .dwattr $C$DW$15, DW_AT_type(*$C$DW$T$9)
     200                      .dwattr $C$DW$15, DW_AT_location[DW_OP_breg20 -1]
     201 00000001 9641          MOV       *-SP[1],AL            ; [CPU_] |49| 
     202                      .dwpsn  file "../convert.c",line 50,column 3,is_stmt
     203 00000002 5603          MOV       ACC,*-SP[1] << #8     ; [CPU_] |50| 
         00000003 0841 
     204 00000004 9341          MOV       AH,*-SP[1]            ; [CPU_] |50| 
     205 00000005 FFD7          LSR       AH,8                  ; [CPU_] |50| 
     206 00000006 94A8          ADD       AL,AH                 ; [CPU_] |50| 
     207                      .dwpsn  file "../convert.c",line 51,column 1,is_stmt
     208 00000007 FE82          SUBB      SP,#2                 ; [CPU_U] 
TMS320C2000 Assembler PC v6.2.11 Mon Jun 29 19:41:31 2020

Tools Copyright (c) 1996-2015 Texas Instruments Incorporated
convert.asm                                                          PAGE    5

     209                      .dwcfi  cfa_offset, -2
     210              $C$DW$16        .dwtag  DW_TAG_TI_branch
     211                      .dwattr $C$DW$16, DW_AT_low_pc(0x00)
     212                      .dwattr $C$DW$16, DW_AT_TI_return
     213 00000008 0006          LRETR     ; [CPU_] 
     214                      ; return occurs ; [] 
     215                      .dwattr $C$DW$13, DW_AT_TI_end_file("../convert.c")
     216                      .dwattr $C$DW$13, DW_AT_TI_end_line(0x33)
     217                      .dwattr $C$DW$13, DW_AT_TI_end_column(0x01)
     218                      .dwendentry
     219                      .dwendtag $C$DW$13
     220              
     221 00000009               .sect   ".text"
     222                      .clink
     223                      .global _CNV_SwapLWord
     224              
     225              $C$DW$17        .dwtag  DW_TAG_subprogram, DW_AT_name("CNV_SwapLWord")
     226                      .dwattr $C$DW$17, DW_AT_low_pc(_CNV_SwapLWord)
     227                      .dwattr $C$DW$17, DW_AT_high_pc(0x00)
     228                      .dwattr $C$DW$17, DW_AT_TI_symbol_name("_CNV_SwapLWord")
     229                      .dwattr $C$DW$17, DW_AT_external
     230                      .dwattr $C$DW$17, DW_AT_type(*$C$DW$T$13)
     231                      .dwattr $C$DW$17, DW_AT_TI_begin_file("../convert.c")
     232                      .dwattr $C$DW$17, DW_AT_TI_begin_line(0x35)
     233                      .dwattr $C$DW$17, DW_AT_TI_begin_column(0x08)
     234                      .dwattr $C$DW$17, DW_AT_TI_max_frame_size(-8)
     235                      .dwpsn  file "../convert.c",line 54,column 1,is_stmt,address _CNV_SwapLWord
     236              
     237                      .dwfde $C$DW$CIE, _CNV_SwapLWord
     238              $C$DW$18        .dwtag  DW_TAG_formal_parameter, DW_AT_name("lw")
     239                      .dwattr $C$DW$18, DW_AT_TI_symbol_name("_lw")
     240                      .dwattr $C$DW$18, DW_AT_type(*$C$DW$T$13)
     241                      .dwattr $C$DW$18, DW_AT_location[DW_OP_reg0]
     242              
     243              ;***************************************************************
     244              ;* FNAME: _CNV_SwapLWord                FR SIZE:   6           *
     245              ;*                                                             *
     246              ;* FUNCTION ENVIRONMENT                                        *
     247              ;*                                                             *
     248              ;* FUNCTION PROPERTIES                                         *
     249              ;*                            0 Parameter,  6 Auto,  0 SOE     *
     250              ;***************************************************************
     251              
     252 00000009       _CNV_SwapLWord:
     253                      .dwcfi  cfa_offset, -2
     254                      .dwcfi  save_reg_to_mem, 26, 0
     255                      .dwcfi  save_reg_to_reg, 78, 26
     256 00000009 FE06          ADDB      SP,#6                 ; [CPU_U] 
     257                      .dwcfi  cfa_offset, -8
     258              $C$DW$19        .dwtag  DW_TAG_variable, DW_AT_name("lw")
     259                      .dwattr $C$DW$19, DW_AT_TI_symbol_name("_lw")
     260                      .dwattr $C$DW$19, DW_AT_type(*$C$DW$T$13)
     261                      .dwattr $C$DW$19, DW_AT_location[DW_OP_breg20 -2]
     262              $C$DW$20        .dwtag  DW_TAG_variable, DW_AT_name("swapdata")
     263                      .dwattr $C$DW$20, DW_AT_TI_symbol_name("_swapdata")
TMS320C2000 Assembler PC v6.2.11 Mon Jun 29 19:41:31 2020

Tools Copyright (c) 1996-2015 Texas Instruments Incorporated
convert.asm                                                          PAGE    6

     264                      .dwattr $C$DW$20, DW_AT_type(*$C$DW$T$20)
     265                      .dwattr $C$DW$20, DW_AT_location[DW_OP_breg20 -6]
     266 0000000a 1E42          MOVL      *-SP[2],ACC           ; [CPU_] |54| 
     267                      .dwpsn  file "../convert.c",line 57,column 3,is_stmt
     268 0000000b 80AD          MOVZ      AR7,SP                ; [CPU_U] |57| 
     269 0000000c 08A7          ADD       AR7,#1                ; [CPU_] |57| 
         0000000d 0001 
     270 0000000e 92C7          MOV       AL,*XAR7              ; [CPU_] |57| 
     271 0000000f 9646          MOV       *-SP[6],AL            ; [CPU_] |57| 
     272                      .dwpsn  file "../convert.c",line 58,column 3,is_stmt
     273 00000010 9240          MOV       AL,*-SP[0]            ; [CPU_] |58| 
     274 00000011 9645          MOV       *-SP[5],AL            ; [CPU_] |58| 
     275                      .dwpsn  file "../convert.c",line 59,column 3,is_stmt
     276 00000012 9241          MOV       AL,*-SP[1]            ; [CPU_] |59| 
     277 00000013 9644          MOV       *-SP[4],AL            ; [CPU_] |59| 
     278                      .dwpsn  file "../convert.c",line 60,column 3,is_stmt
     279 00000014 9242          MOV       AL,*-SP[2]            ; [CPU_] |60| 
     280 00000015 9643          MOV       *-SP[3],AL            ; [CPU_] |60| 
     281                      .dwpsn  file "../convert.c",line 61,column 3,is_stmt
     282 00000016 0646          MOVL      ACC,*-SP[6]           ; [CPU_] |61| 
     283                      .dwpsn  file "../convert.c",line 62,column 1,is_stmt
     284 00000017 FE86          SUBB      SP,#6                 ; [CPU_U] 
     285                      .dwcfi  cfa_offset, -2
     286              $C$DW$21        .dwtag  DW_TAG_TI_branch
     287                      .dwattr $C$DW$21, DW_AT_low_pc(0x00)
     288                      .dwattr $C$DW$21, DW_AT_TI_return
     289 00000018 0006          LRETR     ; [CPU_] 
     290                      ; return occurs ; [] 
     291                      .dwattr $C$DW$17, DW_AT_TI_end_file("../convert.c")
     292                      .dwattr $C$DW$17, DW_AT_TI_end_line(0x3e)
     293                      .dwattr $C$DW$17, DW_AT_TI_end_column(0x01)
     294                      .dwendentry
     295                      .dwendtag $C$DW$17
     296              
     297              
     298              ;***************************************************************
     299              ;* TYPE INFORMATION                                            *
     300              ;***************************************************************
     301              $C$DW$T$4       .dwtag  DW_TAG_base_type
     302                      .dwattr $C$DW$T$4, DW_AT_encoding(DW_ATE_boolean)
     303                      .dwattr $C$DW$T$4, DW_AT_name("bool")
     304                      .dwattr $C$DW$T$4, DW_AT_byte_size(0x01)
     305              $C$DW$T$5       .dwtag  DW_TAG_base_type
     306                      .dwattr $C$DW$T$5, DW_AT_encoding(DW_ATE_signed_char)
     307                      .dwattr $C$DW$T$5, DW_AT_name("signed char")
     308                      .dwattr $C$DW$T$5, DW_AT_byte_size(0x01)
     309              $C$DW$T$6       .dwtag  DW_TAG_base_type
     310                      .dwattr $C$DW$T$6, DW_AT_encoding(DW_ATE_unsigned_char)
     311                      .dwattr $C$DW$T$6, DW_AT_name("unsigned char")
     312                      .dwattr $C$DW$T$6, DW_AT_byte_size(0x01)
     313              
     314              $C$DW$T$19      .dwtag  DW_TAG_array_type
     315                      .dwattr $C$DW$T$19, DW_AT_type(*$C$DW$T$6)
     316                      .dwattr $C$DW$T$19, DW_AT_language(DW_LANG_C)
     317                      .dwattr $C$DW$T$19, DW_AT_byte_size(0x04)
TMS320C2000 Assembler PC v6.2.11 Mon Jun 29 19:41:31 2020

Tools Copyright (c) 1996-2015 Texas Instruments Incorporated
convert.asm                                                          PAGE    7

     318              $C$DW$22        .dwtag  DW_TAG_subrange_type
     319                      .dwattr $C$DW$22, DW_AT_upper_bound(0x03)
     320                      .dwendtag $C$DW$T$19
     321              
     322              $C$DW$T$20      .dwtag  DW_TAG_typedef, DW_AT_name("T4uint8")
     323                      .dwattr $C$DW$T$20, DW_AT_type(*$C$DW$T$19)
     324                      .dwattr $C$DW$T$20, DW_AT_language(DW_LANG_C)
     325              $C$DW$T$7       .dwtag  DW_TAG_base_type
     326                      .dwattr $C$DW$T$7, DW_AT_encoding(DW_ATE_signed_char)
     327                      .dwattr $C$DW$T$7, DW_AT_name("wchar_t")
     328                      .dwattr $C$DW$T$7, DW_AT_byte_size(0x01)
     329              $C$DW$T$8       .dwtag  DW_TAG_base_type
     330                      .dwattr $C$DW$T$8, DW_AT_encoding(DW_ATE_signed)
     331                      .dwattr $C$DW$T$8, DW_AT_name("short")
     332                      .dwattr $C$DW$T$8, DW_AT_byte_size(0x01)
     333              $C$DW$T$9       .dwtag  DW_TAG_base_type
     334                      .dwattr $C$DW$T$9, DW_AT_encoding(DW_ATE_unsigned)
     335                      .dwattr $C$DW$T$9, DW_AT_name("unsigned short")
     336                      .dwattr $C$DW$T$9, DW_AT_byte_size(0x01)
     337              $C$DW$T$10      .dwtag  DW_TAG_base_type
     338                      .dwattr $C$DW$T$10, DW_AT_encoding(DW_ATE_signed)
     339                      .dwattr $C$DW$T$10, DW_AT_name("int")
     340                      .dwattr $C$DW$T$10, DW_AT_byte_size(0x01)
     341              $C$DW$23        .dwtag  DW_TAG_TI_far_type
     342                      .dwattr $C$DW$23, DW_AT_type(*$C$DW$T$10)
     343              $C$DW$T$24      .dwtag  DW_TAG_volatile_type
     344                      .dwattr $C$DW$T$24, DW_AT_type(*$C$DW$23)
     345              $C$DW$T$11      .dwtag  DW_TAG_base_type
     346                      .dwattr $C$DW$T$11, DW_AT_encoding(DW_ATE_unsigned)
     347                      .dwattr $C$DW$T$11, DW_AT_name("unsigned int")
     348                      .dwattr $C$DW$T$11, DW_AT_byte_size(0x01)
     349              $C$DW$T$12      .dwtag  DW_TAG_base_type
     350                      .dwattr $C$DW$T$12, DW_AT_encoding(DW_ATE_signed)
     351                      .dwattr $C$DW$T$12, DW_AT_name("long")
     352                      .dwattr $C$DW$T$12, DW_AT_byte_size(0x02)
     353              $C$DW$T$13      .dwtag  DW_TAG_base_type
     354                      .dwattr $C$DW$T$13, DW_AT_encoding(DW_ATE_unsigned)
     355                      .dwattr $C$DW$T$13, DW_AT_name("unsigned long")
     356                      .dwattr $C$DW$T$13, DW_AT_byte_size(0x02)
     357              $C$DW$T$14      .dwtag  DW_TAG_base_type
     358                      .dwattr $C$DW$T$14, DW_AT_encoding(DW_ATE_signed)
     359                      .dwattr $C$DW$T$14, DW_AT_name("long long")
     360                      .dwattr $C$DW$T$14, DW_AT_byte_size(0x04)
     361              $C$DW$T$15      .dwtag  DW_TAG_base_type
     362                      .dwattr $C$DW$T$15, DW_AT_encoding(DW_ATE_unsigned)
     363                      .dwattr $C$DW$T$15, DW_AT_name("unsigned long long")
     364                      .dwattr $C$DW$T$15, DW_AT_byte_size(0x04)
     365              $C$DW$T$16      .dwtag  DW_TAG_base_type
     366                      .dwattr $C$DW$T$16, DW_AT_encoding(DW_ATE_float)
     367                      .dwattr $C$DW$T$16, DW_AT_name("float")
     368                      .dwattr $C$DW$T$16, DW_AT_byte_size(0x02)
     369              $C$DW$24        .dwtag  DW_TAG_TI_far_type
     370                      .dwattr $C$DW$24, DW_AT_type(*$C$DW$T$16)
     371              $C$DW$T$28      .dwtag  DW_TAG_volatile_type
     372                      .dwattr $C$DW$T$28, DW_AT_type(*$C$DW$24)
TMS320C2000 Assembler PC v6.2.11 Mon Jun 29 19:41:31 2020

Tools Copyright (c) 1996-2015 Texas Instruments Incorporated
convert.asm                                                          PAGE    8

     373              $C$DW$T$17      .dwtag  DW_TAG_base_type
     374                      .dwattr $C$DW$T$17, DW_AT_encoding(DW_ATE_float)
     375                      .dwattr $C$DW$T$17, DW_AT_name("double")
     376                      .dwattr $C$DW$T$17, DW_AT_byte_size(0x02)
     377              $C$DW$T$18      .dwtag  DW_TAG_base_type
     378                      .dwattr $C$DW$T$18, DW_AT_encoding(DW_ATE_float)
     379                      .dwattr $C$DW$T$18, DW_AT_name("long double")
     380                      .dwattr $C$DW$T$18, DW_AT_byte_size(0x04)
     381                      .dwattr $C$DW$CU, DW_AT_language(DW_LANG_C)
     382              
     383              ;***************************************************************
     384              ;* DWARF CIE ENTRIES                                           *
     385              ;***************************************************************
     386              
     387              $C$DW$CIE       .dwcie 78
     388                      .dwcfi  cfa_register, 20
     389                      .dwcfi  cfa_offset, 0
     390                      .dwcfi  undefined, 0
     391                      .dwcfi  undefined, 1
     392                      .dwcfi  undefined, 2
     393                      .dwcfi  undefined, 3
     394                      .dwcfi  undefined, 20
     395                      .dwcfi  undefined, 21
     396                      .dwcfi  undefined, 22
     397                      .dwcfi  undefined, 23
     398                      .dwcfi  undefined, 24
     399                      .dwcfi  undefined, 25
     400                      .dwcfi  undefined, 26
     401                      .dwcfi  same_value, 28
     402                      .dwcfi  undefined, 29
     403                      .dwcfi  undefined, 30
     404                      .dwcfi  undefined, 31
     405                      .dwcfi  undefined, 32
     406                      .dwcfi  undefined, 33
     407                      .dwcfi  undefined, 34
     408                      .dwcfi  undefined, 35
     409                      .dwcfi  undefined, 36
     410                      .dwcfi  undefined, 37
     411                      .dwcfi  undefined, 38
     412                      .dwcfi  undefined, 75
     413                      .dwcfi  undefined, 76
     414                      .dwcfi  undefined, 77
     415                      .dwcfi  undefined, 4
     416                      .dwcfi  same_value, 6
     417                      .dwcfi  same_value, 8
     418                      .dwcfi  same_value, 10
     419                      .dwcfi  undefined, 12
     420                      .dwcfi  undefined, 14
     421                      .dwcfi  undefined, 16
     422                      .dwcfi  undefined, 17
     423                      .dwcfi  undefined, 18
     424                      .dwcfi  undefined, 19
     425                      .dwcfi  undefined, 5
     426                      .dwcfi  same_value, 7
     427                      .dwcfi  same_value, 9
TMS320C2000 Assembler PC v6.2.11 Mon Jun 29 19:41:31 2020

Tools Copyright (c) 1996-2015 Texas Instruments Incorporated
convert.asm                                                          PAGE    9

     428                      .dwcfi  same_value, 11
     429                      .dwcfi  undefined, 13
     430                      .dwcfi  undefined, 15
     431                      .dwcfi  undefined, 43
     432                      .dwcfi  undefined, 44
     433                      .dwcfi  undefined, 47
     434                      .dwcfi  undefined, 48
     435                      .dwcfi  undefined, 51
     436                      .dwcfi  undefined, 52
     437                      .dwcfi  undefined, 55
     438                      .dwcfi  undefined, 56
     439                      .dwcfi  same_value, 59
     440                      .dwcfi  same_value, 60
     441                      .dwcfi  same_value, 63
     442                      .dwcfi  same_value, 64
     443                      .dwcfi  same_value, 67
     444                      .dwcfi  same_value, 68
     445                      .dwcfi  same_value, 71
     446                      .dwcfi  same_value, 72
     447                      .dwcfi  undefined, 73
     448                      .dwcfi  undefined, 74
     449                      .dwcfi  undefined, 39
     450                      .dwcfi  undefined, 40
     451                      .dwcfi  undefined, 27
     452                      .dwcfi  undefined, 78
     453                      .dwendentry
     454              
     455              ;***************************************************************
     456              ;* DWARF REGISTER MAP                                          *
     457              ;***************************************************************
     458              
     459              $C$DW$25        .dwtag  DW_TAG_TI_assign_register, DW_AT_name("AL")
     460                      .dwattr $C$DW$25, DW_AT_location[DW_OP_reg0]
     461              $C$DW$26        .dwtag  DW_TAG_TI_assign_register, DW_AT_name("AH")
     462                      .dwattr $C$DW$26, DW_AT_location[DW_OP_reg1]
     463              $C$DW$27        .dwtag  DW_TAG_TI_assign_register, DW_AT_name("PL")
     464                      .dwattr $C$DW$27, DW_AT_location[DW_OP_reg2]
     465              $C$DW$28        .dwtag  DW_TAG_TI_assign_register, DW_AT_name("PH")
     466                      .dwattr $C$DW$28, DW_AT_location[DW_OP_reg3]
     467              $C$DW$29        .dwtag  DW_TAG_TI_assign_register, DW_AT_name("SP")
     468                      .dwattr $C$DW$29, DW_AT_location[DW_OP_reg20]
     469              $C$DW$30        .dwtag  DW_TAG_TI_assign_register, DW_AT_name("XT")
     470                      .dwattr $C$DW$30, DW_AT_location[DW_OP_reg21]
     471              $C$DW$31        .dwtag  DW_TAG_TI_assign_register, DW_AT_name("T")
     472                      .dwattr $C$DW$31, DW_AT_location[DW_OP_reg22]
     473              $C$DW$32        .dwtag  DW_TAG_TI_assign_register, DW_AT_name("ST0")
     474                      .dwattr $C$DW$32, DW_AT_location[DW_OP_reg23]
     475              $C$DW$33        .dwtag  DW_TAG_TI_assign_register, DW_AT_name("ST1")
     476                      .dwattr $C$DW$33, DW_AT_location[DW_OP_reg24]
     477              $C$DW$34        .dwtag  DW_TAG_TI_assign_register, DW_AT_name("PC")
     478                      .dwattr $C$DW$34, DW_AT_location[DW_OP_reg25]
     479              $C$DW$35        .dwtag  DW_TAG_TI_assign_register, DW_AT_name("RPC")
     480                      .dwattr $C$DW$35, DW_AT_location[DW_OP_reg26]
     481              $C$DW$36        .dwtag  DW_TAG_TI_assign_register, DW_AT_name("FP")
     482                      .dwattr $C$DW$36, DW_AT_location[DW_OP_reg28]
TMS320C2000 Assembler PC v6.2.11 Mon Jun 29 19:41:31 2020

Tools Copyright (c) 1996-2015 Texas Instruments Incorporated
convert.asm                                                          PAGE   10

     483              $C$DW$37        .dwtag  DW_TAG_TI_assign_register, DW_AT_name("DP")
     484                      .dwattr $C$DW$37, DW_AT_location[DW_OP_reg29]
     485              $C$DW$38        .dwtag  DW_TAG_TI_assign_register, DW_AT_name("SXM")
     486                      .dwattr $C$DW$38, DW_AT_location[DW_OP_reg30]
     487              $C$DW$39        .dwtag  DW_TAG_TI_assign_register, DW_AT_name("PM")
     488                      .dwattr $C$DW$39, DW_AT_location[DW_OP_reg31]
     489              $C$DW$40        .dwtag  DW_TAG_TI_assign_register, DW_AT_name("OVM")
     490                      .dwattr $C$DW$40, DW_AT_location[DW_OP_regx 0x20]
     491              $C$DW$41        .dwtag  DW_TAG_TI_assign_register, DW_AT_name("PAGE0")
     492                      .dwattr $C$DW$41, DW_AT_location[DW_OP_regx 0x21]
     493              $C$DW$42        .dwtag  DW_TAG_TI_assign_register, DW_AT_name("AMODE")
     494                      .dwattr $C$DW$42, DW_AT_location[DW_OP_regx 0x22]
     495              $C$DW$43        .dwtag  DW_TAG_TI_assign_register, DW_AT_name("INTM")
     496                      .dwattr $C$DW$43, DW_AT_location[DW_OP_regx 0x23]
     497              $C$DW$44        .dwtag  DW_TAG_TI_assign_register, DW_AT_name("IFR")
     498                      .dwattr $C$DW$44, DW_AT_location[DW_OP_regx 0x24]
     499              $C$DW$45        .dwtag  DW_TAG_TI_assign_register, DW_AT_name("IER")
     500                      .dwattr $C$DW$45, DW_AT_location[DW_OP_regx 0x25]
     501              $C$DW$46        .dwtag  DW_TAG_TI_assign_register, DW_AT_name("V")
     502                      .dwattr $C$DW$46, DW_AT_location[DW_OP_regx 0x26]
     503              $C$DW$47        .dwtag  DW_TAG_TI_assign_register, DW_AT_name("PSEUDOH")
     504                      .dwattr $C$DW$47, DW_AT_location[DW_OP_regx 0x4c]
     505              $C$DW$48        .dwtag  DW_TAG_TI_assign_register, DW_AT_name("VOL")
     506                      .dwattr $C$DW$48, DW_AT_location[DW_OP_regx 0x4d]
     507              $C$DW$49        .dwtag  DW_TAG_TI_assign_register, DW_AT_name("AR0")
     508                      .dwattr $C$DW$49, DW_AT_location[DW_OP_reg4]
     509              $C$DW$50        .dwtag  DW_TAG_TI_assign_register, DW_AT_name("AR1")
     510                      .dwattr $C$DW$50, DW_AT_location[DW_OP_reg6]
     511              $C$DW$51        .dwtag  DW_TAG_TI_assign_register, DW_AT_name("AR2")
     512                      .dwattr $C$DW$51, DW_AT_location[DW_OP_reg8]
     513              $C$DW$52        .dwtag  DW_TAG_TI_assign_register, DW_AT_name("AR3")
     514                      .dwattr $C$DW$52, DW_AT_location[DW_OP_reg10]
     515              $C$DW$53        .dwtag  DW_TAG_TI_assign_register, DW_AT_name("AR4")
     516                      .dwattr $C$DW$53, DW_AT_location[DW_OP_reg12]
     517              $C$DW$54        .dwtag  DW_TAG_TI_assign_register, DW_AT_name("AR5")
     518                      .dwattr $C$DW$54, DW_AT_location[DW_OP_reg14]
     519              $C$DW$55        .dwtag  DW_TAG_TI_assign_register, DW_AT_name("AR6")
     520                      .dwattr $C$DW$55, DW_AT_location[DW_OP_reg16]
     521              $C$DW$56        .dwtag  DW_TAG_TI_assign_register, DW_AT_name("XAR6")
     522                      .dwattr $C$DW$56, DW_AT_location[DW_OP_reg17]
     523              $C$DW$57        .dwtag  DW_TAG_TI_assign_register, DW_AT_name("AR7")
     524                      .dwattr $C$DW$57, DW_AT_location[DW_OP_reg18]
     525              $C$DW$58        .dwtag  DW_TAG_TI_assign_register, DW_AT_name("XAR7")
     526                      .dwattr $C$DW$58, DW_AT_location[DW_OP_reg19]
     527              $C$DW$59        .dwtag  DW_TAG_TI_assign_register, DW_AT_name("XAR0")
     528                      .dwattr $C$DW$59, DW_AT_location[DW_OP_reg5]
     529              $C$DW$60        .dwtag  DW_TAG_TI_assign_register, DW_AT_name("XAR1")
     530                      .dwattr $C$DW$60, DW_AT_location[DW_OP_reg7]
     531              $C$DW$61        .dwtag  DW_TAG_TI_assign_register, DW_AT_name("XAR2")
     532                      .dwattr $C$DW$61, DW_AT_location[DW_OP_reg9]
     533              $C$DW$62        .dwtag  DW_TAG_TI_assign_register, DW_AT_name("XAR3")
     534                      .dwattr $C$DW$62, DW_AT_location[DW_OP_reg11]
     535              $C$DW$63        .dwtag  DW_TAG_TI_assign_register, DW_AT_name("XAR4")
     536                      .dwattr $C$DW$63, DW_AT_location[DW_OP_reg13]
     537              $C$DW$64        .dwtag  DW_TAG_TI_assign_register, DW_AT_name("XAR5")
TMS320C2000 Assembler PC v6.2.11 Mon Jun 29 19:41:31 2020

Tools Copyright (c) 1996-2015 Texas Instruments Incorporated
convert.asm                                                          PAGE   11

     538                      .dwattr $C$DW$64, DW_AT_location[DW_OP_reg15]
     539              $C$DW$65        .dwtag  DW_TAG_TI_assign_register, DW_AT_name("R0HL")
     540                      .dwattr $C$DW$65, DW_AT_location[DW_OP_regx 0x2b]
     541              $C$DW$66        .dwtag  DW_TAG_TI_assign_register, DW_AT_name("R0H")
     542                      .dwattr $C$DW$66, DW_AT_location[DW_OP_regx 0x2c]
     543              $C$DW$67        .dwtag  DW_TAG_TI_assign_register, DW_AT_name("R1HL")
     544                      .dwattr $C$DW$67, DW_AT_location[DW_OP_regx 0x2f]
     545              $C$DW$68        .dwtag  DW_TAG_TI_assign_register, DW_AT_name("R1H")
     546                      .dwattr $C$DW$68, DW_AT_location[DW_OP_regx 0x30]
     547              $C$DW$69        .dwtag  DW_TAG_TI_assign_register, DW_AT_name("R2HL")
     548                      .dwattr $C$DW$69, DW_AT_location[DW_OP_regx 0x33]
     549              $C$DW$70        .dwtag  DW_TAG_TI_assign_register, DW_AT_name("R2H")
     550                      .dwattr $C$DW$70, DW_AT_location[DW_OP_regx 0x34]
     551              $C$DW$71        .dwtag  DW_TAG_TI_assign_register, DW_AT_name("R3HL")
     552                      .dwattr $C$DW$71, DW_AT_location[DW_OP_regx 0x37]
     553              $C$DW$72        .dwtag  DW_TAG_TI_assign_register, DW_AT_name("R3H")
     554                      .dwattr $C$DW$72, DW_AT_location[DW_OP_regx 0x38]
     555              $C$DW$73        .dwtag  DW_TAG_TI_assign_register, DW_AT_name("R4HL")
     556                      .dwattr $C$DW$73, DW_AT_location[DW_OP_regx 0x3b]
     557              $C$DW$74        .dwtag  DW_TAG_TI_assign_register, DW_AT_name("R4H")
     558                      .dwattr $C$DW$74, DW_AT_location[DW_OP_regx 0x3c]
     559              $C$DW$75        .dwtag  DW_TAG_TI_assign_register, DW_AT_name("R5HL")
     560                      .dwattr $C$DW$75, DW_AT_location[DW_OP_regx 0x3f]
     561              $C$DW$76        .dwtag  DW_TAG_TI_assign_register, DW_AT_name("R5H")
     562                      .dwattr $C$DW$76, DW_AT_location[DW_OP_regx 0x40]
     563              $C$DW$77        .dwtag  DW_TAG_TI_assign_register, DW_AT_name("R6HL")
     564                      .dwattr $C$DW$77, DW_AT_location[DW_OP_regx 0x43]
     565              $C$DW$78        .dwtag  DW_TAG_TI_assign_register, DW_AT_name("R6H")
     566                      .dwattr $C$DW$78, DW_AT_location[DW_OP_regx 0x44]
     567              $C$DW$79        .dwtag  DW_TAG_TI_assign_register, DW_AT_name("R7HL")
     568                      .dwattr $C$DW$79, DW_AT_location[DW_OP_regx 0x47]
     569              $C$DW$80        .dwtag  DW_TAG_TI_assign_register, DW_AT_name("R7H")
     570                      .dwattr $C$DW$80, DW_AT_location[DW_OP_regx 0x48]
     571              $C$DW$81        .dwtag  DW_TAG_TI_assign_register, DW_AT_name("RBL")
     572                      .dwattr $C$DW$81, DW_AT_location[DW_OP_regx 0x49]
     573              $C$DW$82        .dwtag  DW_TAG_TI_assign_register, DW_AT_name("RB")
     574                      .dwattr $C$DW$82, DW_AT_location[DW_OP_regx 0x4a]
     575              $C$DW$83        .dwtag  DW_TAG_TI_assign_register, DW_AT_name("STFL")
     576                      .dwattr $C$DW$83, DW_AT_location[DW_OP_regx 0x27]
     577              $C$DW$84        .dwtag  DW_TAG_TI_assign_register, DW_AT_name("STF")
     578                      .dwattr $C$DW$84, DW_AT_location[DW_OP_regx 0x28]
     579              $C$DW$85        .dwtag  DW_TAG_TI_assign_register, DW_AT_name("FPUHAZ")
     580                      .dwattr $C$DW$85, DW_AT_location[DW_OP_reg27]
     581              $C$DW$86        .dwtag  DW_TAG_TI_assign_register, DW_AT_name("CIE_RETA")
     582                      .dwattr $C$DW$86, DW_AT_location[DW_OP_regx 0x4e]
     583                      .dwendtag $C$DW$CU
     584              

No Assembly Errors, No Assembly Warnings
