TMS320C2000 Assembler PC v6.2.0 Mon Oct 28 12:13:01 2019

Tools Copyright (c) 1996-2013 Texas Instruments Incorporated
../LIB2806x/source/F2806x_CodeStartBranch.asm                        PAGE    1

       1              ;// TI File $Revision: /main/2 $ 
       2              ;// Checkin $Date: January 4, 2011   10:10:05 $ 
       3              ;//###########################################################################
       4              ;//
       5              ;// FILE:  F2806x_CodeStartBranch.asm   
       6              ;//
       7              ;// TITLE: Branch for redirecting code execution after boot. 
       8              ;//
       9              ;// For these examples, code_start is the first code that is executed after
      10              ;// exiting the boot ROM code. 
      11              ;//
      12              ;// The codestart section in the linker cmd file is used to physically place
      13              ;// this code at the correct memory location.  This section should be placed 
      14              ;// at the location the BOOT ROM will re-direct the code to.  For example, 
      15              ;// for boot to FLASH this code will be located at 0x3f7ff6. 
      16              ;//
      17              ;// In addition, the example F2806x projects are setup such that the codegen
      18              ;// entry point is also set to the code_start label.  This is done by linker 
      19              ;// option -e in the project build options.  When the debugger loads the code,
      20              ;// it will automatically set the PC to the "entry point" address indicated by
      21              ;// the -e linker option.  In this case the debugger is simply assigning the PC, 
      22              ;// it is not the same as a full reset of the device. 
      23              ;// 
      24              ;// The compiler may warn that the entry point for the project is other then
      25              ;//  _c_init00.  _c_init00 is the C environment setup and is run before 
      26              ;// main() is entered. The code_start code will re-direct the execution 
      27              ;// to _c_init00 and thus there is no worry and this warning can be ignored. 
      28              ;// 
      29              ;//###########################################################################
      30              ;// $TI Release: 2806x C/C++ Header Files V1.10 $ 
      31              ;// $Release Date: April 7, 2011 $ 
      32              ;//###########################################################################
      33              
      34              ***********************************************************************
      35              
      36        0001  WD_DISABLE      .set    1               ;set to 1 to disable WD, else set to 0
      37              
      38                  .ref _c_int00
      39                  .ref _init_system
      40                  .global code_start
      41              
      42              ***********************************************************************
      43              * Function: codestart section
      44              *
      45              * Description: Branch to code starting point
      46              ***********************************************************************
      47              
      48 00000000           .sect "codestart"
      49              
      50              code_start:
      51                  .if WD_DISABLE == 1
      52              ;        LB wd_disable       ;Branch to watchdog disable code
      53 00000000 0040!         LB _init_system         ;Init sysinit and bios variables
         00000001 0000 
      54                  .else
TMS320C2000 Assembler PC v6.2.0 Mon Oct 28 12:13:01 2019

Tools Copyright (c) 1996-2013 Texas Instruments Incorporated
../LIB2806x/source/F2806x_CodeStartBranch.asm                        PAGE    2

      55                      LB _c_int00         ;Branch to start of boot.asm in RTS library
      56                  .endif
      57              
      58              ;end codestart section
      59              
      60              ***********************************************************************
      61              * Function: wd_disable
      62              *
      63              * Description: Disables the watchdog timer
      64              ***********************************************************************
      65                  .if WD_DISABLE == 1
      66              
      67 00000000           .text
      68 00000000       wd_disable:
      69 00000000 561F      SETC OBJMODE        ;Set OBJMODE for 28x object code
      70 00000001 7622      EALLOW              ;Enable EALLOW protected register access
      71 00000002 B9C0      MOVZ DP, #7029h>>6  ;Set data page for WDCR register
      72 00000003 2829      MOV @7029h, #0068h  ;Set WDDIS bit in WDCR to disable WD
         00000004 0068 
      73 00000005 761A      EDIS                ;Disable EALLOW protected register access
      74 00000006 0040!     LB _c_int00         ;Branch to start of boot.asm in RTS library
         00000007 0000 
      75              
      76                  .endif
      77              
      78              ;end wd_disable
      79              
      80                      .end

No Assembly Errors, No Assembly Warnings
