TMS320C2000 Assembler PC v6.2.0 Mon Oct 28 12:12:55 2019

Tools Copyright (c) 1996-2013 Texas Instruments Incorporated
ADS1015.asm                                                          PAGE    1

       1              ;***************************************************************
       2              ;* TMS320C2000 C/C++ Codegen                         PC v6.2.0 *
       3              ;* Date/Time created: Mon Oct 28 12:12:55 2019                 *
       4              ;***************************************************************
       5                      .compiler_opts --cla_support=cla0 --float_support=fpu32 --hll_source=on --mem_model:code=flat --mem_m
       6        0002  FP      .set    XAR2
       7              
       8              $C$DW$CU        .dwtag  DW_TAG_compile_unit
       9                      .dwattr $C$DW$CU, DW_AT_name("../ADS1015.c")
      10                      .dwattr $C$DW$CU, DW_AT_producer("TMS320C2000 C/C++ Codegen PC v6.2.0 Copyright (c) 1996-2013 Texas I
      11                      .dwattr $C$DW$CU, DW_AT_TI_version(0x01)
      12                      .dwattr $C$DW$CU, DW_AT_comp_dir("C:\Users\aen17\Desktop\Working\SVN\Johnny\V31\NewCAN\MMS_F_AEC\Stan
      13                      .global _m_i2cAddress
      14 00000000       _m_i2cAddress:  .usect  ".ebss",1,1,0
      15              $C$DW$1 .dwtag  DW_TAG_variable, DW_AT_name("m_i2cAddress")
      16                      .dwattr $C$DW$1, DW_AT_TI_symbol_name("_m_i2cAddress")
      17                      .dwattr $C$DW$1, DW_AT_location[DW_OP_addr _m_i2cAddress]
      18                      .dwattr $C$DW$1, DW_AT_type(*$C$DW$T$6)
      19                      .dwattr $C$DW$1, DW_AT_external
      20                      .global _m_gain
      21 00000001       _m_gain:        .usect  ".ebss",1,1,0
      22              $C$DW$2 .dwtag  DW_TAG_variable, DW_AT_name("m_gain")
      23                      .dwattr $C$DW$2, DW_AT_TI_symbol_name("_m_gain")
      24                      .dwattr $C$DW$2, DW_AT_location[DW_OP_addr _m_gain]
      25                      .dwattr $C$DW$2, DW_AT_type(*$C$DW$T$20)
      26                      .dwattr $C$DW$2, DW_AT_external
      27                      .global _m_conversionDelay
      28 00000002       _m_conversionDelay:     .usect  ".ebss",1,1,0
      29              $C$DW$3 .dwtag  DW_TAG_variable, DW_AT_name("m_conversionDelay")
      30                      .dwattr $C$DW$3, DW_AT_TI_symbol_name("_m_conversionDelay")
      31                      .dwattr $C$DW$3, DW_AT_location[DW_OP_addr _m_conversionDelay]
      32                      .dwattr $C$DW$3, DW_AT_type(*$C$DW$T$6)
      33                      .dwattr $C$DW$3, DW_AT_external
      34              
      35              $C$DW$4 .dwtag  DW_TAG_subprogram, DW_AT_name("CNV_SwapWord")
      36                      .dwattr $C$DW$4, DW_AT_TI_symbol_name("_CNV_SwapWord")
      37                      .dwattr $C$DW$4, DW_AT_type(*$C$DW$T$9)
      38                      .dwattr $C$DW$4, DW_AT_declaration
      39                      .dwattr $C$DW$4, DW_AT_external
      40              $C$DW$5 .dwtag  DW_TAG_formal_parameter
      41                      .dwattr $C$DW$5, DW_AT_type(*$C$DW$T$9)
      42                      .dwendtag $C$DW$4
      43              
      44              
      45              $C$DW$6 .dwtag  DW_TAG_subprogram, DW_AT_name("I2C_Command")
      46                      .dwattr $C$DW$6, DW_AT_TI_symbol_name("_I2C_Command")
      47                      .dwattr $C$DW$6, DW_AT_type(*$C$DW$T$6)
      48                      .dwattr $C$DW$6, DW_AT_declaration
      49                      .dwattr $C$DW$6, DW_AT_external
      50              $C$DW$7 .dwtag  DW_TAG_formal_parameter
      51                      .dwattr $C$DW$7, DW_AT_type(*$C$DW$T$9)
      52              $C$DW$8 .dwtag  DW_TAG_formal_parameter
      53                      .dwattr $C$DW$8, DW_AT_type(*$C$DW$T$25)
      54              $C$DW$9 .dwtag  DW_TAG_formal_parameter
      55                      .dwattr $C$DW$9, DW_AT_type(*$C$DW$T$9)
TMS320C2000 Assembler PC v6.2.0 Mon Oct 28 12:12:55 2019

Tools Copyright (c) 1996-2013 Texas Instruments Incorporated
ADS1015.asm                                                          PAGE    2

      56              $C$DW$10        .dwtag  DW_TAG_formal_parameter
      57                      .dwattr $C$DW$10, DW_AT_type(*$C$DW$T$9)
      58                      .dwendtag $C$DW$6
      59              
      60                      .global _m_bitShift
      61 00000003       _m_bitShift:    .usect  ".ebss",1,1,0
      62              $C$DW$11        .dwtag  DW_TAG_variable, DW_AT_name("m_bitShift")
      63                      .dwattr $C$DW$11, DW_AT_TI_symbol_name("_m_bitShift")
      64                      .dwattr $C$DW$11, DW_AT_location[DW_OP_addr _m_bitShift]
      65                      .dwattr $C$DW$11, DW_AT_type(*$C$DW$T$6)
      66                      .dwattr $C$DW$11, DW_AT_external
      67              ;       C:\ti\ccsv5\tools\compiler\c2000_6.2.0\bin\ac2000.exe -@C:\\Users\\ADMINI~1\\AppData\\Local\\Temp\\07
      68 00000000               .sect   ".text"
      69                      .global _ADS_Init
      70              
      71              $C$DW$12        .dwtag  DW_TAG_subprogram, DW_AT_name("ADS_Init")
      72                      .dwattr $C$DW$12, DW_AT_low_pc(_ADS_Init)
      73                      .dwattr $C$DW$12, DW_AT_high_pc(0x00)
      74                      .dwattr $C$DW$12, DW_AT_TI_symbol_name("_ADS_Init")
      75                      .dwattr $C$DW$12, DW_AT_external
      76                      .dwattr $C$DW$12, DW_AT_TI_begin_file("../ADS1015.c")
      77                      .dwattr $C$DW$12, DW_AT_TI_begin_line(0x2b)
      78                      .dwattr $C$DW$12, DW_AT_TI_begin_column(0x06)
      79                      .dwattr $C$DW$12, DW_AT_TI_max_frame_size(-2)
      80                      .dwpsn  file "../ADS1015.c",line 44,column 1,is_stmt,address _ADS_Init
      81              
      82                      .dwfde $C$DW$CIE, _ADS_Init
      83              
      84              ;***************************************************************
      85              ;* FNAME: _ADS_Init                     FR SIZE:   0           *
      86              ;*                                                             *
      87              ;* FUNCTION ENVIRONMENT                                        *
      88              ;*                                                             *
      89              ;* FUNCTION PROPERTIES                                         *
      90              ;*                            0 Parameter,  0 Auto,  0 SOE     *
      91              ;***************************************************************
      92              
      93 00000000       _ADS_Init:
      94                      .dwcfi  cfa_offset, -2
      95                      .dwcfi  save_reg_to_mem, 26, 0
      96                      .dwcfi  save_reg_to_reg, 78, 26
      97                      .dwpsn  file "../ADS1015.c",line 45,column 4,is_stmt
      98 00000000 761F-         MOVW      DP,#_m_conversionDelay ; [CPU_U] 
         00000001 0000 
      99 00000002 56BF-         MOVB      @_m_conversionDelay,#1,UNC ; [CPU_] |45| 
         00000003 0102 
     100                      .dwpsn  file "../ADS1015.c",line 46,column 4,is_stmt
     101 00000004 56BF-         MOVB      @_m_bitShift,#4,UNC   ; [CPU_] |46| 
         00000005 0403 
     102                      .dwpsn  file "../ADS1015.c",line 47,column 4,is_stmt
     103 00000006 2B01-         MOV       @_m_gain,#0           ; [CPU_] |47| 
     104                      .dwpsn  file "../ADS1015.c",line 48,column 1,is_stmt
     105              $C$DW$13        .dwtag  DW_TAG_TI_branch
     106                      .dwattr $C$DW$13, DW_AT_low_pc(0x00)
     107                      .dwattr $C$DW$13, DW_AT_TI_return
TMS320C2000 Assembler PC v6.2.0 Mon Oct 28 12:12:55 2019

Tools Copyright (c) 1996-2013 Texas Instruments Incorporated
ADS1015.asm                                                          PAGE    3

     108 00000007 0006          LRETR     ; [CPU_] 
     109                      ; return occurs ; [] 
     110                      .dwattr $C$DW$12, DW_AT_TI_end_file("../ADS1015.c")
     111                      .dwattr $C$DW$12, DW_AT_TI_end_line(0x30)
     112                      .dwattr $C$DW$12, DW_AT_TI_end_column(0x01)
     113                      .dwendentry
     114                      .dwendtag $C$DW$12
     115              
     116 00000008               .sect   ".text"
     117                      .global _ADS_SetGain
     118              
     119              $C$DW$14        .dwtag  DW_TAG_subprogram, DW_AT_name("ADS_SetGain")
     120                      .dwattr $C$DW$14, DW_AT_low_pc(_ADS_SetGain)
     121                      .dwattr $C$DW$14, DW_AT_high_pc(0x00)
     122                      .dwattr $C$DW$14, DW_AT_TI_symbol_name("_ADS_SetGain")
     123                      .dwattr $C$DW$14, DW_AT_external
     124                      .dwattr $C$DW$14, DW_AT_TI_begin_file("../ADS1015.c")
     125                      .dwattr $C$DW$14, DW_AT_TI_begin_line(0x39)
     126                      .dwattr $C$DW$14, DW_AT_TI_begin_column(0x06)
     127                      .dwattr $C$DW$14, DW_AT_TI_max_frame_size(-4)
     128                      .dwpsn  file "../ADS1015.c",line 58,column 1,is_stmt,address _ADS_SetGain
     129              
     130                      .dwfde $C$DW$CIE, _ADS_SetGain
     131              $C$DW$15        .dwtag  DW_TAG_formal_parameter, DW_AT_name("gain")
     132                      .dwattr $C$DW$15, DW_AT_TI_symbol_name("_gain")
     133                      .dwattr $C$DW$15, DW_AT_type(*$C$DW$T$20)
     134                      .dwattr $C$DW$15, DW_AT_location[DW_OP_reg0]
     135              
     136              ;***************************************************************
     137              ;* FNAME: _ADS_SetGain                  FR SIZE:   2           *
     138              ;*                                                             *
     139              ;* FUNCTION ENVIRONMENT                                        *
     140              ;*                                                             *
     141              ;* FUNCTION PROPERTIES                                         *
     142              ;*                            0 Parameter,  1 Auto,  0 SOE     *
     143              ;***************************************************************
     144              
     145 00000008       _ADS_SetGain:
     146                      .dwcfi  cfa_offset, -2
     147                      .dwcfi  save_reg_to_mem, 26, 0
     148                      .dwcfi  save_reg_to_reg, 78, 26
     149 00000008 FE02          ADDB      SP,#2                 ; [CPU_U] 
     150                      .dwcfi  cfa_offset, -4
     151              $C$DW$16        .dwtag  DW_TAG_variable, DW_AT_name("gain")
     152                      .dwattr $C$DW$16, DW_AT_TI_symbol_name("_gain")
     153                      .dwattr $C$DW$16, DW_AT_type(*$C$DW$T$20)
     154                      .dwattr $C$DW$16, DW_AT_location[DW_OP_breg20 -1]
     155 00000009 9641          MOV       *-SP[1],AL            ; [CPU_] |58| 
     156                      .dwpsn  file "../ADS1015.c",line 59,column 3,is_stmt
     157 0000000a 761F-         MOVW      DP,#_m_gain           ; [CPU_U] 
         0000000b 0000 
     158 0000000c 9601-         MOV       @_m_gain,AL           ; [CPU_] |59| 
     159                      .dwpsn  file "../ADS1015.c",line 60,column 1,is_stmt
     160 0000000d FE82          SUBB      SP,#2                 ; [CPU_U] 
     161                      .dwcfi  cfa_offset, -2
TMS320C2000 Assembler PC v6.2.0 Mon Oct 28 12:12:55 2019

Tools Copyright (c) 1996-2013 Texas Instruments Incorporated
ADS1015.asm                                                          PAGE    4

     162              $C$DW$17        .dwtag  DW_TAG_TI_branch
     163                      .dwattr $C$DW$17, DW_AT_low_pc(0x00)
     164                      .dwattr $C$DW$17, DW_AT_TI_return
     165 0000000e 0006          LRETR     ; [CPU_] 
     166                      ; return occurs ; [] 
     167                      .dwattr $C$DW$14, DW_AT_TI_end_file("../ADS1015.c")
     168                      .dwattr $C$DW$14, DW_AT_TI_end_line(0x3c)
     169                      .dwattr $C$DW$14, DW_AT_TI_end_column(0x01)
     170                      .dwendentry
     171                      .dwendtag $C$DW$14
     172              
     173 0000000f               .sect   ".text"
     174                      .global _ADS_GetGain
     175              
     176              $C$DW$18        .dwtag  DW_TAG_subprogram, DW_AT_name("ADS_GetGain")
     177                      .dwattr $C$DW$18, DW_AT_low_pc(_ADS_GetGain)
     178                      .dwattr $C$DW$18, DW_AT_high_pc(0x00)
     179                      .dwattr $C$DW$18, DW_AT_TI_symbol_name("_ADS_GetGain")
     180                      .dwattr $C$DW$18, DW_AT_external
     181                      .dwattr $C$DW$18, DW_AT_type(*$C$DW$T$20)
     182                      .dwattr $C$DW$18, DW_AT_TI_begin_file("../ADS1015.c")
     183                      .dwattr $C$DW$18, DW_AT_TI_begin_line(0x43)
     184                      .dwattr $C$DW$18, DW_AT_TI_begin_column(0x0b)
     185                      .dwattr $C$DW$18, DW_AT_TI_max_frame_size(-2)
     186                      .dwpsn  file "../ADS1015.c",line 68,column 1,is_stmt,address _ADS_GetGain
     187              
     188                      .dwfde $C$DW$CIE, _ADS_GetGain
     189              
     190              ;***************************************************************
     191              ;* FNAME: _ADS_GetGain                  FR SIZE:   0           *
     192              ;*                                                             *
     193              ;* FUNCTION ENVIRONMENT                                        *
     194              ;*                                                             *
     195              ;* FUNCTION PROPERTIES                                         *
     196              ;*                            0 Parameter,  0 Auto,  0 SOE     *
     197              ;***************************************************************
     198              
     199 0000000f       _ADS_GetGain:
     200                      .dwcfi  cfa_offset, -2
     201                      .dwcfi  save_reg_to_mem, 26, 0
     202                      .dwcfi  save_reg_to_reg, 78, 26
     203                      .dwpsn  file "../ADS1015.c",line 69,column 3,is_stmt
     204 0000000f 761F-         MOVW      DP,#_m_gain           ; [CPU_U] 
         00000010 0000 
     205 00000011 9201-         MOV       AL,@_m_gain           ; [CPU_] |69| 
     206                      .dwpsn  file "../ADS1015.c",line 70,column 1,is_stmt
     207              $C$DW$19        .dwtag  DW_TAG_TI_branch
     208                      .dwattr $C$DW$19, DW_AT_low_pc(0x00)
     209                      .dwattr $C$DW$19, DW_AT_TI_return
     210 00000012 0006          LRETR     ; [CPU_] 
     211                      ; return occurs ; [] 
     212                      .dwattr $C$DW$18, DW_AT_TI_end_file("../ADS1015.c")
     213                      .dwattr $C$DW$18, DW_AT_TI_end_line(0x46)
     214                      .dwattr $C$DW$18, DW_AT_TI_end_column(0x01)
     215                      .dwendentry
TMS320C2000 Assembler PC v6.2.0 Mon Oct 28 12:12:55 2019

Tools Copyright (c) 1996-2013 Texas Instruments Incorporated
ADS1015.asm                                                          PAGE    5

     216                      .dwendtag $C$DW$18
     217              
     218 00000013               .sect   ".text"
     219                      .global _ADS_StartReadADC_SingleEnded
     220              
     221              $C$DW$20        .dwtag  DW_TAG_subprogram, DW_AT_name("ADS_StartReadADC_SingleEnded")
     222                      .dwattr $C$DW$20, DW_AT_low_pc(_ADS_StartReadADC_SingleEnded)
     223                      .dwattr $C$DW$20, DW_AT_high_pc(0x00)
     224                      .dwattr $C$DW$20, DW_AT_TI_symbol_name("_ADS_StartReadADC_SingleEnded")
     225                      .dwattr $C$DW$20, DW_AT_external
     226                      .dwattr $C$DW$20, DW_AT_type(*$C$DW$T$6)
     227                      .dwattr $C$DW$20, DW_AT_TI_begin_file("../ADS1015.c")
     228                      .dwattr $C$DW$20, DW_AT_TI_begin_line(0x4d)
     229                      .dwattr $C$DW$20, DW_AT_TI_begin_column(0x07)
     230                      .dwattr $C$DW$20, DW_AT_TI_max_frame_size(-6)
     231                      .dwpsn  file "../ADS1015.c",line 77,column 51,is_stmt,address _ADS_StartReadADC_SingleEnded
     232              
     233                      .dwfde $C$DW$CIE, _ADS_StartReadADC_SingleEnded
     234              $C$DW$21        .dwtag  DW_TAG_formal_parameter, DW_AT_name("channel")
     235                      .dwattr $C$DW$21, DW_AT_TI_symbol_name("_channel")
     236                      .dwattr $C$DW$21, DW_AT_type(*$C$DW$T$6)
     237                      .dwattr $C$DW$21, DW_AT_location[DW_OP_reg0]
     238              
     239              ;***************************************************************
     240              ;* FNAME: _ADS_StartReadADC_SingleEnded FR SIZE:   4           *
     241              ;*                                                             *
     242              ;* FUNCTION ENVIRONMENT                                        *
     243              ;*                                                             *
     244              ;* FUNCTION PROPERTIES                                         *
     245              ;*                            0 Parameter,  3 Auto,  0 SOE     *
     246              ;***************************************************************
     247              
     248 00000013       _ADS_StartReadADC_SingleEnded:
     249                      .dwcfi  cfa_offset, -2
     250                      .dwcfi  save_reg_to_mem, 26, 0
     251                      .dwcfi  save_reg_to_reg, 78, 26
     252 00000013 FE04          ADDB      SP,#4                 ; [CPU_U] 
     253                      .dwcfi  cfa_offset, -6
     254              $C$DW$22        .dwtag  DW_TAG_variable, DW_AT_name("channel")
     255                      .dwattr $C$DW$22, DW_AT_TI_symbol_name("_channel")
     256                      .dwattr $C$DW$22, DW_AT_type(*$C$DW$T$6)
     257                      .dwattr $C$DW$22, DW_AT_location[DW_OP_breg20 -1]
     258              $C$DW$23        .dwtag  DW_TAG_variable, DW_AT_name("res")
     259                      .dwattr $C$DW$23, DW_AT_TI_symbol_name("_res")
     260                      .dwattr $C$DW$23, DW_AT_type(*$C$DW$T$6)
     261                      .dwattr $C$DW$23, DW_AT_location[DW_OP_breg20 -2]
     262              $C$DW$24        .dwtag  DW_TAG_variable, DW_AT_name("config")
     263                      .dwattr $C$DW$24, DW_AT_TI_symbol_name("_config")
     264                      .dwattr $C$DW$24, DW_AT_type(*$C$DW$T$9)
     265                      .dwattr $C$DW$24, DW_AT_location[DW_OP_breg20 -3]
     266 00000014 9641          MOV       *-SP[1],AL            ; [CPU_] |77| 
     267                      .dwpsn  file "../ADS1015.c",line 80,column 3,is_stmt
     268 00000015 5204          CMPB      AL,#4                 ; [CPU_] |80| 
     269 00000016 6803          B         $C$L1,LO              ; [CPU_] |80| 
     270                      ; branchcc occurs ; [] |80| 
TMS320C2000 Assembler PC v6.2.0 Mon Oct 28 12:12:55 2019

Tools Copyright (c) 1996-2013 Texas Instruments Incorporated
ADS1015.asm                                                          PAGE    6

     271                      .dwpsn  file "../ADS1015.c",line 82,column 5,is_stmt
     272 00000017 9A00          MOVB      AL,#0                 ; [CPU_] |82| 
     273 00000018 6F2A          B         $C$L8,UNC             ; [CPU_] |82| 
     274                      ; branch occurs ; [] |82| 
     275 00000019       $C$L1:    
     276                      .dwpsn  file "../ADS1015.c",line 86,column 17,is_stmt
     277 00000019 2843          MOV       *-SP[3],#387          ; [CPU_] |86| 
         0000001a 0183 
     278                      .dwpsn  file "../ADS1015.c",line 94,column 3,is_stmt
     279 0000001b 761F-         MOVW      DP,#_m_gain           ; [CPU_U] 
         0000001c 0000 
     280 0000001d 9201-         MOV       AL,@_m_gain           ; [CPU_] |94| 
     281 0000001e 9843          OR        *-SP[3],AL            ; [CPU_] |94| 
     282                      .dwpsn  file "../ADS1015.c",line 97,column 3,is_stmt
     283 0000001f 6F0D          B         $C$L6,UNC             ; [CPU_] |97| 
     284                      ; branch occurs ; [] |97| 
     285 00000020       $C$L2:    
     286                      .dwpsn  file "../ADS1015.c",line 100,column 7,is_stmt
     287 00000020 1A43          OR        *-SP[3],#0x4000       ; [CPU_] |100| 
         00000021 4000 
     288                      .dwpsn  file "../ADS1015.c",line 101,column 7,is_stmt
     289 00000022 6F12          B         $C$L7,UNC             ; [CPU_] |101| 
     290                      ; branch occurs ; [] |101| 
     291 00000023       $C$L3:    
     292                      .dwpsn  file "../ADS1015.c",line 103,column 7,is_stmt
     293 00000023 1A43          OR        *-SP[3],#0x5000       ; [CPU_] |103| 
         00000024 5000 
     294                      .dwpsn  file "../ADS1015.c",line 104,column 7,is_stmt
     295 00000025 6F0F          B         $C$L7,UNC             ; [CPU_] |104| 
     296                      ; branch occurs ; [] |104| 
     297 00000026       $C$L4:    
     298                      .dwpsn  file "../ADS1015.c",line 106,column 7,is_stmt
     299 00000026 1A43          OR        *-SP[3],#0x6000       ; [CPU_] |106| 
         00000027 6000 
     300                      .dwpsn  file "../ADS1015.c",line 107,column 7,is_stmt
     301 00000028 6F0C          B         $C$L7,UNC             ; [CPU_] |107| 
     302                      ; branch occurs ; [] |107| 
     303 00000029       $C$L5:    
     304                      .dwpsn  file "../ADS1015.c",line 109,column 7,is_stmt
     305 00000029 1A43          OR        *-SP[3],#0x7000       ; [CPU_] |109| 
         0000002a 7000 
     306                      .dwpsn  file "../ADS1015.c",line 110,column 7,is_stmt
     307 0000002b 6F09          B         $C$L7,UNC             ; [CPU_] |110| 
     308                      ; branch occurs ; [] |110| 
     309 0000002c       $C$L6:    
     310                      .dwpsn  file "../ADS1015.c",line 97,column 3,is_stmt
     311 0000002c 9241          MOV       AL,*-SP[1]            ; [CPU_] |97| 
     312 0000002d ECF3          BF        $C$L2,EQ              ; [CPU_] |97| 
     313                      ; branchcc occurs ; [] |97| 
     314 0000002e 5201          CMPB      AL,#1                 ; [CPU_] |97| 
     315 0000002f ECF4          BF        $C$L3,EQ              ; [CPU_] |97| 
     316                      ; branchcc occurs ; [] |97| 
     317 00000030 5202          CMPB      AL,#2                 ; [CPU_] |97| 
     318 00000031 ECF5          BF        $C$L4,EQ              ; [CPU_] |97| 
     319                      ; branchcc occurs ; [] |97| 
TMS320C2000 Assembler PC v6.2.0 Mon Oct 28 12:12:55 2019

Tools Copyright (c) 1996-2013 Texas Instruments Incorporated
ADS1015.asm                                                          PAGE    7

     320 00000032 5203          CMPB      AL,#3                 ; [CPU_] |97| 
     321 00000033 ECF6          BF        $C$L5,EQ              ; [CPU_] |97| 
     322                      ; branchcc occurs ; [] |97| 
     323 00000034       $C$L7:    
     324                      .dwpsn  file "../ADS1015.c",line 114,column 3,is_stmt
     325 00000034 1A43          OR        *-SP[3],#0x8000       ; [CPU_] |114| 
         00000035 8000 
     326                      .dwpsn  file "../ADS1015.c",line 116,column 3,is_stmt
     327 00000036 9243          MOV       AL,*-SP[3]            ; [CPU_] |116| 
     328              $C$DW$25        .dwtag  DW_TAG_TI_branch
     329                      .dwattr $C$DW$25, DW_AT_low_pc(0x00)
     330                      .dwattr $C$DW$25, DW_AT_name("_CNV_SwapWord")
     331                      .dwattr $C$DW$25, DW_AT_TI_call
     332 00000037 7640!         LCR       #_CNV_SwapWord        ; [CPU_] |116| 
         00000038 0000 
     333                      ; call occurs [#_CNV_SwapWord] ; [] |116| 
     334 00000039 9643          MOV       *-SP[3],AL            ; [CPU_] |116| 
     335                      .dwpsn  file "../ADS1015.c",line 119,column 3,is_stmt
     336 0000003a D501          MOVB      XAR5,#1               ; [CPU_] |119| 
     337 0000003b 9B02          MOVB      AH,#2                 ; [CPU_] |119| 
     338 0000003c 5CAD          MOVZ      AR4,SP                ; [CPU_U] |119| 
     339 0000003d 9A05          MOVB      AL,#5                 ; [CPU_] |119| 
     340 0000003e DC83          SUBB      XAR4,#3               ; [CPU_U] |119| 
     341              $C$DW$26        .dwtag  DW_TAG_TI_branch
     342                      .dwattr $C$DW$26, DW_AT_low_pc(0x00)
     343                      .dwattr $C$DW$26, DW_AT_name("_I2C_Command")
     344                      .dwattr $C$DW$26, DW_AT_TI_call
     345 0000003f 7640!         LCR       #_I2C_Command         ; [CPU_] |119| 
         00000040 0000 
     346                      ; call occurs [#_I2C_Command] ; [] |119| 
     347 00000041 9642          MOV       *-SP[2],AL            ; [CPU_] |119| 
     348                      .dwpsn  file "../ADS1015.c",line 126,column 3,is_stmt
     349 00000042       $C$L8:    
     350                      .dwpsn  file "../ADS1015.c",line 127,column 1,is_stmt
     351 00000042 FE84          SUBB      SP,#4                 ; [CPU_U] 
     352                      .dwcfi  cfa_offset, -2
     353              $C$DW$27        .dwtag  DW_TAG_TI_branch
     354                      .dwattr $C$DW$27, DW_AT_low_pc(0x00)
     355                      .dwattr $C$DW$27, DW_AT_TI_return
     356 00000043 0006          LRETR     ; [CPU_] 
     357                      ; return occurs ; [] 
     358                      .dwattr $C$DW$20, DW_AT_TI_end_file("../ADS1015.c")
     359                      .dwattr $C$DW$20, DW_AT_TI_end_line(0x7f)
     360                      .dwattr $C$DW$20, DW_AT_TI_end_column(0x01)
     361                      .dwendentry
     362                      .dwendtag $C$DW$20
     363              
     364 00000044               .sect   ".text"
     365                      .global _ADS_GetLastConversionResults
     366              
     367              $C$DW$28        .dwtag  DW_TAG_subprogram, DW_AT_name("ADS_GetLastConversionResults")
     368                      .dwattr $C$DW$28, DW_AT_low_pc(_ADS_GetLastConversionResults)
     369                      .dwattr $C$DW$28, DW_AT_high_pc(0x00)
     370                      .dwattr $C$DW$28, DW_AT_TI_symbol_name("_ADS_GetLastConversionResults")
     371                      .dwattr $C$DW$28, DW_AT_external
TMS320C2000 Assembler PC v6.2.0 Mon Oct 28 12:12:55 2019

Tools Copyright (c) 1996-2013 Texas Instruments Incorporated
ADS1015.asm                                                          PAGE    8

     372                      .dwattr $C$DW$28, DW_AT_type(*$C$DW$T$6)
     373                      .dwattr $C$DW$28, DW_AT_TI_begin_file("../ADS1015.c")
     374                      .dwattr $C$DW$28, DW_AT_TI_begin_line(0x89)
     375                      .dwattr $C$DW$28, DW_AT_TI_begin_column(0x07)
     376                      .dwattr $C$DW$28, DW_AT_TI_max_frame_size(-6)
     377                      .dwpsn  file "../ADS1015.c",line 138,column 1,is_stmt,address _ADS_GetLastConversionResults
     378              
     379                      .dwfde $C$DW$CIE, _ADS_GetLastConversionResults
     380              $C$DW$29        .dwtag  DW_TAG_formal_parameter, DW_AT_name("measure")
     381                      .dwattr $C$DW$29, DW_AT_TI_symbol_name("_measure")
     382                      .dwattr $C$DW$29, DW_AT_type(*$C$DW$T$29)
     383                      .dwattr $C$DW$29, DW_AT_location[DW_OP_reg12]
     384              
     385              ;***************************************************************
     386              ;* FNAME: _ADS_GetLastConversionResults FR SIZE:   4           *
     387              ;*                                                             *
     388              ;* FUNCTION ENVIRONMENT                                        *
     389              ;*                                                             *
     390              ;* FUNCTION PROPERTIES                                         *
     391              ;*                            0 Parameter,  4 Auto,  0 SOE     *
     392              ;***************************************************************
     393              
     394 00000044       _ADS_GetLastConversionResults:
     395                      .dwcfi  cfa_offset, -2
     396                      .dwcfi  save_reg_to_mem, 26, 0
     397                      .dwcfi  save_reg_to_reg, 78, 26
     398 00000044 FE04          ADDB      SP,#4                 ; [CPU_U] 
     399                      .dwcfi  cfa_offset, -6
     400              $C$DW$30        .dwtag  DW_TAG_variable, DW_AT_name("measure")
     401                      .dwattr $C$DW$30, DW_AT_TI_symbol_name("_measure")
     402                      .dwattr $C$DW$30, DW_AT_type(*$C$DW$T$29)
     403                      .dwattr $C$DW$30, DW_AT_location[DW_OP_breg20 -2]
     404              $C$DW$31        .dwtag  DW_TAG_variable, DW_AT_name("command_res")
     405                      .dwattr $C$DW$31, DW_AT_TI_symbol_name("_command_res")
     406                      .dwattr $C$DW$31, DW_AT_type(*$C$DW$T$6)
     407                      .dwattr $C$DW$31, DW_AT_location[DW_OP_breg20 -3]
     408              $C$DW$32        .dwtag  DW_TAG_variable, DW_AT_name("val")
     409                      .dwattr $C$DW$32, DW_AT_TI_symbol_name("_val")
     410                      .dwattr $C$DW$32, DW_AT_type(*$C$DW$T$9)
     411                      .dwattr $C$DW$32, DW_AT_location[DW_OP_breg20 -4]
     412 00000045 A842          MOVL      *-SP[2],XAR4          ; [CPU_] |138| 
     413                      .dwpsn  file "../ADS1015.c",line 147,column 3,is_stmt
     414 00000046 9A06          MOVB      AL,#6                 ; [CPU_] |147| 
     415 00000047 9B02          MOVB      AH,#2                 ; [CPU_] |147| 
     416 00000048 D500          MOVB      XAR5,#0               ; [CPU_] |147| 
     417 00000049 5CAD          MOVZ      AR4,SP                ; [CPU_U] |147| 
     418 0000004a DC84          SUBB      XAR4,#4               ; [CPU_U] |147| 
     419              $C$DW$33        .dwtag  DW_TAG_TI_branch
     420                      .dwattr $C$DW$33, DW_AT_low_pc(0x00)
     421                      .dwattr $C$DW$33, DW_AT_name("_I2C_Command")
     422                      .dwattr $C$DW$33, DW_AT_TI_call
     423 0000004b 7640!         LCR       #_I2C_Command         ; [CPU_] |147| 
         0000004c 0000 
     424                      ; call occurs [#_I2C_Command] ; [] |147| 
     425 0000004d 9643          MOV       *-SP[3],AL            ; [CPU_] |147| 
TMS320C2000 Assembler PC v6.2.0 Mon Oct 28 12:12:55 2019

Tools Copyright (c) 1996-2013 Texas Instruments Incorporated
ADS1015.asm                                                          PAGE    9

     426                      .dwpsn  file "../ADS1015.c",line 149,column 3,is_stmt
     427 0000004e 5200          CMPB      AL,#0                 ; [CPU_] |149| 
     428 0000004f EC19          BF        $C$L11,EQ             ; [CPU_] |149| 
     429                      ; branchcc occurs ; [] |149| 
     430                      .dwpsn  file "../ADS1015.c",line 150,column 5,is_stmt
     431 00000050 9244          MOV       AL,*-SP[4]            ; [CPU_] |150| 
     432              $C$DW$34        .dwtag  DW_TAG_TI_branch
     433                      .dwattr $C$DW$34, DW_AT_low_pc(0x00)
     434                      .dwattr $C$DW$34, DW_AT_name("_CNV_SwapWord")
     435                      .dwattr $C$DW$34, DW_AT_TI_call
     436 00000051 7640!         LCR       #_CNV_SwapWord        ; [CPU_] |150| 
         00000052 0000 
     437                      ; call occurs [#_CNV_SwapWord] ; [] |150| 
     438 00000053 9644          MOV       *-SP[4],AL            ; [CPU_] |150| 
     439                      .dwpsn  file "../ADS1015.c",line 151,column 5,is_stmt
     440 00000054 761F-         MOVW      DP,#_m_bitShift       ; [CPU_U] 
         00000055 0000 
     441 00000056 2D03-         MOV       T,@_m_bitShift        ; [CPU_] |151| 
     442 00000057 FF62          LSR       AL,T                  ; [CPU_] |151| 
     443 00000058 9644          MOV       *-SP[4],AL            ; [CPU_] |151| 
     444                      .dwpsn  file "../ADS1015.c",line 152,column 5,is_stmt
     445 00000059 9203-         MOV       AL,@_m_bitShift       ; [CPU_] |152| 
     446 0000005a ED05          BF        $C$L9,NEQ             ; [CPU_] |152| 
     447                      ; branchcc occurs ; [] |152| 
     448                      .dwpsn  file "../ADS1015.c",line 154,column 7,is_stmt
     449 0000005b 8A42          MOVL      XAR4,*-SP[2]          ; [CPU_] |154| 
     450 0000005c 9244          MOV       AL,*-SP[4]            ; [CPU_] |154| 
     451 0000005d 96C4          MOV       *+XAR4[0],AL          ; [CPU_] |154| 
     452                      .dwpsn  file "../ADS1015.c",line 155,column 5,is_stmt
     453 0000005e 6F0C          B         $C$L12,UNC            ; [CPU_] |155| 
     454                      ; branch occurs ; [] |155| 
     455 0000005f       $C$L9:    
     456                      .dwpsn  file "../ADS1015.c",line 160,column 7,is_stmt
     457 0000005f 1B44          CMP       *-SP[4],#2047         ; [CPU_] |160| 
         00000060 07FF 
     458 00000061 6903          B         $C$L10,LOS            ; [CPU_] |160| 
     459                      ; branchcc occurs ; [] |160| 
     460                      .dwpsn  file "../ADS1015.c",line 163,column 9,is_stmt
     461 00000062 1A44          OR        *-SP[4],#0xf000       ; [CPU_] |163| 
         00000063 F000 
     462 00000064       $C$L10:    
     463                      .dwpsn  file "../ADS1015.c",line 165,column 7,is_stmt
     464 00000064 8A42          MOVL      XAR4,*-SP[2]          ; [CPU_] |165| 
     465 00000065 9244          MOV       AL,*-SP[4]            ; [CPU_] |165| 
     466 00000066 96C4          MOV       *+XAR4[0],AL          ; [CPU_] |165| 
     467                      .dwpsn  file "../ADS1015.c",line 167,column 3,is_stmt
     468 00000067 6F03          B         $C$L12,UNC            ; [CPU_] |167| 
     469                      ; branch occurs ; [] |167| 
     470 00000068       $C$L11:    
     471                      .dwpsn  file "../ADS1015.c",line 169,column 5,is_stmt
     472 00000068 8A42          MOVL      XAR4,*-SP[2]          ; [CPU_] |169| 
     473 00000069 2BC4          MOV       *+XAR4[0],#0          ; [CPU_] |169| 
     474 0000006a       $C$L12:    
     475                      .dwpsn  file "../ADS1015.c",line 171,column 3,is_stmt
     476 0000006a 9243          MOV       AL,*-SP[3]            ; [CPU_] |171| 
TMS320C2000 Assembler PC v6.2.0 Mon Oct 28 12:12:55 2019

Tools Copyright (c) 1996-2013 Texas Instruments Incorporated
ADS1015.asm                                                          PAGE   10

     477                      .dwpsn  file "../ADS1015.c",line 172,column 1,is_stmt
     478 0000006b FE84          SUBB      SP,#4                 ; [CPU_U] 
     479                      .dwcfi  cfa_offset, -2
     480              $C$DW$35        .dwtag  DW_TAG_TI_branch
     481                      .dwattr $C$DW$35, DW_AT_low_pc(0x00)
     482                      .dwattr $C$DW$35, DW_AT_TI_return
     483 0000006c 0006          LRETR     ; [CPU_] 
     484                      ; return occurs ; [] 
     485                      .dwattr $C$DW$28, DW_AT_TI_end_file("../ADS1015.c")
     486                      .dwattr $C$DW$28, DW_AT_TI_end_line(0xac)
     487                      .dwattr $C$DW$28, DW_AT_TI_end_column(0x01)
     488                      .dwendentry
     489                      .dwendtag $C$DW$28
     490              
     491              ;**************************************************************
     492              ;* UNDEFINED EXTERNAL REFERENCES                              *
     493              ;**************************************************************
     494                      .global _CNV_SwapWord
     495                      .global _I2C_Command
     496              
     497              ;***************************************************************
     498              ;* TYPE INFORMATION                                            *
     499              ;***************************************************************
     500              
     501              $C$DW$T$19      .dwtag  DW_TAG_enumeration_type
     502                      .dwattr $C$DW$T$19, DW_AT_byte_size(0x01)
     503              $C$DW$36        .dwtag  DW_TAG_enumerator, DW_AT_name("GAIN_TWOTHIRDS"), DW_AT_const_value(0x00)
     504              $C$DW$37        .dwtag  DW_TAG_enumerator, DW_AT_name("GAIN_ONE"), DW_AT_const_value(0x200)
     505              $C$DW$38        .dwtag  DW_TAG_enumerator, DW_AT_name("GAIN_TWO"), DW_AT_const_value(0x400)
     506              $C$DW$39        .dwtag  DW_TAG_enumerator, DW_AT_name("GAIN_FOUR"), DW_AT_const_value(0x600)
     507              $C$DW$40        .dwtag  DW_TAG_enumerator, DW_AT_name("GAIN_EIGHT"), DW_AT_const_value(0x800)
     508              $C$DW$41        .dwtag  DW_TAG_enumerator, DW_AT_name("GAIN_SIXTEEN"), DW_AT_const_value(0xa00)
     509                      .dwendtag $C$DW$T$19
     510              
     511              $C$DW$T$20      .dwtag  DW_TAG_typedef, DW_AT_name("adsGain_t")
     512                      .dwattr $C$DW$T$20, DW_AT_type(*$C$DW$T$19)
     513                      .dwattr $C$DW$T$20, DW_AT_language(DW_LANG_C)
     514              $C$DW$T$4       .dwtag  DW_TAG_base_type
     515                      .dwattr $C$DW$T$4, DW_AT_encoding(DW_ATE_boolean)
     516                      .dwattr $C$DW$T$4, DW_AT_name("bool")
     517                      .dwattr $C$DW$T$4, DW_AT_byte_size(0x01)
     518              $C$DW$T$5       .dwtag  DW_TAG_base_type
     519                      .dwattr $C$DW$T$5, DW_AT_encoding(DW_ATE_signed_char)
     520                      .dwattr $C$DW$T$5, DW_AT_name("signed char")
     521                      .dwattr $C$DW$T$5, DW_AT_byte_size(0x01)
     522              $C$DW$T$6       .dwtag  DW_TAG_base_type
     523                      .dwattr $C$DW$T$6, DW_AT_encoding(DW_ATE_unsigned_char)
     524                      .dwattr $C$DW$T$6, DW_AT_name("unsigned char")
     525                      .dwattr $C$DW$T$6, DW_AT_byte_size(0x01)
     526              $C$DW$T$7       .dwtag  DW_TAG_base_type
     527                      .dwattr $C$DW$T$7, DW_AT_encoding(DW_ATE_signed_char)
     528                      .dwattr $C$DW$T$7, DW_AT_name("wchar_t")
     529                      .dwattr $C$DW$T$7, DW_AT_byte_size(0x01)
     530              $C$DW$T$8       .dwtag  DW_TAG_base_type
     531                      .dwattr $C$DW$T$8, DW_AT_encoding(DW_ATE_signed)
TMS320C2000 Assembler PC v6.2.0 Mon Oct 28 12:12:55 2019

Tools Copyright (c) 1996-2013 Texas Instruments Incorporated
ADS1015.asm                                                          PAGE   11

     532                      .dwattr $C$DW$T$8, DW_AT_name("short")
     533                      .dwattr $C$DW$T$8, DW_AT_byte_size(0x01)
     534              $C$DW$T$9       .dwtag  DW_TAG_base_type
     535                      .dwattr $C$DW$T$9, DW_AT_encoding(DW_ATE_unsigned)
     536                      .dwattr $C$DW$T$9, DW_AT_name("unsigned short")
     537                      .dwattr $C$DW$T$9, DW_AT_byte_size(0x01)
     538              $C$DW$T$29      .dwtag  DW_TAG_pointer_type
     539                      .dwattr $C$DW$T$29, DW_AT_type(*$C$DW$T$9)
     540                      .dwattr $C$DW$T$29, DW_AT_address_class(0x16)
     541              $C$DW$T$10      .dwtag  DW_TAG_base_type
     542                      .dwattr $C$DW$T$10, DW_AT_encoding(DW_ATE_signed)
     543                      .dwattr $C$DW$T$10, DW_AT_name("int")
     544                      .dwattr $C$DW$T$10, DW_AT_byte_size(0x01)
     545              $C$DW$T$11      .dwtag  DW_TAG_base_type
     546                      .dwattr $C$DW$T$11, DW_AT_encoding(DW_ATE_unsigned)
     547                      .dwattr $C$DW$T$11, DW_AT_name("unsigned int")
     548                      .dwattr $C$DW$T$11, DW_AT_byte_size(0x01)
     549              $C$DW$T$12      .dwtag  DW_TAG_base_type
     550                      .dwattr $C$DW$T$12, DW_AT_encoding(DW_ATE_signed)
     551                      .dwattr $C$DW$T$12, DW_AT_name("long")
     552                      .dwattr $C$DW$T$12, DW_AT_byte_size(0x02)
     553              $C$DW$T$13      .dwtag  DW_TAG_base_type
     554                      .dwattr $C$DW$T$13, DW_AT_encoding(DW_ATE_unsigned)
     555                      .dwattr $C$DW$T$13, DW_AT_name("unsigned long")
     556                      .dwattr $C$DW$T$13, DW_AT_byte_size(0x02)
     557              $C$DW$T$14      .dwtag  DW_TAG_base_type
     558                      .dwattr $C$DW$T$14, DW_AT_encoding(DW_ATE_signed)
     559                      .dwattr $C$DW$T$14, DW_AT_name("long long")
     560                      .dwattr $C$DW$T$14, DW_AT_byte_size(0x04)
     561              $C$DW$T$15      .dwtag  DW_TAG_base_type
     562                      .dwattr $C$DW$T$15, DW_AT_encoding(DW_ATE_unsigned)
     563                      .dwattr $C$DW$T$15, DW_AT_name("unsigned long long")
     564                      .dwattr $C$DW$T$15, DW_AT_byte_size(0x04)
     565              $C$DW$T$16      .dwtag  DW_TAG_base_type
     566                      .dwattr $C$DW$T$16, DW_AT_encoding(DW_ATE_float)
     567                      .dwattr $C$DW$T$16, DW_AT_name("float")
     568                      .dwattr $C$DW$T$16, DW_AT_byte_size(0x02)
     569              $C$DW$T$17      .dwtag  DW_TAG_base_type
     570                      .dwattr $C$DW$T$17, DW_AT_encoding(DW_ATE_float)
     571                      .dwattr $C$DW$T$17, DW_AT_name("double")
     572                      .dwattr $C$DW$T$17, DW_AT_byte_size(0x02)
     573              $C$DW$T$18      .dwtag  DW_TAG_base_type
     574                      .dwattr $C$DW$T$18, DW_AT_encoding(DW_ATE_float)
     575                      .dwattr $C$DW$T$18, DW_AT_name("long double")
     576                      .dwattr $C$DW$T$18, DW_AT_byte_size(0x04)
     577              $C$DW$T$25      .dwtag  DW_TAG_pointer_type
     578                      .dwattr $C$DW$T$25, DW_AT_type(*$C$DW$T$5)
     579                      .dwattr $C$DW$T$25, DW_AT_address_class(0x16)
     580                      .dwattr $C$DW$CU, DW_AT_language(DW_LANG_C)
     581              
     582              ;***************************************************************
     583              ;* DWARF CIE ENTRIES                                           *
     584              ;***************************************************************
     585              
     586              $C$DW$CIE       .dwcie 78
TMS320C2000 Assembler PC v6.2.0 Mon Oct 28 12:12:55 2019

Tools Copyright (c) 1996-2013 Texas Instruments Incorporated
ADS1015.asm                                                          PAGE   12

     587                      .dwcfi  cfa_register, 20
     588                      .dwcfi  cfa_offset, 0
     589                      .dwcfi  undefined, 0
     590                      .dwcfi  undefined, 1
     591                      .dwcfi  undefined, 2
     592                      .dwcfi  undefined, 3
     593                      .dwcfi  undefined, 20
     594                      .dwcfi  undefined, 21
     595                      .dwcfi  undefined, 22
     596                      .dwcfi  undefined, 23
     597                      .dwcfi  undefined, 24
     598                      .dwcfi  undefined, 25
     599                      .dwcfi  undefined, 26
     600                      .dwcfi  same_value, 28
     601                      .dwcfi  undefined, 29
     602                      .dwcfi  undefined, 30
     603                      .dwcfi  undefined, 31
     604                      .dwcfi  undefined, 32
     605                      .dwcfi  undefined, 33
     606                      .dwcfi  undefined, 34
     607                      .dwcfi  undefined, 35
     608                      .dwcfi  undefined, 36
     609                      .dwcfi  undefined, 37
     610                      .dwcfi  undefined, 38
     611                      .dwcfi  undefined, 75
     612                      .dwcfi  undefined, 76
     613                      .dwcfi  undefined, 77
     614                      .dwcfi  undefined, 4
     615                      .dwcfi  same_value, 6
     616                      .dwcfi  same_value, 8
     617                      .dwcfi  same_value, 10
     618                      .dwcfi  undefined, 12
     619                      .dwcfi  undefined, 14
     620                      .dwcfi  undefined, 16
     621                      .dwcfi  undefined, 17
     622                      .dwcfi  undefined, 18
     623                      .dwcfi  undefined, 19
     624                      .dwcfi  undefined, 5
     625                      .dwcfi  same_value, 7
     626                      .dwcfi  same_value, 9
     627                      .dwcfi  same_value, 11
     628                      .dwcfi  undefined, 13
     629                      .dwcfi  undefined, 15
     630                      .dwcfi  undefined, 43
     631                      .dwcfi  undefined, 44
     632                      .dwcfi  undefined, 47
     633                      .dwcfi  undefined, 48
     634                      .dwcfi  undefined, 51
     635                      .dwcfi  undefined, 52
     636                      .dwcfi  undefined, 55
     637                      .dwcfi  undefined, 56
     638                      .dwcfi  same_value, 59
     639                      .dwcfi  same_value, 60
     640                      .dwcfi  same_value, 63
     641                      .dwcfi  same_value, 64
TMS320C2000 Assembler PC v6.2.0 Mon Oct 28 12:12:55 2019

Tools Copyright (c) 1996-2013 Texas Instruments Incorporated
ADS1015.asm                                                          PAGE   13

     642                      .dwcfi  same_value, 67
     643                      .dwcfi  same_value, 68
     644                      .dwcfi  same_value, 71
     645                      .dwcfi  same_value, 72
     646                      .dwcfi  undefined, 73
     647                      .dwcfi  undefined, 74
     648                      .dwcfi  undefined, 39
     649                      .dwcfi  undefined, 40
     650                      .dwcfi  undefined, 27
     651                      .dwcfi  undefined, 78
     652                      .dwendentry
     653              
     654              ;***************************************************************
     655              ;* DWARF REGISTER MAP                                          *
     656              ;***************************************************************
     657              
     658              $C$DW$42        .dwtag  DW_TAG_TI_assign_register, DW_AT_name("AL")
     659                      .dwattr $C$DW$42, DW_AT_location[DW_OP_reg0]
     660              $C$DW$43        .dwtag  DW_TAG_TI_assign_register, DW_AT_name("AH")
     661                      .dwattr $C$DW$43, DW_AT_location[DW_OP_reg1]
     662              $C$DW$44        .dwtag  DW_TAG_TI_assign_register, DW_AT_name("PL")
     663                      .dwattr $C$DW$44, DW_AT_location[DW_OP_reg2]
     664              $C$DW$45        .dwtag  DW_TAG_TI_assign_register, DW_AT_name("PH")
     665                      .dwattr $C$DW$45, DW_AT_location[DW_OP_reg3]
     666              $C$DW$46        .dwtag  DW_TAG_TI_assign_register, DW_AT_name("SP")
     667                      .dwattr $C$DW$46, DW_AT_location[DW_OP_reg20]
     668              $C$DW$47        .dwtag  DW_TAG_TI_assign_register, DW_AT_name("XT")
     669                      .dwattr $C$DW$47, DW_AT_location[DW_OP_reg21]
     670              $C$DW$48        .dwtag  DW_TAG_TI_assign_register, DW_AT_name("T")
     671                      .dwattr $C$DW$48, DW_AT_location[DW_OP_reg22]
     672              $C$DW$49        .dwtag  DW_TAG_TI_assign_register, DW_AT_name("ST0")
     673                      .dwattr $C$DW$49, DW_AT_location[DW_OP_reg23]
     674              $C$DW$50        .dwtag  DW_TAG_TI_assign_register, DW_AT_name("ST1")
     675                      .dwattr $C$DW$50, DW_AT_location[DW_OP_reg24]
     676              $C$DW$51        .dwtag  DW_TAG_TI_assign_register, DW_AT_name("PC")
     677                      .dwattr $C$DW$51, DW_AT_location[DW_OP_reg25]
     678              $C$DW$52        .dwtag  DW_TAG_TI_assign_register, DW_AT_name("RPC")
     679                      .dwattr $C$DW$52, DW_AT_location[DW_OP_reg26]
     680              $C$DW$53        .dwtag  DW_TAG_TI_assign_register, DW_AT_name("FP")
     681                      .dwattr $C$DW$53, DW_AT_location[DW_OP_reg28]
     682              $C$DW$54        .dwtag  DW_TAG_TI_assign_register, DW_AT_name("DP")
     683                      .dwattr $C$DW$54, DW_AT_location[DW_OP_reg29]
     684              $C$DW$55        .dwtag  DW_TAG_TI_assign_register, DW_AT_name("SXM")
     685                      .dwattr $C$DW$55, DW_AT_location[DW_OP_reg30]
     686              $C$DW$56        .dwtag  DW_TAG_TI_assign_register, DW_AT_name("PM")
     687                      .dwattr $C$DW$56, DW_AT_location[DW_OP_reg31]
     688              $C$DW$57        .dwtag  DW_TAG_TI_assign_register, DW_AT_name("OVM")
     689                      .dwattr $C$DW$57, DW_AT_location[DW_OP_regx 0x20]
     690              $C$DW$58        .dwtag  DW_TAG_TI_assign_register, DW_AT_name("PAGE0")
     691                      .dwattr $C$DW$58, DW_AT_location[DW_OP_regx 0x21]
     692              $C$DW$59        .dwtag  DW_TAG_TI_assign_register, DW_AT_name("AMODE")
     693                      .dwattr $C$DW$59, DW_AT_location[DW_OP_regx 0x22]
     694              $C$DW$60        .dwtag  DW_TAG_TI_assign_register, DW_AT_name("INTM")
     695                      .dwattr $C$DW$60, DW_AT_location[DW_OP_regx 0x23]
     696              $C$DW$61        .dwtag  DW_TAG_TI_assign_register, DW_AT_name("IFR")
TMS320C2000 Assembler PC v6.2.0 Mon Oct 28 12:12:55 2019

Tools Copyright (c) 1996-2013 Texas Instruments Incorporated
ADS1015.asm                                                          PAGE   14

     697                      .dwattr $C$DW$61, DW_AT_location[DW_OP_regx 0x24]
     698              $C$DW$62        .dwtag  DW_TAG_TI_assign_register, DW_AT_name("IER")
     699                      .dwattr $C$DW$62, DW_AT_location[DW_OP_regx 0x25]
     700              $C$DW$63        .dwtag  DW_TAG_TI_assign_register, DW_AT_name("V")
     701                      .dwattr $C$DW$63, DW_AT_location[DW_OP_regx 0x26]
     702              $C$DW$64        .dwtag  DW_TAG_TI_assign_register, DW_AT_name("PSEUDOH")
     703                      .dwattr $C$DW$64, DW_AT_location[DW_OP_regx 0x4c]
     704              $C$DW$65        .dwtag  DW_TAG_TI_assign_register, DW_AT_name("VOL")
     705                      .dwattr $C$DW$65, DW_AT_location[DW_OP_regx 0x4d]
     706              $C$DW$66        .dwtag  DW_TAG_TI_assign_register, DW_AT_name("AR0")
     707                      .dwattr $C$DW$66, DW_AT_location[DW_OP_reg4]
     708              $C$DW$67        .dwtag  DW_TAG_TI_assign_register, DW_AT_name("AR1")
     709                      .dwattr $C$DW$67, DW_AT_location[DW_OP_reg6]
     710              $C$DW$68        .dwtag  DW_TAG_TI_assign_register, DW_AT_name("AR2")
     711                      .dwattr $C$DW$68, DW_AT_location[DW_OP_reg8]
     712              $C$DW$69        .dwtag  DW_TAG_TI_assign_register, DW_AT_name("AR3")
     713                      .dwattr $C$DW$69, DW_AT_location[DW_OP_reg10]
     714              $C$DW$70        .dwtag  DW_TAG_TI_assign_register, DW_AT_name("AR4")
     715                      .dwattr $C$DW$70, DW_AT_location[DW_OP_reg12]
     716              $C$DW$71        .dwtag  DW_TAG_TI_assign_register, DW_AT_name("AR5")
     717                      .dwattr $C$DW$71, DW_AT_location[DW_OP_reg14]
     718              $C$DW$72        .dwtag  DW_TAG_TI_assign_register, DW_AT_name("AR6")
     719                      .dwattr $C$DW$72, DW_AT_location[DW_OP_reg16]
     720              $C$DW$73        .dwtag  DW_TAG_TI_assign_register, DW_AT_name("XAR6")
     721                      .dwattr $C$DW$73, DW_AT_location[DW_OP_reg17]
     722              $C$DW$74        .dwtag  DW_TAG_TI_assign_register, DW_AT_name("AR7")
     723                      .dwattr $C$DW$74, DW_AT_location[DW_OP_reg18]
     724              $C$DW$75        .dwtag  DW_TAG_TI_assign_register, DW_AT_name("XAR7")
     725                      .dwattr $C$DW$75, DW_AT_location[DW_OP_reg19]
     726              $C$DW$76        .dwtag  DW_TAG_TI_assign_register, DW_AT_name("XAR0")
     727                      .dwattr $C$DW$76, DW_AT_location[DW_OP_reg5]
     728              $C$DW$77        .dwtag  DW_TAG_TI_assign_register, DW_AT_name("XAR1")
     729                      .dwattr $C$DW$77, DW_AT_location[DW_OP_reg7]
     730              $C$DW$78        .dwtag  DW_TAG_TI_assign_register, DW_AT_name("XAR2")
     731                      .dwattr $C$DW$78, DW_AT_location[DW_OP_reg9]
     732              $C$DW$79        .dwtag  DW_TAG_TI_assign_register, DW_AT_name("XAR3")
     733                      .dwattr $C$DW$79, DW_AT_location[DW_OP_reg11]
     734              $C$DW$80        .dwtag  DW_TAG_TI_assign_register, DW_AT_name("XAR4")
     735                      .dwattr $C$DW$80, DW_AT_location[DW_OP_reg13]
     736              $C$DW$81        .dwtag  DW_TAG_TI_assign_register, DW_AT_name("XAR5")
     737                      .dwattr $C$DW$81, DW_AT_location[DW_OP_reg15]
     738              $C$DW$82        .dwtag  DW_TAG_TI_assign_register, DW_AT_name("R0HL")
     739                      .dwattr $C$DW$82, DW_AT_location[DW_OP_regx 0x2b]
     740              $C$DW$83        .dwtag  DW_TAG_TI_assign_register, DW_AT_name("R0H")
     741                      .dwattr $C$DW$83, DW_AT_location[DW_OP_regx 0x2c]
     742              $C$DW$84        .dwtag  DW_TAG_TI_assign_register, DW_AT_name("R1HL")
     743                      .dwattr $C$DW$84, DW_AT_location[DW_OP_regx 0x2f]
     744              $C$DW$85        .dwtag  DW_TAG_TI_assign_register, DW_AT_name("R1H")
     745                      .dwattr $C$DW$85, DW_AT_location[DW_OP_regx 0x30]
     746              $C$DW$86        .dwtag  DW_TAG_TI_assign_register, DW_AT_name("R2HL")
     747                      .dwattr $C$DW$86, DW_AT_location[DW_OP_regx 0x33]
     748              $C$DW$87        .dwtag  DW_TAG_TI_assign_register, DW_AT_name("R2H")
     749                      .dwattr $C$DW$87, DW_AT_location[DW_OP_regx 0x34]
     750              $C$DW$88        .dwtag  DW_TAG_TI_assign_register, DW_AT_name("R3HL")
     751                      .dwattr $C$DW$88, DW_AT_location[DW_OP_regx 0x37]
TMS320C2000 Assembler PC v6.2.0 Mon Oct 28 12:12:55 2019

Tools Copyright (c) 1996-2013 Texas Instruments Incorporated
ADS1015.asm                                                          PAGE   15

     752              $C$DW$89        .dwtag  DW_TAG_TI_assign_register, DW_AT_name("R3H")
     753                      .dwattr $C$DW$89, DW_AT_location[DW_OP_regx 0x38]
     754              $C$DW$90        .dwtag  DW_TAG_TI_assign_register, DW_AT_name("R4HL")
     755                      .dwattr $C$DW$90, DW_AT_location[DW_OP_regx 0x3b]
     756              $C$DW$91        .dwtag  DW_TAG_TI_assign_register, DW_AT_name("R4H")
     757                      .dwattr $C$DW$91, DW_AT_location[DW_OP_regx 0x3c]
     758              $C$DW$92        .dwtag  DW_TAG_TI_assign_register, DW_AT_name("R5HL")
     759                      .dwattr $C$DW$92, DW_AT_location[DW_OP_regx 0x3f]
     760              $C$DW$93        .dwtag  DW_TAG_TI_assign_register, DW_AT_name("R5H")
     761                      .dwattr $C$DW$93, DW_AT_location[DW_OP_regx 0x40]
     762              $C$DW$94        .dwtag  DW_TAG_TI_assign_register, DW_AT_name("R6HL")
     763                      .dwattr $C$DW$94, DW_AT_location[DW_OP_regx 0x43]
     764              $C$DW$95        .dwtag  DW_TAG_TI_assign_register, DW_AT_name("R6H")
     765                      .dwattr $C$DW$95, DW_AT_location[DW_OP_regx 0x44]
     766              $C$DW$96        .dwtag  DW_TAG_TI_assign_register, DW_AT_name("R7HL")
     767                      .dwattr $C$DW$96, DW_AT_location[DW_OP_regx 0x47]
     768              $C$DW$97        .dwtag  DW_TAG_TI_assign_register, DW_AT_name("R7H")
     769                      .dwattr $C$DW$97, DW_AT_location[DW_OP_regx 0x48]
     770              $C$DW$98        .dwtag  DW_TAG_TI_assign_register, DW_AT_name("RBL")
     771                      .dwattr $C$DW$98, DW_AT_location[DW_OP_regx 0x49]
     772              $C$DW$99        .dwtag  DW_TAG_TI_assign_register, DW_AT_name("RB")
     773                      .dwattr $C$DW$99, DW_AT_location[DW_OP_regx 0x4a]
     774              $C$DW$100       .dwtag  DW_TAG_TI_assign_register, DW_AT_name("STFL")
     775                      .dwattr $C$DW$100, DW_AT_location[DW_OP_regx 0x27]
     776              $C$DW$101       .dwtag  DW_TAG_TI_assign_register, DW_AT_name("STF")
     777                      .dwattr $C$DW$101, DW_AT_location[DW_OP_regx 0x28]
     778              $C$DW$102       .dwtag  DW_TAG_TI_assign_register, DW_AT_name("FPUHAZ")
     779                      .dwattr $C$DW$102, DW_AT_location[DW_OP_reg27]
     780              $C$DW$103       .dwtag  DW_TAG_TI_assign_register, DW_AT_name("CIE_RETA")
     781                      .dwattr $C$DW$103, DW_AT_location[DW_OP_regx 0x4e]
     782                      .dwendtag $C$DW$CU
     783              

No Assembly Errors, No Assembly Warnings
