TMS320C2000 Assembler PC v6.2.11 Mon Jun 29 19:41:38 2020

Tools Copyright (c) 1996-2015 Texas Instruments Incorporated
crc32.asm                                                            PAGE    1

       1              ;***************************************************************
       2              ;* TMS320C2000 C/C++ Codegen                        PC v6.2.11 *
       3              ;* Date/Time created: Mon Jun 29 19:41:38 2020                 *
       4              ;***************************************************************
       5                      .compiler_opts --cla_support=cla0 --float_support=fpu32 --hll_source=on --mem_model:code=flat --mem_m
       6        0002  FP      .set    XAR2
       7              
       8              $C$DW$CU        .dwtag  DW_TAG_compile_unit
       9                      .dwattr $C$DW$CU, DW_AT_name("../LIB2806x/source/crc32.c")
      10                      .dwattr $C$DW$CU, DW_AT_producer("TMS320C2000 C/C++ Codegen PC v6.2.11 Copyright (c) 1996-2015 Texas 
      11                      .dwattr $C$DW$CU, DW_AT_TI_version(0x01)
      12                      .dwattr $C$DW$CU, DW_AT_comp_dir("C:\Users\aen17\Desktop\Working\SVN\Repository\AEC_Standard\PTM075")
      13              
      14              $C$DW$1 .dwtag  DW_TAG_subprogram, DW_AT_name("__byte")
      15                      .dwattr $C$DW$1, DW_AT_TI_symbol_name("___byte")
      16                      .dwattr $C$DW$1, DW_AT_type(*$C$DW$T$25)
      17                      .dwattr $C$DW$1, DW_AT_declaration
      18                      .dwattr $C$DW$1, DW_AT_external
      19              $C$DW$2 .dwtag  DW_TAG_formal_parameter
      20                      .dwattr $C$DW$2, DW_AT_type(*$C$DW$T$25)
      21              $C$DW$3 .dwtag  DW_TAG_formal_parameter
      22                      .dwattr $C$DW$3, DW_AT_type(*$C$DW$T$11)
      23                      .dwendtag $C$DW$1
      24              
      25                      .global _crc32_table
      26 00000000       _crc32_table:   .usect  "CRC32_TABLE",512,1,1
      27              $C$DW$4 .dwtag  DW_TAG_variable, DW_AT_name("crc32_table")
      28                      .dwattr $C$DW$4, DW_AT_TI_symbol_name("_crc32_table")
      29                      .dwattr $C$DW$4, DW_AT_location[DW_OP_addr _crc32_table]
      30                      .dwattr $C$DW$4, DW_AT_type(*$C$DW$T$28)
      31                      .dwattr $C$DW$4, DW_AT_external
      32              ;       C:\ti\ccsv5\tools\compiler\c2000_6.2.11\bin\ac2000.exe -@C:\\Users\\ADMINI~1\\AppData\\Local\\Temp\\2
      33 00000000               .sect   ".text"
      34                      .clink
      35                      .global _genCRC32Table
      36              
      37              $C$DW$5 .dwtag  DW_TAG_subprogram, DW_AT_name("genCRC32Table")
      38                      .dwattr $C$DW$5, DW_AT_low_pc(_genCRC32Table)
      39                      .dwattr $C$DW$5, DW_AT_high_pc(0x00)
      40                      .dwattr $C$DW$5, DW_AT_TI_symbol_name("_genCRC32Table")
      41                      .dwattr $C$DW$5, DW_AT_external
      42                      .dwattr $C$DW$5, DW_AT_TI_begin_file("../LIB2806x/source/crc32.c")
      43                      .dwattr $C$DW$5, DW_AT_TI_begin_line(0x30)
      44                      .dwattr $C$DW$5, DW_AT_TI_begin_column(0x07)
      45                      .dwattr $C$DW$5, DW_AT_TI_max_frame_size(-2)
      46                      .dwpsn  file "../LIB2806x/source/crc32.c",line 50,column 1,is_stmt,address _genCRC32Table
      47              
      48                      .dwfde $C$DW$CIE, _genCRC32Table
      49              
      50              ;***************************************************************
      51              ;* FNAME: _genCRC32Table                FR SIZE:   0           *
      52              ;*                                                             *
      53              ;* FUNCTION ENVIRONMENT                                        *
      54              ;*                                                             *
      55              ;* FUNCTION PROPERTIES                                         *
TMS320C2000 Assembler PC v6.2.11 Mon Jun 29 19:41:38 2020

Tools Copyright (c) 1996-2015 Texas Instruments Incorporated
crc32.asm                                                            PAGE    2

      56              ;*                            0 Parameter,  0 Auto,  0 SOE     *
      57              ;***************************************************************
      58              
      59 00000000       _genCRC32Table:
      60                      .dwcfi  cfa_offset, -2
      61                      .dwcfi  save_reg_to_mem, 26, 0
      62                      .dwcfi  save_reg_to_reg, 78, 26
      63              ;* AR4   assigned to _i
      64              $C$DW$6 .dwtag  DW_TAG_variable, DW_AT_name("i")
      65                      .dwattr $C$DW$6, DW_AT_TI_symbol_name("_i")
      66                      .dwattr $C$DW$6, DW_AT_type(*$C$DW$T$9)
      67                      .dwattr $C$DW$6, DW_AT_location[DW_OP_reg12]
      68              ;* AR6   assigned to _j
      69              $C$DW$7 .dwtag  DW_TAG_variable, DW_AT_name("j")
      70                      .dwattr $C$DW$7, DW_AT_TI_symbol_name("_j")
      71                      .dwattr $C$DW$7, DW_AT_type(*$C$DW$T$9)
      72                      .dwattr $C$DW$7, DW_AT_location[DW_OP_reg16]
      73              ;* AR7   assigned to _crc32_accum
      74              $C$DW$8 .dwtag  DW_TAG_variable, DW_AT_name("crc32_accum")
      75                      .dwattr $C$DW$8, DW_AT_TI_symbol_name("_crc32_accum")
      76                      .dwattr $C$DW$8, DW_AT_type(*$C$DW$T$13)
      77                      .dwattr $C$DW$8, DW_AT_location[DW_OP_reg18]
      78                      .dwpsn  file "../LIB2806x/source/crc32.c",line 53,column 9,is_stmt
      79 00000000 D400          MOVB      XAR4,#0               ; [CPU_] |53| 
      80                      .dwpsn  file "../LIB2806x/source/crc32.c",line 53,column 17,is_stmt
      81 00000001 1BA4          CMP       AR4,#256              ; [CPU_] |53| 
         00000002 0100 
      82 00000003 672A          B         $C$L6,HIS             ; [CPU_] |53| 
      83                      ; branchcc occurs ; [] |53| 
      84 00000004       $C$L1:    
      85                      .dwpsn  file "../LIB2806x/source/crc32.c",line 56,column 5,is_stmt
      86 00000004 0EA4          MOVU      ACC,AR4               ; [CPU_] |56| 
      87 00000005 28AC          MOV       T,#24                 ; [CPU_] |56| 
         00000006 0018 
      88 00000007 563B          LSLL      ACC,T                 ; [CPU_] |56| 
      89 00000008 1EA7          MOVL      XAR7,ACC              ; [CPU_] |56| 
      90                      .dwpsn  file "../LIB2806x/source/crc32.c",line 57,column 11,is_stmt
      91 00000009 BE00          MOVB      XAR6,#0               ; [CPU_] |57| 
      92                      .dwpsn  file "../LIB2806x/source/crc32.c",line 57,column 19,is_stmt
      93 0000000a 92A6          MOV       AL,AR6                ; [CPU_] 
      94 0000000b 5208          CMPB      AL,#8                 ; [CPU_] |57| 
      95 0000000c 6716          B         $C$L5,HIS             ; [CPU_] |57| 
      96                      ; branchcc occurs ; [] |57| 
      97 0000000d       $C$L2:    
      98                      .dwpsn  file "../LIB2806x/source/crc32.c",line 59,column 7,is_stmt
      99 0000000d 06A7          MOVL      ACC,XAR7              ; [CPU_] |59| 
     100 0000000e 3100          MOV       P,#0                  ; [CPU_] |59| 
     101 0000000f 5608          AND       ACC,#32768 << 16      ; [CPU_] |59| 
         00000010 8000 
     102 00000011 0FAB          CMPL      ACC,P                 ; [CPU_] |59| 
     103 00000012 EC09          BF        $C$L3,EQ              ; [CPU_] |59| 
     104                      ; branchcc occurs ; [] |59| 
     105                      .dwpsn  file "../LIB2806x/source/crc32.c",line 60,column 9,is_stmt
     106 00000013 06A7          MOVL      ACC,XAR7              ; [CPU_] 
     107 00000014 FF30          LSL       ACC,1                 ; [CPU_] |60| 
TMS320C2000 Assembler PC v6.2.11 Mon Jun 29 19:41:38 2020

Tools Copyright (c) 1996-2015 Texas Instruments Incorporated
crc32.asm                                                            PAGE    3

     108 00000015 1CA9          XOR       AL,#7607              ; [CPU_] |60| 
         00000016 1DB7 
     109 00000017 1CA8          XOR       AH,#1217              ; [CPU_] |60| 
         00000018 04C1 
     110 00000019 1EA7          MOVL      XAR7,ACC              ; [CPU_] |60| 
     111 0000001a 6F04          B         $C$L4,UNC             ; [CPU_] |60| 
     112                      ; branch occurs ; [] |60| 
     113 0000001b       $C$L3:    
     114                      .dwpsn  file "../LIB2806x/source/crc32.c",line 62,column 9,is_stmt
     115 0000001b 06A7          MOVL      ACC,XAR7              ; [CPU_] 
     116 0000001c FF30          LSL       ACC,1                 ; [CPU_] |62| 
     117 0000001d 1EA7          MOVL      XAR7,ACC              ; [CPU_] |62| 
     118 0000001e       $C$L4:    
     119                      .dwpsn  file "../LIB2806x/source/crc32.c",line 57,column 27,is_stmt
     120 0000001e DE01          ADDB      XAR6,#1               ; [CPU_] |57| 
     121                      .dwpsn  file "../LIB2806x/source/crc32.c",line 57,column 19,is_stmt
     122 0000001f 92A6          MOV       AL,AR6                ; [CPU_] 
     123 00000020 5208          CMPB      AL,#8                 ; [CPU_] |57| 
     124 00000021 68EC          B         $C$L2,LO              ; [CPU_] |57| 
     125                      ; branchcc occurs ; [] |57| 
     126 00000022       $C$L5:    
     127                      .dwpsn  file "../LIB2806x/source/crc32.c",line 64,column 5,is_stmt
     128 00000022 0EA4          MOVU      ACC,AR4               ; [CPU_] |64| 
     129 00000023 8F40-         MOVL      XAR5,#_crc32_table    ; [CPU_U] |64| 
         00000024 0000 
     130 00000025 FF30          LSL       ACC,1                 ; [CPU_] |64| 
     131 00000026 5601          ADDL      XAR5,ACC              ; [CPU_] |64| 
         00000027 00A5 
     132 00000028 C3C5          MOVL      *+XAR5[0],XAR7        ; [CPU_] |64| 
     133                      .dwpsn  file "../LIB2806x/source/crc32.c",line 53,column 27,is_stmt
     134 00000029 DC01          ADDB      XAR4,#1               ; [CPU_] |53| 
     135                      .dwpsn  file "../LIB2806x/source/crc32.c",line 53,column 17,is_stmt
     136 0000002a 1BA4          CMP       AR4,#256              ; [CPU_] |53| 
         0000002b 0100 
     137 0000002c 68D8          B         $C$L1,LO              ; [CPU_] |53| 
     138                      ; branchcc occurs ; [] |53| 
     139                      .dwpsn  file "../LIB2806x/source/crc32.c",line 66,column 1,is_stmt
     140              $C$L6:    
     141              $C$DW$9 .dwtag  DW_TAG_TI_branch
     142                      .dwattr $C$DW$9, DW_AT_low_pc(0x00)
     143                      .dwattr $C$DW$9, DW_AT_TI_return
     144 0000002d 0006          LRETR     ; [CPU_] 
     145                      ; return occurs ; [] 
     146                      .dwattr $C$DW$5, DW_AT_TI_end_file("../LIB2806x/source/crc32.c")
     147                      .dwattr $C$DW$5, DW_AT_TI_end_line(0x42)
     148                      .dwattr $C$DW$5, DW_AT_TI_end_column(0x01)
     149                      .dwendentry
     150                      .dwendtag $C$DW$5
     151              
     152 0000002e               .sect   ".text"
     153                      .clink
     154                      .global _getCRC32_cpu
     155              
     156              $C$DW$10        .dwtag  DW_TAG_subprogram, DW_AT_name("getCRC32_cpu")
     157                      .dwattr $C$DW$10, DW_AT_low_pc(_getCRC32_cpu)
TMS320C2000 Assembler PC v6.2.11 Mon Jun 29 19:41:38 2020

Tools Copyright (c) 1996-2015 Texas Instruments Incorporated
crc32.asm                                                            PAGE    4

     158                      .dwattr $C$DW$10, DW_AT_high_pc(0x00)
     159                      .dwattr $C$DW$10, DW_AT_TI_symbol_name("_getCRC32_cpu")
     160                      .dwattr $C$DW$10, DW_AT_external
     161                      .dwattr $C$DW$10, DW_AT_type(*$C$DW$T$13)
     162                      .dwattr $C$DW$10, DW_AT_TI_begin_file("../LIB2806x/source/crc32.c")
     163                      .dwattr $C$DW$10, DW_AT_TI_begin_line(0x54)
     164                      .dwattr $C$DW$10, DW_AT_TI_begin_column(0x08)
     165                      .dwattr $C$DW$10, DW_AT_TI_max_frame_size(-12)
     166                      .dwpsn  file "../LIB2806x/source/crc32.c",line 86,column 1,is_stmt,address _getCRC32_cpu
     167              
     168                      .dwfde $C$DW$CIE, _getCRC32_cpu
     169              $C$DW$11        .dwtag  DW_TAG_formal_parameter, DW_AT_name("input_crc32_accum")
     170                      .dwattr $C$DW$11, DW_AT_TI_symbol_name("_input_crc32_accum")
     171                      .dwattr $C$DW$11, DW_AT_type(*$C$DW$T$13)
     172                      .dwattr $C$DW$11, DW_AT_location[DW_OP_reg0]
     173              $C$DW$12        .dwtag  DW_TAG_formal_parameter, DW_AT_name("msg")
     174                      .dwattr $C$DW$12, DW_AT_TI_symbol_name("_msg")
     175                      .dwattr $C$DW$12, DW_AT_type(*$C$DW$T$22)
     176                      .dwattr $C$DW$12, DW_AT_location[DW_OP_reg12]
     177              $C$DW$13        .dwtag  DW_TAG_formal_parameter, DW_AT_name("parity")
     178                      .dwattr $C$DW$13, DW_AT_TI_symbol_name("_parity")
     179                      .dwattr $C$DW$13, DW_AT_type(*$C$DW$T$20)
     180                      .dwattr $C$DW$13, DW_AT_location[DW_OP_reg14]
     181              $C$DW$14        .dwtag  DW_TAG_formal_parameter, DW_AT_name("rxLen")
     182                      .dwattr $C$DW$14, DW_AT_TI_symbol_name("_rxLen")
     183                      .dwattr $C$DW$14, DW_AT_type(*$C$DW$T$9)
     184                      .dwattr $C$DW$14, DW_AT_location[DW_OP_breg20 -13]
     185              
     186              ;***************************************************************
     187              ;* FNAME: _getCRC32_cpu                 FR SIZE:  10           *
     188              ;*                                                             *
     189              ;* FUNCTION ENVIRONMENT                                        *
     190              ;*                                                             *
     191              ;* FUNCTION PROPERTIES                                         *
     192              ;*                            0 Parameter, 10 Auto,  0 SOE     *
     193              ;***************************************************************
     194              
     195 0000002e       _getCRC32_cpu:
     196                      .dwcfi  cfa_offset, -2
     197                      .dwcfi  save_reg_to_mem, 26, 0
     198                      .dwcfi  save_reg_to_reg, 78, 26
     199 0000002e FE0A          ADDB      SP,#10                ; [CPU_U] 
     200                      .dwcfi  cfa_offset, -12
     201              $C$DW$15        .dwtag  DW_TAG_variable, DW_AT_name("input_crc32_accum")
     202                      .dwattr $C$DW$15, DW_AT_TI_symbol_name("_input_crc32_accum")
     203                      .dwattr $C$DW$15, DW_AT_type(*$C$DW$T$13)
     204                      .dwattr $C$DW$15, DW_AT_location[DW_OP_breg20 -2]
     205              $C$DW$16        .dwtag  DW_TAG_variable, DW_AT_name("msg")
     206                      .dwattr $C$DW$16, DW_AT_TI_symbol_name("_msg")
     207                      .dwattr $C$DW$16, DW_AT_type(*$C$DW$T$22)
     208                      .dwattr $C$DW$16, DW_AT_location[DW_OP_breg20 -4]
     209              $C$DW$17        .dwtag  DW_TAG_variable, DW_AT_name("parity")
     210                      .dwattr $C$DW$17, DW_AT_TI_symbol_name("_parity")
     211                      .dwattr $C$DW$17, DW_AT_type(*$C$DW$T$20)
     212                      .dwattr $C$DW$17, DW_AT_location[DW_OP_breg20 -5]
TMS320C2000 Assembler PC v6.2.11 Mon Jun 29 19:41:38 2020

Tools Copyright (c) 1996-2015 Texas Instruments Incorporated
crc32.asm                                                            PAGE    5

     213              ;* AH    assigned to _i
     214              $C$DW$18        .dwtag  DW_TAG_variable, DW_AT_name("i")
     215                      .dwattr $C$DW$18, DW_AT_TI_symbol_name("_i")
     216                      .dwattr $C$DW$18, DW_AT_type(*$C$DW$T$9)
     217                      .dwattr $C$DW$18, DW_AT_location[DW_OP_reg1]
     218              ;* AR6   assigned to _j
     219              $C$DW$19        .dwtag  DW_TAG_variable, DW_AT_name("j")
     220                      .dwattr $C$DW$19, DW_AT_TI_symbol_name("_j")
     221                      .dwattr $C$DW$19, DW_AT_type(*$C$DW$T$9)
     222                      .dwattr $C$DW$19, DW_AT_location[DW_OP_reg16]
     223              $C$DW$20        .dwtag  DW_TAG_variable, DW_AT_name("crc32_accum")
     224                      .dwattr $C$DW$20, DW_AT_TI_symbol_name("_crc32_accum")
     225                      .dwattr $C$DW$20, DW_AT_type(*$C$DW$T$13)
     226                      .dwattr $C$DW$20, DW_AT_location[DW_OP_breg20 -8]
     227              $C$DW$21        .dwtag  DW_TAG_variable, DW_AT_name("pdata")
     228                      .dwattr $C$DW$21, DW_AT_TI_symbol_name("_pdata")
     229                      .dwattr $C$DW$21, DW_AT_type(*$C$DW$T$24)
     230                      .dwattr $C$DW$21, DW_AT_location[DW_OP_breg20 -10]
     231 0000002f 7D45          MOV       *-SP[5],AR5           ; [CPU_] |86| 
     232 00000030 A844          MOVL      *-SP[4],XAR4          ; [CPU_] |86| 
     233 00000031 1E42          MOVL      *-SP[2],ACC           ; [CPU_] |86| 
     234                      .dwpsn  file "../LIB2806x/source/crc32.c",line 93,column 3,is_stmt
     235 00000032 0642          MOVL      ACC,*-SP[2]           ; [CPU_] |93| 
     236 00000033 1E48          MOVL      *-SP[8],ACC           ; [CPU_] |93| 
     237                      .dwpsn  file "../LIB2806x/source/crc32.c",line 94,column 3,is_stmt
     238 00000034 0644          MOVL      ACC,*-SP[4]           ; [CPU_] |94| 
     239 00000035 1E4A          MOVL      *-SP[10],ACC          ; [CPU_] |94| 
     240                      .dwpsn  file "../LIB2806x/source/crc32.c",line 96,column 8,is_stmt
     241 00000036 BE00          MOVB      XAR6,#0               ; [CPU_] |96| 
     242 00000037 28AC          MOV       T,#24                 ; [CPU_] |98| 
         00000038 0018 
     243 00000039 6F14          B         $C$L8,UNC             ; [CPU_] |96| 
     244                      ; branch occurs ; [] |96| 
     245 0000003a       $C$L7:    
     246                      .dwpsn  file "../LIB2806x/source/crc32.c",line 98,column 5,is_stmt
     247 0000003a 8A4A          MOVL      XAR4,*-SP[10]         ; [CPU_] |98| 
     248 0000003b 5845          MOVZ      AR0,*-SP[5]           ; [CPU_] |98| 
     249 0000003c 0648          MOVL      ACC,*-SP[8]           ; [CPU_] |98| 
     250 0000003d 5622          LSRL      ACC,T                 ; [CPU_] |98| 
     251 0000003e C794          MOVB      AH.LSB,*+XAR4[AR0]    ; [CPU_] |98| 
     252 0000003f 71A9          XOR       AH,AL                 ; [CPU_] |98| 
     253                      .dwpsn  file "../LIB2806x/source/crc32.c",line 99,column 5,is_stmt
     254 00000040 0EA8          MOVU      ACC,AH                ; [CPU_] |99| 
     255 00000041 8F00-         MOVL      XAR4,#_crc32_table    ; [CPU_U] |99| 
         00000042 0000 
     256 00000043 FF30          LSL       ACC,1                 ; [CPU_] |99| 
     257 00000044 5601          ADDL      XAR4,ACC              ; [CPU_] |99| 
         00000045 00A4 
     258 00000046 0648          MOVL      ACC,*-SP[8]           ; [CPU_] |99| 
     259 00000047 FF37          LSL       ACC,8                 ; [CPU_] |99| 
     260 00000048 70C4          XOR       AL,*+XAR4[0]          ; [CPU_] |99| 
     261 00000049 71CC          XOR       AH,*+XAR4[1]          ; [CPU_] |99| 
     262 0000004a 1E48          MOVL      *-SP[8],ACC           ; [CPU_] |99| 
     263                      .dwpsn  file "../LIB2806x/source/crc32.c",line 96,column 26,is_stmt
     264 0000004b DE01          ADDB      XAR6,#1               ; [CPU_] |96| 
TMS320C2000 Assembler PC v6.2.11 Mon Jun 29 19:41:38 2020

Tools Copyright (c) 1996-2015 Texas Instruments Incorporated
crc32.asm                                                            PAGE    6

     265 0000004c 0A45          INC       *-SP[5]               ; [CPU_] |96| 
     266 0000004d       $C$L8:    
     267                      .dwpsn  file "../LIB2806x/source/crc32.c",line 96,column 15,is_stmt
     268 0000004d 92A6          MOV       AL,AR6                ; [CPU_] |96| 
     269 0000004e 544D          CMP       AL,*-SP[13]           ; [CPU_] |96| 
     270 0000004f 68EB          B         $C$L7,LO              ; [CPU_] |96| 
     271                      ; branchcc occurs ; [] |96| 
     272                      .dwpsn  file "../LIB2806x/source/crc32.c",line 101,column 3,is_stmt
     273 00000050 0648          MOVL      ACC,*-SP[8]           ; [CPU_] |101| 
     274                      .dwpsn  file "../LIB2806x/source/crc32.c",line 102,column 1,is_stmt
     275 00000051 FE8A          SUBB      SP,#10                ; [CPU_U] 
     276                      .dwcfi  cfa_offset, -2
     277              $C$DW$22        .dwtag  DW_TAG_TI_branch
     278                      .dwattr $C$DW$22, DW_AT_low_pc(0x00)
     279                      .dwattr $C$DW$22, DW_AT_TI_return
     280 00000052 0006          LRETR     ; [CPU_] 
     281                      ; return occurs ; [] 
     282                      .dwattr $C$DW$10, DW_AT_TI_end_file("../LIB2806x/source/crc32.c")
     283                      .dwattr $C$DW$10, DW_AT_TI_end_line(0x66)
     284                      .dwattr $C$DW$10, DW_AT_TI_end_column(0x01)
     285                      .dwendentry
     286                      .dwendtag $C$DW$10
     287              
     288              
     289              ;***************************************************************
     290              ;* TYPE INFORMATION                                            *
     291              ;***************************************************************
     292              
     293              $C$DW$T$19      .dwtag  DW_TAG_enumeration_type
     294                      .dwattr $C$DW$T$19, DW_AT_byte_size(0x01)
     295              $C$DW$23        .dwtag  DW_TAG_enumerator, DW_AT_name("EVEN"), DW_AT_const_value(0x00)
     296              $C$DW$24        .dwtag  DW_TAG_enumerator, DW_AT_name("ODD"), DW_AT_const_value(0x01)
     297                      .dwendtag $C$DW$T$19
     298              
     299              $C$DW$T$20      .dwtag  DW_TAG_typedef, DW_AT_name("parity_t")
     300                      .dwattr $C$DW$T$20, DW_AT_type(*$C$DW$T$19)
     301                      .dwattr $C$DW$T$20, DW_AT_language(DW_LANG_C)
     302              $C$DW$T$4       .dwtag  DW_TAG_base_type
     303                      .dwattr $C$DW$T$4, DW_AT_encoding(DW_ATE_boolean)
     304                      .dwattr $C$DW$T$4, DW_AT_name("bool")
     305                      .dwattr $C$DW$T$4, DW_AT_byte_size(0x01)
     306              $C$DW$T$5       .dwtag  DW_TAG_base_type
     307                      .dwattr $C$DW$T$5, DW_AT_encoding(DW_ATE_signed_char)
     308                      .dwattr $C$DW$T$5, DW_AT_name("signed char")
     309                      .dwattr $C$DW$T$5, DW_AT_byte_size(0x01)
     310              $C$DW$T$6       .dwtag  DW_TAG_base_type
     311                      .dwattr $C$DW$T$6, DW_AT_encoding(DW_ATE_unsigned_char)
     312                      .dwattr $C$DW$T$6, DW_AT_name("unsigned char")
     313                      .dwattr $C$DW$T$6, DW_AT_byte_size(0x01)
     314              $C$DW$T$7       .dwtag  DW_TAG_base_type
     315                      .dwattr $C$DW$T$7, DW_AT_encoding(DW_ATE_signed_char)
     316                      .dwattr $C$DW$T$7, DW_AT_name("wchar_t")
     317                      .dwattr $C$DW$T$7, DW_AT_byte_size(0x01)
     318              $C$DW$T$8       .dwtag  DW_TAG_base_type
     319                      .dwattr $C$DW$T$8, DW_AT_encoding(DW_ATE_signed)
TMS320C2000 Assembler PC v6.2.11 Mon Jun 29 19:41:38 2020

Tools Copyright (c) 1996-2015 Texas Instruments Incorporated
crc32.asm                                                            PAGE    7

     320                      .dwattr $C$DW$T$8, DW_AT_name("short")
     321                      .dwattr $C$DW$T$8, DW_AT_byte_size(0x01)
     322              $C$DW$T$9       .dwtag  DW_TAG_base_type
     323                      .dwattr $C$DW$T$9, DW_AT_encoding(DW_ATE_unsigned)
     324                      .dwattr $C$DW$T$9, DW_AT_name("unsigned short")
     325                      .dwattr $C$DW$T$9, DW_AT_byte_size(0x01)
     326              $C$DW$T$22      .dwtag  DW_TAG_pointer_type
     327                      .dwattr $C$DW$T$22, DW_AT_type(*$C$DW$T$9)
     328                      .dwattr $C$DW$T$22, DW_AT_address_class(0x16)
     329              $C$DW$T$10      .dwtag  DW_TAG_base_type
     330                      .dwattr $C$DW$T$10, DW_AT_encoding(DW_ATE_signed)
     331                      .dwattr $C$DW$T$10, DW_AT_name("int")
     332                      .dwattr $C$DW$T$10, DW_AT_byte_size(0x01)
     333              $C$DW$T$23      .dwtag  DW_TAG_typedef, DW_AT_name("SINT16")
     334                      .dwattr $C$DW$T$23, DW_AT_type(*$C$DW$T$10)
     335                      .dwattr $C$DW$T$23, DW_AT_language(DW_LANG_C)
     336              $C$DW$T$24      .dwtag  DW_TAG_pointer_type
     337                      .dwattr $C$DW$T$24, DW_AT_type(*$C$DW$T$23)
     338                      .dwattr $C$DW$T$24, DW_AT_address_class(0x16)
     339              $C$DW$T$25      .dwtag  DW_TAG_pointer_type
     340                      .dwattr $C$DW$T$25, DW_AT_type(*$C$DW$T$10)
     341                      .dwattr $C$DW$T$25, DW_AT_address_class(0x16)
     342              $C$DW$T$11      .dwtag  DW_TAG_base_type
     343                      .dwattr $C$DW$T$11, DW_AT_encoding(DW_ATE_unsigned)
     344                      .dwattr $C$DW$T$11, DW_AT_name("unsigned int")
     345                      .dwattr $C$DW$T$11, DW_AT_byte_size(0x01)
     346              $C$DW$T$12      .dwtag  DW_TAG_base_type
     347                      .dwattr $C$DW$T$12, DW_AT_encoding(DW_ATE_signed)
     348                      .dwattr $C$DW$T$12, DW_AT_name("long")
     349                      .dwattr $C$DW$T$12, DW_AT_byte_size(0x02)
     350              $C$DW$T$13      .dwtag  DW_TAG_base_type
     351                      .dwattr $C$DW$T$13, DW_AT_encoding(DW_ATE_unsigned)
     352                      .dwattr $C$DW$T$13, DW_AT_name("unsigned long")
     353                      .dwattr $C$DW$T$13, DW_AT_byte_size(0x02)
     354              
     355              $C$DW$T$28      .dwtag  DW_TAG_array_type
     356                      .dwattr $C$DW$T$28, DW_AT_type(*$C$DW$T$13)
     357                      .dwattr $C$DW$T$28, DW_AT_language(DW_LANG_C)
     358                      .dwattr $C$DW$T$28, DW_AT_byte_size(0x200)
     359              $C$DW$25        .dwtag  DW_TAG_subrange_type
     360                      .dwattr $C$DW$25, DW_AT_upper_bound(0xff)
     361                      .dwendtag $C$DW$T$28
     362              
     363              $C$DW$T$14      .dwtag  DW_TAG_base_type
     364                      .dwattr $C$DW$T$14, DW_AT_encoding(DW_ATE_signed)
     365                      .dwattr $C$DW$T$14, DW_AT_name("long long")
     366                      .dwattr $C$DW$T$14, DW_AT_byte_size(0x04)
     367              $C$DW$T$15      .dwtag  DW_TAG_base_type
     368                      .dwattr $C$DW$T$15, DW_AT_encoding(DW_ATE_unsigned)
     369                      .dwattr $C$DW$T$15, DW_AT_name("unsigned long long")
     370                      .dwattr $C$DW$T$15, DW_AT_byte_size(0x04)
     371              $C$DW$T$16      .dwtag  DW_TAG_base_type
     372                      .dwattr $C$DW$T$16, DW_AT_encoding(DW_ATE_float)
     373                      .dwattr $C$DW$T$16, DW_AT_name("float")
     374                      .dwattr $C$DW$T$16, DW_AT_byte_size(0x02)
TMS320C2000 Assembler PC v6.2.11 Mon Jun 29 19:41:38 2020

Tools Copyright (c) 1996-2015 Texas Instruments Incorporated
crc32.asm                                                            PAGE    8

     375              $C$DW$T$17      .dwtag  DW_TAG_base_type
     376                      .dwattr $C$DW$T$17, DW_AT_encoding(DW_ATE_float)
     377                      .dwattr $C$DW$T$17, DW_AT_name("double")
     378                      .dwattr $C$DW$T$17, DW_AT_byte_size(0x02)
     379              $C$DW$T$18      .dwtag  DW_TAG_base_type
     380                      .dwattr $C$DW$T$18, DW_AT_encoding(DW_ATE_float)
     381                      .dwattr $C$DW$T$18, DW_AT_name("long double")
     382                      .dwattr $C$DW$T$18, DW_AT_byte_size(0x04)
     383                      .dwattr $C$DW$CU, DW_AT_language(DW_LANG_C)
     384              
     385              ;***************************************************************
     386              ;* DWARF CIE ENTRIES                                           *
     387              ;***************************************************************
     388              
     389              $C$DW$CIE       .dwcie 78
     390                      .dwcfi  cfa_register, 20
     391                      .dwcfi  cfa_offset, 0
     392                      .dwcfi  undefined, 0
     393                      .dwcfi  undefined, 1
     394                      .dwcfi  undefined, 2
     395                      .dwcfi  undefined, 3
     396                      .dwcfi  undefined, 20
     397                      .dwcfi  undefined, 21
     398                      .dwcfi  undefined, 22
     399                      .dwcfi  undefined, 23
     400                      .dwcfi  undefined, 24
     401                      .dwcfi  undefined, 25
     402                      .dwcfi  undefined, 26
     403                      .dwcfi  same_value, 28
     404                      .dwcfi  undefined, 29
     405                      .dwcfi  undefined, 30
     406                      .dwcfi  undefined, 31
     407                      .dwcfi  undefined, 32
     408                      .dwcfi  undefined, 33
     409                      .dwcfi  undefined, 34
     410                      .dwcfi  undefined, 35
     411                      .dwcfi  undefined, 36
     412                      .dwcfi  undefined, 37
     413                      .dwcfi  undefined, 38
     414                      .dwcfi  undefined, 75
     415                      .dwcfi  undefined, 76
     416                      .dwcfi  undefined, 77
     417                      .dwcfi  undefined, 4
     418                      .dwcfi  same_value, 6
     419                      .dwcfi  same_value, 8
     420                      .dwcfi  same_value, 10
     421                      .dwcfi  undefined, 12
     422                      .dwcfi  undefined, 14
     423                      .dwcfi  undefined, 16
     424                      .dwcfi  undefined, 17
     425                      .dwcfi  undefined, 18
     426                      .dwcfi  undefined, 19
     427                      .dwcfi  undefined, 5
     428                      .dwcfi  same_value, 7
     429                      .dwcfi  same_value, 9
TMS320C2000 Assembler PC v6.2.11 Mon Jun 29 19:41:38 2020

Tools Copyright (c) 1996-2015 Texas Instruments Incorporated
crc32.asm                                                            PAGE    9

     430                      .dwcfi  same_value, 11
     431                      .dwcfi  undefined, 13
     432                      .dwcfi  undefined, 15
     433                      .dwcfi  undefined, 43
     434                      .dwcfi  undefined, 44
     435                      .dwcfi  undefined, 47
     436                      .dwcfi  undefined, 48
     437                      .dwcfi  undefined, 51
     438                      .dwcfi  undefined, 52
     439                      .dwcfi  undefined, 55
     440                      .dwcfi  undefined, 56
     441                      .dwcfi  same_value, 59
     442                      .dwcfi  same_value, 60
     443                      .dwcfi  same_value, 63
     444                      .dwcfi  same_value, 64
     445                      .dwcfi  same_value, 67
     446                      .dwcfi  same_value, 68
     447                      .dwcfi  same_value, 71
     448                      .dwcfi  same_value, 72
     449                      .dwcfi  undefined, 73
     450                      .dwcfi  undefined, 74
     451                      .dwcfi  undefined, 39
     452                      .dwcfi  undefined, 40
     453                      .dwcfi  undefined, 27
     454                      .dwcfi  undefined, 78
     455                      .dwendentry
     456              
     457              ;***************************************************************
     458              ;* DWARF REGISTER MAP                                          *
     459              ;***************************************************************
     460              
     461              $C$DW$26        .dwtag  DW_TAG_TI_assign_register, DW_AT_name("AL")
     462                      .dwattr $C$DW$26, DW_AT_location[DW_OP_reg0]
     463              $C$DW$27        .dwtag  DW_TAG_TI_assign_register, DW_AT_name("AH")
     464                      .dwattr $C$DW$27, DW_AT_location[DW_OP_reg1]
     465              $C$DW$28        .dwtag  DW_TAG_TI_assign_register, DW_AT_name("PL")
     466                      .dwattr $C$DW$28, DW_AT_location[DW_OP_reg2]
     467              $C$DW$29        .dwtag  DW_TAG_TI_assign_register, DW_AT_name("PH")
     468                      .dwattr $C$DW$29, DW_AT_location[DW_OP_reg3]
     469              $C$DW$30        .dwtag  DW_TAG_TI_assign_register, DW_AT_name("SP")
     470                      .dwattr $C$DW$30, DW_AT_location[DW_OP_reg20]
     471              $C$DW$31        .dwtag  DW_TAG_TI_assign_register, DW_AT_name("XT")
     472                      .dwattr $C$DW$31, DW_AT_location[DW_OP_reg21]
     473              $C$DW$32        .dwtag  DW_TAG_TI_assign_register, DW_AT_name("T")
     474                      .dwattr $C$DW$32, DW_AT_location[DW_OP_reg22]
     475              $C$DW$33        .dwtag  DW_TAG_TI_assign_register, DW_AT_name("ST0")
     476                      .dwattr $C$DW$33, DW_AT_location[DW_OP_reg23]
     477              $C$DW$34        .dwtag  DW_TAG_TI_assign_register, DW_AT_name("ST1")
     478                      .dwattr $C$DW$34, DW_AT_location[DW_OP_reg24]
     479              $C$DW$35        .dwtag  DW_TAG_TI_assign_register, DW_AT_name("PC")
     480                      .dwattr $C$DW$35, DW_AT_location[DW_OP_reg25]
     481              $C$DW$36        .dwtag  DW_TAG_TI_assign_register, DW_AT_name("RPC")
     482                      .dwattr $C$DW$36, DW_AT_location[DW_OP_reg26]
     483              $C$DW$37        .dwtag  DW_TAG_TI_assign_register, DW_AT_name("FP")
     484                      .dwattr $C$DW$37, DW_AT_location[DW_OP_reg28]
TMS320C2000 Assembler PC v6.2.11 Mon Jun 29 19:41:38 2020

Tools Copyright (c) 1996-2015 Texas Instruments Incorporated
crc32.asm                                                            PAGE   10

     485              $C$DW$38        .dwtag  DW_TAG_TI_assign_register, DW_AT_name("DP")
     486                      .dwattr $C$DW$38, DW_AT_location[DW_OP_reg29]
     487              $C$DW$39        .dwtag  DW_TAG_TI_assign_register, DW_AT_name("SXM")
     488                      .dwattr $C$DW$39, DW_AT_location[DW_OP_reg30]
     489              $C$DW$40        .dwtag  DW_TAG_TI_assign_register, DW_AT_name("PM")
     490                      .dwattr $C$DW$40, DW_AT_location[DW_OP_reg31]
     491              $C$DW$41        .dwtag  DW_TAG_TI_assign_register, DW_AT_name("OVM")
     492                      .dwattr $C$DW$41, DW_AT_location[DW_OP_regx 0x20]
     493              $C$DW$42        .dwtag  DW_TAG_TI_assign_register, DW_AT_name("PAGE0")
     494                      .dwattr $C$DW$42, DW_AT_location[DW_OP_regx 0x21]
     495              $C$DW$43        .dwtag  DW_TAG_TI_assign_register, DW_AT_name("AMODE")
     496                      .dwattr $C$DW$43, DW_AT_location[DW_OP_regx 0x22]
     497              $C$DW$44        .dwtag  DW_TAG_TI_assign_register, DW_AT_name("INTM")
     498                      .dwattr $C$DW$44, DW_AT_location[DW_OP_regx 0x23]
     499              $C$DW$45        .dwtag  DW_TAG_TI_assign_register, DW_AT_name("IFR")
     500                      .dwattr $C$DW$45, DW_AT_location[DW_OP_regx 0x24]
     501              $C$DW$46        .dwtag  DW_TAG_TI_assign_register, DW_AT_name("IER")
     502                      .dwattr $C$DW$46, DW_AT_location[DW_OP_regx 0x25]
     503              $C$DW$47        .dwtag  DW_TAG_TI_assign_register, DW_AT_name("V")
     504                      .dwattr $C$DW$47, DW_AT_location[DW_OP_regx 0x26]
     505              $C$DW$48        .dwtag  DW_TAG_TI_assign_register, DW_AT_name("PSEUDOH")
     506                      .dwattr $C$DW$48, DW_AT_location[DW_OP_regx 0x4c]
     507              $C$DW$49        .dwtag  DW_TAG_TI_assign_register, DW_AT_name("VOL")
     508                      .dwattr $C$DW$49, DW_AT_location[DW_OP_regx 0x4d]
     509              $C$DW$50        .dwtag  DW_TAG_TI_assign_register, DW_AT_name("AR0")
     510                      .dwattr $C$DW$50, DW_AT_location[DW_OP_reg4]
     511              $C$DW$51        .dwtag  DW_TAG_TI_assign_register, DW_AT_name("AR1")
     512                      .dwattr $C$DW$51, DW_AT_location[DW_OP_reg6]
     513              $C$DW$52        .dwtag  DW_TAG_TI_assign_register, DW_AT_name("AR2")
     514                      .dwattr $C$DW$52, DW_AT_location[DW_OP_reg8]
     515              $C$DW$53        .dwtag  DW_TAG_TI_assign_register, DW_AT_name("AR3")
     516                      .dwattr $C$DW$53, DW_AT_location[DW_OP_reg10]
     517              $C$DW$54        .dwtag  DW_TAG_TI_assign_register, DW_AT_name("AR4")
     518                      .dwattr $C$DW$54, DW_AT_location[DW_OP_reg12]
     519              $C$DW$55        .dwtag  DW_TAG_TI_assign_register, DW_AT_name("AR5")
     520                      .dwattr $C$DW$55, DW_AT_location[DW_OP_reg14]
     521              $C$DW$56        .dwtag  DW_TAG_TI_assign_register, DW_AT_name("AR6")
     522                      .dwattr $C$DW$56, DW_AT_location[DW_OP_reg16]
     523              $C$DW$57        .dwtag  DW_TAG_TI_assign_register, DW_AT_name("XAR6")
     524                      .dwattr $C$DW$57, DW_AT_location[DW_OP_reg17]
     525              $C$DW$58        .dwtag  DW_TAG_TI_assign_register, DW_AT_name("AR7")
     526                      .dwattr $C$DW$58, DW_AT_location[DW_OP_reg18]
     527              $C$DW$59        .dwtag  DW_TAG_TI_assign_register, DW_AT_name("XAR7")
     528                      .dwattr $C$DW$59, DW_AT_location[DW_OP_reg19]
     529              $C$DW$60        .dwtag  DW_TAG_TI_assign_register, DW_AT_name("XAR0")
     530                      .dwattr $C$DW$60, DW_AT_location[DW_OP_reg5]
     531              $C$DW$61        .dwtag  DW_TAG_TI_assign_register, DW_AT_name("XAR1")
     532                      .dwattr $C$DW$61, DW_AT_location[DW_OP_reg7]
     533              $C$DW$62        .dwtag  DW_TAG_TI_assign_register, DW_AT_name("XAR2")
     534                      .dwattr $C$DW$62, DW_AT_location[DW_OP_reg9]
     535              $C$DW$63        .dwtag  DW_TAG_TI_assign_register, DW_AT_name("XAR3")
     536                      .dwattr $C$DW$63, DW_AT_location[DW_OP_reg11]
     537              $C$DW$64        .dwtag  DW_TAG_TI_assign_register, DW_AT_name("XAR4")
     538                      .dwattr $C$DW$64, DW_AT_location[DW_OP_reg13]
     539              $C$DW$65        .dwtag  DW_TAG_TI_assign_register, DW_AT_name("XAR5")
TMS320C2000 Assembler PC v6.2.11 Mon Jun 29 19:41:38 2020

Tools Copyright (c) 1996-2015 Texas Instruments Incorporated
crc32.asm                                                            PAGE   11

     540                      .dwattr $C$DW$65, DW_AT_location[DW_OP_reg15]
     541              $C$DW$66        .dwtag  DW_TAG_TI_assign_register, DW_AT_name("R0HL")
     542                      .dwattr $C$DW$66, DW_AT_location[DW_OP_regx 0x2b]
     543              $C$DW$67        .dwtag  DW_TAG_TI_assign_register, DW_AT_name("R0H")
     544                      .dwattr $C$DW$67, DW_AT_location[DW_OP_regx 0x2c]
     545              $C$DW$68        .dwtag  DW_TAG_TI_assign_register, DW_AT_name("R1HL")
     546                      .dwattr $C$DW$68, DW_AT_location[DW_OP_regx 0x2f]
     547              $C$DW$69        .dwtag  DW_TAG_TI_assign_register, DW_AT_name("R1H")
     548                      .dwattr $C$DW$69, DW_AT_location[DW_OP_regx 0x30]
     549              $C$DW$70        .dwtag  DW_TAG_TI_assign_register, DW_AT_name("R2HL")
     550                      .dwattr $C$DW$70, DW_AT_location[DW_OP_regx 0x33]
     551              $C$DW$71        .dwtag  DW_TAG_TI_assign_register, DW_AT_name("R2H")
     552                      .dwattr $C$DW$71, DW_AT_location[DW_OP_regx 0x34]
     553              $C$DW$72        .dwtag  DW_TAG_TI_assign_register, DW_AT_name("R3HL")
     554                      .dwattr $C$DW$72, DW_AT_location[DW_OP_regx 0x37]
     555              $C$DW$73        .dwtag  DW_TAG_TI_assign_register, DW_AT_name("R3H")
     556                      .dwattr $C$DW$73, DW_AT_location[DW_OP_regx 0x38]
     557              $C$DW$74        .dwtag  DW_TAG_TI_assign_register, DW_AT_name("R4HL")
     558                      .dwattr $C$DW$74, DW_AT_location[DW_OP_regx 0x3b]
     559              $C$DW$75        .dwtag  DW_TAG_TI_assign_register, DW_AT_name("R4H")
     560                      .dwattr $C$DW$75, DW_AT_location[DW_OP_regx 0x3c]
     561              $C$DW$76        .dwtag  DW_TAG_TI_assign_register, DW_AT_name("R5HL")
     562                      .dwattr $C$DW$76, DW_AT_location[DW_OP_regx 0x3f]
     563              $C$DW$77        .dwtag  DW_TAG_TI_assign_register, DW_AT_name("R5H")
     564                      .dwattr $C$DW$77, DW_AT_location[DW_OP_regx 0x40]
     565              $C$DW$78        .dwtag  DW_TAG_TI_assign_register, DW_AT_name("R6HL")
     566                      .dwattr $C$DW$78, DW_AT_location[DW_OP_regx 0x43]
     567              $C$DW$79        .dwtag  DW_TAG_TI_assign_register, DW_AT_name("R6H")
     568                      .dwattr $C$DW$79, DW_AT_location[DW_OP_regx 0x44]
     569              $C$DW$80        .dwtag  DW_TAG_TI_assign_register, DW_AT_name("R7HL")
     570                      .dwattr $C$DW$80, DW_AT_location[DW_OP_regx 0x47]
     571              $C$DW$81        .dwtag  DW_TAG_TI_assign_register, DW_AT_name("R7H")
     572                      .dwattr $C$DW$81, DW_AT_location[DW_OP_regx 0x48]
     573              $C$DW$82        .dwtag  DW_TAG_TI_assign_register, DW_AT_name("RBL")
     574                      .dwattr $C$DW$82, DW_AT_location[DW_OP_regx 0x49]
     575              $C$DW$83        .dwtag  DW_TAG_TI_assign_register, DW_AT_name("RB")
     576                      .dwattr $C$DW$83, DW_AT_location[DW_OP_regx 0x4a]
     577              $C$DW$84        .dwtag  DW_TAG_TI_assign_register, DW_AT_name("STFL")
     578                      .dwattr $C$DW$84, DW_AT_location[DW_OP_regx 0x27]
     579              $C$DW$85        .dwtag  DW_TAG_TI_assign_register, DW_AT_name("STF")
     580                      .dwattr $C$DW$85, DW_AT_location[DW_OP_regx 0x28]
     581              $C$DW$86        .dwtag  DW_TAG_TI_assign_register, DW_AT_name("FPUHAZ")
     582                      .dwattr $C$DW$86, DW_AT_location[DW_OP_reg27]
     583              $C$DW$87        .dwtag  DW_TAG_TI_assign_register, DW_AT_name("CIE_RETA")
     584                      .dwattr $C$DW$87, DW_AT_location[DW_OP_regx 0x4e]
     585                      .dwendtag $C$DW$CU
     586              

No Assembly Errors, No Assembly Warnings
