TMS320C2000 Assembler PC v6.2.11 Mon Jun 29 19:41:38 2020

Tools Copyright (c) 1996-2015 Texas Instruments Incorporated
F2806x_CpuTimers.asm                                                 PAGE    1

       1              ;***************************************************************
       2              ;* TMS320C2000 C/C++ Codegen                        PC v6.2.11 *
       3              ;* Date/Time created: Mon Jun 29 19:41:38 2020                 *
       4              ;***************************************************************
       5                      .compiler_opts --cla_support=cla0 --float_support=fpu32 --hll_source=on --mem_model:code=flat --mem_m
       6        0002  FP      .set    XAR2
       7              
       8              $C$DW$CU        .dwtag  DW_TAG_compile_unit
       9                      .dwattr $C$DW$CU, DW_AT_name("../LIB2806x/source/F2806x_CpuTimers.c")
      10                      .dwattr $C$DW$CU, DW_AT_producer("TMS320C2000 C/C++ Codegen PC v6.2.11 Copyright (c) 1996-2015 Texas 
      11                      .dwattr $C$DW$CU, DW_AT_TI_version(0x01)
      12                      .dwattr $C$DW$CU, DW_AT_comp_dir("C:\Users\aen17\Desktop\Working\SVN\Repository\AEC_Standard\PTM075")
      13                      .global _CpuTimer1
      14 00000000       _CpuTimer1:     .usect  ".ebss",8,1,1
      15              $C$DW$1 .dwtag  DW_TAG_variable, DW_AT_name("CpuTimer1")
      16                      .dwattr $C$DW$1, DW_AT_TI_symbol_name("_CpuTimer1")
      17                      .dwattr $C$DW$1, DW_AT_location[DW_OP_addr _CpuTimer1]
      18                      .dwattr $C$DW$1, DW_AT_type(*$C$DW$T$24)
      19                      .dwattr $C$DW$1, DW_AT_external
      20                      .global _CpuTimer2
      21 00000008       _CpuTimer2:     .usect  ".ebss",8,1,1
      22              $C$DW$2 .dwtag  DW_TAG_variable, DW_AT_name("CpuTimer2")
      23                      .dwattr $C$DW$2, DW_AT_TI_symbol_name("_CpuTimer2")
      24                      .dwattr $C$DW$2, DW_AT_location[DW_OP_addr _CpuTimer2]
      25                      .dwattr $C$DW$2, DW_AT_type(*$C$DW$T$24)
      26                      .dwattr $C$DW$2, DW_AT_external
      27                      .global _CpuTimer0
      28 00000010       _CpuTimer0:     .usect  ".ebss",8,1,1
      29              $C$DW$3 .dwtag  DW_TAG_variable, DW_AT_name("CpuTimer0")
      30                      .dwattr $C$DW$3, DW_AT_TI_symbol_name("_CpuTimer0")
      31                      .dwattr $C$DW$3, DW_AT_location[DW_OP_addr _CpuTimer0]
      32                      .dwattr $C$DW$3, DW_AT_type(*$C$DW$T$24)
      33                      .dwattr $C$DW$3, DW_AT_external
      34              $C$DW$4 .dwtag  DW_TAG_variable, DW_AT_name("CpuTimer1Regs")
      35                      .dwattr $C$DW$4, DW_AT_TI_symbol_name("_CpuTimer1Regs")
      36                      .dwattr $C$DW$4, DW_AT_type(*$C$DW$T$21)
      37                      .dwattr $C$DW$4, DW_AT_declaration
      38                      .dwattr $C$DW$4, DW_AT_external
      39              $C$DW$5 .dwtag  DW_TAG_variable, DW_AT_name("CpuTimer2Regs")
      40                      .dwattr $C$DW$5, DW_AT_TI_symbol_name("_CpuTimer2Regs")
      41                      .dwattr $C$DW$5, DW_AT_type(*$C$DW$T$21)
      42                      .dwattr $C$DW$5, DW_AT_declaration
      43                      .dwattr $C$DW$5, DW_AT_external
      44              $C$DW$6 .dwtag  DW_TAG_variable, DW_AT_name("CpuTimer0Regs")
      45                      .dwattr $C$DW$6, DW_AT_TI_symbol_name("_CpuTimer0Regs")
      46                      .dwattr $C$DW$6, DW_AT_type(*$C$DW$T$21)
      47                      .dwattr $C$DW$6, DW_AT_declaration
      48                      .dwattr $C$DW$6, DW_AT_external
      49              ;       C:\ti\ccsv5\tools\compiler\c2000_6.2.11\bin\ac2000.exe -@C:\\Users\\ADMINI~1\\AppData\\Local\\Temp\\0
      50 00000000               .sect   ".text"
      51                      .clink
      52                      .global _InitCpuTimers
      53              
      54              $C$DW$7 .dwtag  DW_TAG_subprogram, DW_AT_name("InitCpuTimers")
      55                      .dwattr $C$DW$7, DW_AT_low_pc(_InitCpuTimers)
TMS320C2000 Assembler PC v6.2.11 Mon Jun 29 19:41:38 2020

Tools Copyright (c) 1996-2015 Texas Instruments Incorporated
F2806x_CpuTimers.asm                                                 PAGE    2

      56                      .dwattr $C$DW$7, DW_AT_high_pc(0x00)
      57                      .dwattr $C$DW$7, DW_AT_TI_symbol_name("_InitCpuTimers")
      58                      .dwattr $C$DW$7, DW_AT_external
      59                      .dwattr $C$DW$7, DW_AT_TI_begin_file("../LIB2806x/source/F2806x_CpuTimers.c")
      60                      .dwattr $C$DW$7, DW_AT_TI_begin_line(0x1d)
      61                      .dwattr $C$DW$7, DW_AT_TI_begin_column(0x06)
      62                      .dwattr $C$DW$7, DW_AT_TI_max_frame_size(-2)
      63                      .dwpsn  file "../LIB2806x/source/F2806x_CpuTimers.c",line 30,column 1,is_stmt,address _InitCpuTimers
      64              
      65                      .dwfde $C$DW$CIE, _InitCpuTimers
      66              
      67              ;***************************************************************
      68              ;* FNAME: _InitCpuTimers                FR SIZE:   0           *
      69              ;*                                                             *
      70              ;* FUNCTION ENVIRONMENT                                        *
      71              ;*                                                             *
      72              ;* FUNCTION PROPERTIES                                         *
      73              ;*                            0 Parameter,  0 Auto,  0 SOE     *
      74              ;***************************************************************
      75              
      76 00000000       _InitCpuTimers:
      77                      .dwcfi  cfa_offset, -2
      78                      .dwcfi  save_reg_to_mem, 26, 0
      79                      .dwcfi  save_reg_to_reg, 78, 26
      80                      .dwpsn  file "../LIB2806x/source/F2806x_CpuTimers.c",line 33,column 2,is_stmt
      81 00000000 8F00!         MOVL      XAR4,#_CpuTimer0Regs  ; [CPU_U] |33| 
         00000001 0000 
      82 00000002 761F-         MOVW      DP,#_CpuTimer0        ; [CPU_U] 
         00000003 0000 
      83 00000004 A810-         MOVL      @_CpuTimer0,XAR4      ; [CPU_] |33| 
      84                      .dwpsn  file "../LIB2806x/source/F2806x_CpuTimers.c",line 35,column 2,is_stmt
      85 00000005 0200          MOVB      ACC,#0                ; [CPU_] |35| 
      86 00000006 761F!         MOVW      DP,#_CpuTimer0Regs+2  ; [CPU_U] 
         00000007 0000 
      87 00000008 1901          SUBB      ACC,#1                ; [CPU_] |35| 
      88 00000009 1E02!         MOVL      @_CpuTimer0Regs+2,ACC ; [CPU_] |35| 
      89                      .dwpsn  file "../LIB2806x/source/F2806x_CpuTimers.c",line 37,column 2,is_stmt
      90 0000000a 2B06!         MOV       @_CpuTimer0Regs+6,#0  ; [CPU_] |37| 
      91                      .dwpsn  file "../LIB2806x/source/F2806x_CpuTimers.c",line 38,column 2,is_stmt
      92 0000000b 2B07!         MOV       @_CpuTimer0Regs+7,#0  ; [CPU_] |38| 
      93                      .dwpsn  file "../LIB2806x/source/F2806x_CpuTimers.c",line 40,column 2,is_stmt
      94 0000000c 1A04!         OR        @_CpuTimer0Regs+4,#0x0010 ; [CPU_] |40| 
         0000000d 0010 
      95                      .dwpsn  file "../LIB2806x/source/F2806x_CpuTimers.c",line 42,column 2,is_stmt
      96 0000000e 1A04!         OR        @_CpuTimer0Regs+4,#0x0020 ; [CPU_] |42| 
         0000000f 0020 
      97                      .dwpsn  file "../LIB2806x/source/F2806x_CpuTimers.c",line 48,column 2,is_stmt
      98 00000010 8F00!         MOVL      XAR4,#_CpuTimer1Regs  ; [CPU_U] |48| 
         00000011 0000 
      99 00000012 761F-         MOVW      DP,#_CpuTimer1        ; [CPU_U] 
         00000013 0000 
     100 00000014 A800-         MOVL      @_CpuTimer1,XAR4      ; [CPU_] |48| 
     101                      .dwpsn  file "../LIB2806x/source/F2806x_CpuTimers.c",line 49,column 2,is_stmt
     102 00000015 8F00!         MOVL      XAR4,#_CpuTimer2Regs  ; [CPU_U] |49| 
         00000016 0000 
TMS320C2000 Assembler PC v6.2.11 Mon Jun 29 19:41:38 2020

Tools Copyright (c) 1996-2015 Texas Instruments Incorporated
F2806x_CpuTimers.asm                                                 PAGE    3

     103 00000017 A808-         MOVL      @_CpuTimer2,XAR4      ; [CPU_] |49| 
     104                      .dwpsn  file "../LIB2806x/source/F2806x_CpuTimers.c",line 51,column 2,is_stmt
     105 00000018 761F!         MOVW      DP,#_CpuTimer1Regs+2  ; [CPU_U] 
         00000019 0000 
     106 0000001a 0200          MOVB      ACC,#0                ; [CPU_] |51| 
     107 0000001b 1901          SUBB      ACC,#1                ; [CPU_] |51| 
     108 0000001c 1E02!         MOVL      @_CpuTimer1Regs+2,ACC ; [CPU_] |51| 
     109                      .dwpsn  file "../LIB2806x/source/F2806x_CpuTimers.c",line 52,column 2,is_stmt
     110 0000001d 761F!         MOVW      DP,#_CpuTimer2Regs+2  ; [CPU_U] 
         0000001e 0000 
     111 0000001f 0200          MOVB      ACC,#0                ; [CPU_] |52| 
     112 00000020 1901          SUBB      ACC,#1                ; [CPU_] |52| 
     113 00000021 1E02!         MOVL      @_CpuTimer2Regs+2,ACC ; [CPU_] |52| 
     114                      .dwpsn  file "../LIB2806x/source/F2806x_CpuTimers.c",line 54,column 2,is_stmt
     115 00000022 761F!         MOVW      DP,#_CpuTimer1Regs+6  ; [CPU_U] 
         00000023 0000 
     116 00000024 2B06!         MOV       @_CpuTimer1Regs+6,#0  ; [CPU_] |54| 
     117                      .dwpsn  file "../LIB2806x/source/F2806x_CpuTimers.c",line 55,column 2,is_stmt
     118 00000025 2B07!         MOV       @_CpuTimer1Regs+7,#0  ; [CPU_] |55| 
     119                      .dwpsn  file "../LIB2806x/source/F2806x_CpuTimers.c",line 56,column 2,is_stmt
     120 00000026 761F!         MOVW      DP,#_CpuTimer2Regs+6  ; [CPU_U] 
         00000027 0000 
     121 00000028 2B06!         MOV       @_CpuTimer2Regs+6,#0  ; [CPU_] |56| 
     122                      .dwpsn  file "../LIB2806x/source/F2806x_CpuTimers.c",line 57,column 2,is_stmt
     123 00000029 2B07!         MOV       @_CpuTimer2Regs+7,#0  ; [CPU_] |57| 
     124                      .dwpsn  file "../LIB2806x/source/F2806x_CpuTimers.c",line 59,column 2,is_stmt
     125 0000002a 761F!         MOVW      DP,#_CpuTimer1Regs+4  ; [CPU_U] 
         0000002b 0000 
     126 0000002c 1A04!         OR        @_CpuTimer1Regs+4,#0x0010 ; [CPU_] |59| 
         0000002d 0010 
     127                      .dwpsn  file "../LIB2806x/source/F2806x_CpuTimers.c",line 60,column 2,is_stmt
     128 0000002e 761F!         MOVW      DP,#_CpuTimer2Regs+4  ; [CPU_U] 
         0000002f 0000 
     129 00000030 1A04!         OR        @_CpuTimer2Regs+4,#0x0010 ; [CPU_] |60| 
         00000031 0010 
     130                      .dwpsn  file "../LIB2806x/source/F2806x_CpuTimers.c",line 62,column 2,is_stmt
     131 00000032 761F!         MOVW      DP,#_CpuTimer1Regs+4  ; [CPU_U] 
         00000033 0000 
     132 00000034 1A04!         OR        @_CpuTimer1Regs+4,#0x0020 ; [CPU_] |62| 
         00000035 0020 
     133                      .dwpsn  file "../LIB2806x/source/F2806x_CpuTimers.c",line 63,column 2,is_stmt
     134 00000036 761F!         MOVW      DP,#_CpuTimer2Regs+4  ; [CPU_U] 
         00000037 0000 
     135 00000038 1A04!         OR        @_CpuTimer2Regs+4,#0x0020 ; [CPU_] |63| 
         00000039 0020 
     136                      .dwpsn  file "../LIB2806x/source/F2806x_CpuTimers.c",line 68,column 1,is_stmt
     137              $C$DW$8 .dwtag  DW_TAG_TI_branch
     138                      .dwattr $C$DW$8, DW_AT_low_pc(0x00)
     139                      .dwattr $C$DW$8, DW_AT_TI_return
     140 0000003a 0006          LRETR     ; [CPU_] 
     141                      ; return occurs ; [] 
     142                      .dwattr $C$DW$7, DW_AT_TI_end_file("../LIB2806x/source/F2806x_CpuTimers.c")
     143                      .dwattr $C$DW$7, DW_AT_TI_end_line(0x44)
     144                      .dwattr $C$DW$7, DW_AT_TI_end_column(0x01)
     145                      .dwendentry
TMS320C2000 Assembler PC v6.2.11 Mon Jun 29 19:41:38 2020

Tools Copyright (c) 1996-2015 Texas Instruments Incorporated
F2806x_CpuTimers.asm                                                 PAGE    4

     146                      .dwendtag $C$DW$7
     147              
     148 0000003b               .sect   ".text"
     149                      .clink
     150                      .global _ConfigCpuTimer
     151              
     152              $C$DW$9 .dwtag  DW_TAG_subprogram, DW_AT_name("ConfigCpuTimer")
     153                      .dwattr $C$DW$9, DW_AT_low_pc(_ConfigCpuTimer)
     154                      .dwattr $C$DW$9, DW_AT_high_pc(0x00)
     155                      .dwattr $C$DW$9, DW_AT_TI_symbol_name("_ConfigCpuTimer")
     156                      .dwattr $C$DW$9, DW_AT_external
     157                      .dwattr $C$DW$9, DW_AT_TI_begin_file("../LIB2806x/source/F2806x_CpuTimers.c")
     158                      .dwattr $C$DW$9, DW_AT_TI_begin_line(0x4e)
     159                      .dwattr $C$DW$9, DW_AT_TI_begin_column(0x06)
     160                      .dwattr $C$DW$9, DW_AT_TI_max_frame_size(-10)
     161                      .dwpsn  file "../LIB2806x/source/F2806x_CpuTimers.c",line 79,column 1,is_stmt,address _ConfigCpuTimer
     162              
     163                      .dwfde $C$DW$CIE, _ConfigCpuTimer
     164              $C$DW$10        .dwtag  DW_TAG_formal_parameter, DW_AT_name("Timer")
     165                      .dwattr $C$DW$10, DW_AT_TI_symbol_name("_Timer")
     166                      .dwattr $C$DW$10, DW_AT_type(*$C$DW$T$35)
     167                      .dwattr $C$DW$10, DW_AT_location[DW_OP_reg12]
     168              $C$DW$11        .dwtag  DW_TAG_formal_parameter, DW_AT_name("Freq")
     169                      .dwattr $C$DW$11, DW_AT_TI_symbol_name("_Freq")
     170                      .dwattr $C$DW$11, DW_AT_type(*$C$DW$T$16)
     171                      .dwattr $C$DW$11, DW_AT_location[DW_OP_regx 0x2b]
     172              $C$DW$12        .dwtag  DW_TAG_formal_parameter, DW_AT_name("Period")
     173                      .dwattr $C$DW$12, DW_AT_TI_symbol_name("_Period")
     174                      .dwattr $C$DW$12, DW_AT_type(*$C$DW$T$16)
     175                      .dwattr $C$DW$12, DW_AT_location[DW_OP_regx 0x2f]
     176              
     177              ;***************************************************************
     178              ;* FNAME: _ConfigCpuTimer               FR SIZE:   8           *
     179              ;*                                                             *
     180              ;* FUNCTION ENVIRONMENT                                        *
     181              ;*                                                             *
     182              ;* FUNCTION PROPERTIES                                         *
     183              ;*                            0 Parameter,  8 Auto,  0 SOE     *
     184              ;***************************************************************
     185              
     186 0000003b       _ConfigCpuTimer:
     187                      .dwcfi  cfa_offset, -2
     188                      .dwcfi  save_reg_to_mem, 26, 0
     189                      .dwcfi  save_reg_to_reg, 78, 26
     190 0000003b FE08          ADDB      SP,#8                 ; [CPU_U] 
     191                      .dwcfi  cfa_offset, -10
     192              $C$DW$13        .dwtag  DW_TAG_variable, DW_AT_name("Timer")
     193                      .dwattr $C$DW$13, DW_AT_TI_symbol_name("_Timer")
     194                      .dwattr $C$DW$13, DW_AT_type(*$C$DW$T$35)
     195                      .dwattr $C$DW$13, DW_AT_location[DW_OP_breg20 -2]
     196              $C$DW$14        .dwtag  DW_TAG_variable, DW_AT_name("Freq")
     197                      .dwattr $C$DW$14, DW_AT_TI_symbol_name("_Freq")
     198                      .dwattr $C$DW$14, DW_AT_type(*$C$DW$T$16)
     199                      .dwattr $C$DW$14, DW_AT_location[DW_OP_breg20 -4]
     200              $C$DW$15        .dwtag  DW_TAG_variable, DW_AT_name("Period")
TMS320C2000 Assembler PC v6.2.11 Mon Jun 29 19:41:38 2020

Tools Copyright (c) 1996-2015 Texas Instruments Incorporated
F2806x_CpuTimers.asm                                                 PAGE    5

     201                      .dwattr $C$DW$15, DW_AT_TI_symbol_name("_Period")
     202                      .dwattr $C$DW$15, DW_AT_type(*$C$DW$T$16)
     203                      .dwattr $C$DW$15, DW_AT_location[DW_OP_breg20 -6]
     204              $C$DW$16        .dwtag  DW_TAG_variable, DW_AT_name("temp")
     205                      .dwattr $C$DW$16, DW_AT_TI_symbol_name("_temp")
     206                      .dwattr $C$DW$16, DW_AT_type(*$C$DW$T$23)
     207                      .dwattr $C$DW$16, DW_AT_location[DW_OP_breg20 -8]
     208 0000003c E203          MOV32     *-SP[6],R1H           ; [CPU_] |79| 
         0000003d 0146 
     209 0000003e E203          MOV32     *-SP[4],R0H           ; [CPU_] |79| 
         0000003f 0044 
     210 00000040 A842          MOVL      *-SP[2],XAR4          ; [CPU_] |79| 
     211                      .dwpsn  file "../LIB2806x/source/F2806x_CpuTimers.c",line 82,column 2,is_stmt
     212 00000041 E2AF          MOV32     R0H,*-SP[6]           ; [CPU_] |82| 
         00000042 0046 
     213 00000043 E8AF          ADDF32    R0H,R0H,#49024        ; [CPU_] |82| 
         00000044 E000 
     214 00000045 7700          NOP       ; [CPU_] 
     215 00000046 E203          MOV32     *-SP[6],R0H           ; [CPU_] |82| 
         00000047 0046 
     216                      .dwpsn  file "../LIB2806x/source/F2806x_CpuTimers.c",line 85,column 2,is_stmt
     217 00000048 8A42          MOVL      XAR4,*-SP[2]          ; [CPU_] |85| 
     218 00000049 0644          MOVL      ACC,*-SP[4]           ; [CPU_] |85| 
     219 0000004a 1EE4          MOVL      *+XAR4[4],ACC         ; [CPU_] |85| 
     220                      .dwpsn  file "../LIB2806x/source/F2806x_CpuTimers.c",line 86,column 2,is_stmt
     221 0000004b 8A42          MOVL      XAR4,*-SP[2]          ; [CPU_] |86| 
     222 0000004c 0646          MOVL      ACC,*-SP[6]           ; [CPU_] |86| 
     223 0000004d 1EF4          MOVL      *+XAR4[6],ACC         ; [CPU_] |86| 
     224                      .dwpsn  file "../LIB2806x/source/F2806x_CpuTimers.c",line 87,column 2,is_stmt
     225 0000004e E2AF          MOV32     R1H,*-SP[6]           ; [CPU_] |87| 
         0000004f 0146 
     226 00000050 E2AF          MOV32     R0H,*-SP[4]           ; [CPU_] |87| 
         00000051 0044 
     227 00000052 E700          MPYF32    R0H,R1H,R0H           ; [CPU_] |87| 
         00000053 0008 
     228 00000054 7700          NOP       ; [CPU_] 
     229 00000055 E688          F32TOI32  R0H,R0H               ; [CPU_] |87| 
         00000056 0000 
     230 00000057 7700          NOP       ; [CPU_] 
     231 00000058 E203          MOV32     *-SP[8],R0H           ; [CPU_] |87| 
         00000059 0048 
     232                      .dwpsn  file "../LIB2806x/source/F2806x_CpuTimers.c",line 88,column 2,is_stmt
     233 0000005a 8A42          MOVL      XAR4,*-SP[2]          ; [CPU_] |88| 
     234 0000005b 8AC4          MOVL      XAR4,*+XAR4[0]        ; [CPU_] |88| 
     235 0000005c 0648          MOVL      ACC,*-SP[8]           ; [CPU_] |88| 
     236 0000005d 1ED4          MOVL      *+XAR4[2],ACC         ; [CPU_] |88| 
     237                      .dwpsn  file "../LIB2806x/source/F2806x_CpuTimers.c",line 91,column 2,is_stmt
     238 0000005e 8A42          MOVL      XAR4,*-SP[2]          ; [CPU_] |91| 
     239 0000005f 8AC4          MOVL      XAR4,*+XAR4[0]        ; [CPU_] |91| 
     240 00000060 2BF4          MOV       *+XAR4[6],#0          ; [CPU_] |91| 
     241                      .dwpsn  file "../LIB2806x/source/F2806x_CpuTimers.c",line 92,column 2,is_stmt
     242 00000061 8A42          MOVL      XAR4,*-SP[2]          ; [CPU_] |92| 
     243 00000062 8AC4          MOVL      XAR4,*+XAR4[0]        ; [CPU_] |92| 
     244 00000063 2BFC          MOV       *+XAR4[7],#0          ; [CPU_] |92| 
     245                      .dwpsn  file "../LIB2806x/source/F2806x_CpuTimers.c",line 95,column 2,is_stmt
TMS320C2000 Assembler PC v6.2.11 Mon Jun 29 19:41:38 2020

Tools Copyright (c) 1996-2015 Texas Instruments Incorporated
F2806x_CpuTimers.asm                                                 PAGE    6

     246 00000064 8A42          MOVL      XAR4,*-SP[2]          ; [CPU_] |95| 
     247 00000065 8AC4          MOVL      XAR4,*+XAR4[0]        ; [CPU_] |95| 
     248 00000066 1AE4          OR        *+XAR4[4],#0x0010     ; [CPU_] |95| 
         00000067 0010 
     249                      .dwpsn  file "../LIB2806x/source/F2806x_CpuTimers.c",line 96,column 2,is_stmt
     250 00000068 8A42          MOVL      XAR4,*-SP[2]          ; [CPU_] |96| 
     251 00000069 8AC4          MOVL      XAR4,*+XAR4[0]        ; [CPU_] |96| 
     252 0000006a 1AE4          OR        *+XAR4[4],#0x0020     ; [CPU_] |96| 
         0000006b 0020 
     253                      .dwpsn  file "../LIB2806x/source/F2806x_CpuTimers.c",line 97,column 2,is_stmt
     254 0000006c 8A42          MOVL      XAR4,*-SP[2]          ; [CPU_] |97| 
     255 0000006d 8AC4          MOVL      XAR4,*+XAR4[0]        ; [CPU_] |97| 
     256 0000006e 18E4          AND       *+XAR4[4],#0xfbff     ; [CPU_] |97| 
         0000006f FBFF 
     257                      .dwpsn  file "../LIB2806x/source/F2806x_CpuTimers.c",line 98,column 2,is_stmt
     258 00000070 8A42          MOVL      XAR4,*-SP[2]          ; [CPU_] |98| 
     259 00000071 8AC4          MOVL      XAR4,*+XAR4[0]        ; [CPU_] |98| 
     260 00000072 18E4          AND       *+XAR4[4],#0xf7ff     ; [CPU_] |98| 
         00000073 F7FF 
     261                      .dwpsn  file "../LIB2806x/source/F2806x_CpuTimers.c",line 99,column 2,is_stmt
     262 00000074 8A42          MOVL      XAR4,*-SP[2]          ; [CPU_] |99| 
     263 00000075 8AC4          MOVL      XAR4,*+XAR4[0]        ; [CPU_] |99| 
     264 00000076 1AE4          OR        *+XAR4[4],#0x4000     ; [CPU_] |99| 
         00000077 4000 
     265                      .dwpsn  file "../LIB2806x/source/F2806x_CpuTimers.c",line 102,column 2,is_stmt
     266 00000078 8A42          MOVL      XAR4,*-SP[2]          ; [CPU_] |102| 
     267 00000079 0200          MOVB      ACC,#0                ; [CPU_] |102| 
     268 0000007a 1ED4          MOVL      *+XAR4[2],ACC         ; [CPU_] |102| 
     269                      .dwpsn  file "../LIB2806x/source/F2806x_CpuTimers.c",line 104,column 1,is_stmt
     270 0000007b FE88          SUBB      SP,#8                 ; [CPU_U] 
     271                      .dwcfi  cfa_offset, -2
     272              $C$DW$17        .dwtag  DW_TAG_TI_branch
     273                      .dwattr $C$DW$17, DW_AT_low_pc(0x00)
     274                      .dwattr $C$DW$17, DW_AT_TI_return
     275 0000007c 0006          LRETR     ; [CPU_] 
     276                      ; return occurs ; [] 
     277                      .dwattr $C$DW$9, DW_AT_TI_end_file("../LIB2806x/source/F2806x_CpuTimers.c")
     278                      .dwattr $C$DW$9, DW_AT_TI_end_line(0x68)
     279                      .dwattr $C$DW$9, DW_AT_TI_end_column(0x01)
     280                      .dwendentry
     281                      .dwendtag $C$DW$9
     282              
     283              ;**************************************************************
     284              ;* UNDEFINED EXTERNAL REFERENCES                              *
     285              ;**************************************************************
     286                      .global _CpuTimer1Regs
     287                      .global _CpuTimer2Regs
     288                      .global _CpuTimer0Regs
     289              
     290              ;***************************************************************
     291              ;* TYPE INFORMATION                                            *
     292              ;***************************************************************
     293              
     294              $C$DW$T$20      .dwtag  DW_TAG_structure_type
     295                      .dwattr $C$DW$T$20, DW_AT_name("CPUTIMER_REGS")
TMS320C2000 Assembler PC v6.2.11 Mon Jun 29 19:41:38 2020

Tools Copyright (c) 1996-2015 Texas Instruments Incorporated
F2806x_CpuTimers.asm                                                 PAGE    7

     296                      .dwattr $C$DW$T$20, DW_AT_byte_size(0x08)
     297              $C$DW$18        .dwtag  DW_TAG_member
     298                      .dwattr $C$DW$18, DW_AT_type(*$C$DW$T$29)
     299                      .dwattr $C$DW$18, DW_AT_name("TIM")
     300                      .dwattr $C$DW$18, DW_AT_TI_symbol_name("_TIM")
     301                      .dwattr $C$DW$18, DW_AT_data_member_location[DW_OP_plus_uconst 0x0]
     302                      .dwattr $C$DW$18, DW_AT_accessibility(DW_ACCESS_public)
     303              $C$DW$19        .dwtag  DW_TAG_member
     304                      .dwattr $C$DW$19, DW_AT_type(*$C$DW$T$25)
     305                      .dwattr $C$DW$19, DW_AT_name("PRD")
     306                      .dwattr $C$DW$19, DW_AT_TI_symbol_name("_PRD")
     307                      .dwattr $C$DW$19, DW_AT_data_member_location[DW_OP_plus_uconst 0x2]
     308                      .dwattr $C$DW$19, DW_AT_accessibility(DW_ACCESS_public)
     309              $C$DW$20        .dwtag  DW_TAG_member
     310                      .dwattr $C$DW$20, DW_AT_type(*$C$DW$T$28)
     311                      .dwattr $C$DW$20, DW_AT_name("TCR")
     312                      .dwattr $C$DW$20, DW_AT_TI_symbol_name("_TCR")
     313                      .dwattr $C$DW$20, DW_AT_data_member_location[DW_OP_plus_uconst 0x4]
     314                      .dwattr $C$DW$20, DW_AT_accessibility(DW_ACCESS_public)
     315              $C$DW$21        .dwtag  DW_TAG_member
     316                      .dwattr $C$DW$21, DW_AT_type(*$C$DW$T$19)
     317                      .dwattr $C$DW$21, DW_AT_name("rsvd1")
     318                      .dwattr $C$DW$21, DW_AT_TI_symbol_name("_rsvd1")
     319                      .dwattr $C$DW$21, DW_AT_data_member_location[DW_OP_plus_uconst 0x5]
     320                      .dwattr $C$DW$21, DW_AT_accessibility(DW_ACCESS_public)
     321              $C$DW$22        .dwtag  DW_TAG_member
     322                      .dwattr $C$DW$22, DW_AT_type(*$C$DW$T$34)
     323                      .dwattr $C$DW$22, DW_AT_name("TPR")
     324                      .dwattr $C$DW$22, DW_AT_TI_symbol_name("_TPR")
     325                      .dwattr $C$DW$22, DW_AT_data_member_location[DW_OP_plus_uconst 0x6]
     326                      .dwattr $C$DW$22, DW_AT_accessibility(DW_ACCESS_public)
     327              $C$DW$23        .dwtag  DW_TAG_member
     328                      .dwattr $C$DW$23, DW_AT_type(*$C$DW$T$32)
     329                      .dwattr $C$DW$23, DW_AT_name("TPRH")
     330                      .dwattr $C$DW$23, DW_AT_TI_symbol_name("_TPRH")
     331                      .dwattr $C$DW$23, DW_AT_data_member_location[DW_OP_plus_uconst 0x7]
     332                      .dwattr $C$DW$23, DW_AT_accessibility(DW_ACCESS_public)
     333                      .dwendtag $C$DW$T$20
     334              
     335              $C$DW$24        .dwtag  DW_TAG_TI_far_type
     336                      .dwattr $C$DW$24, DW_AT_type(*$C$DW$T$20)
     337              $C$DW$T$21      .dwtag  DW_TAG_volatile_type
     338                      .dwattr $C$DW$T$21, DW_AT_type(*$C$DW$24)
     339              $C$DW$T$22      .dwtag  DW_TAG_pointer_type
     340                      .dwattr $C$DW$T$22, DW_AT_type(*$C$DW$T$21)
     341                      .dwattr $C$DW$T$22, DW_AT_address_class(0x16)
     342              
     343              $C$DW$T$24      .dwtag  DW_TAG_structure_type
     344                      .dwattr $C$DW$T$24, DW_AT_name("CPUTIMER_VARS")
     345                      .dwattr $C$DW$T$24, DW_AT_byte_size(0x08)
     346              $C$DW$25        .dwtag  DW_TAG_member
     347                      .dwattr $C$DW$25, DW_AT_type(*$C$DW$T$22)
     348                      .dwattr $C$DW$25, DW_AT_name("RegsAddr")
     349                      .dwattr $C$DW$25, DW_AT_TI_symbol_name("_RegsAddr")
     350                      .dwattr $C$DW$25, DW_AT_data_member_location[DW_OP_plus_uconst 0x0]
TMS320C2000 Assembler PC v6.2.11 Mon Jun 29 19:41:38 2020

Tools Copyright (c) 1996-2015 Texas Instruments Incorporated
F2806x_CpuTimers.asm                                                 PAGE    8

     351                      .dwattr $C$DW$25, DW_AT_accessibility(DW_ACCESS_public)
     352              $C$DW$26        .dwtag  DW_TAG_member
     353                      .dwattr $C$DW$26, DW_AT_type(*$C$DW$T$23)
     354                      .dwattr $C$DW$26, DW_AT_name("InterruptCount")
     355                      .dwattr $C$DW$26, DW_AT_TI_symbol_name("_InterruptCount")
     356                      .dwattr $C$DW$26, DW_AT_data_member_location[DW_OP_plus_uconst 0x2]
     357                      .dwattr $C$DW$26, DW_AT_accessibility(DW_ACCESS_public)
     358              $C$DW$27        .dwtag  DW_TAG_member
     359                      .dwattr $C$DW$27, DW_AT_type(*$C$DW$T$16)
     360                      .dwattr $C$DW$27, DW_AT_name("CPUFreqInMHz")
     361                      .dwattr $C$DW$27, DW_AT_TI_symbol_name("_CPUFreqInMHz")
     362                      .dwattr $C$DW$27, DW_AT_data_member_location[DW_OP_plus_uconst 0x4]
     363                      .dwattr $C$DW$27, DW_AT_accessibility(DW_ACCESS_public)
     364              $C$DW$28        .dwtag  DW_TAG_member
     365                      .dwattr $C$DW$28, DW_AT_type(*$C$DW$T$16)
     366                      .dwattr $C$DW$28, DW_AT_name("PeriodInUSec")
     367                      .dwattr $C$DW$28, DW_AT_TI_symbol_name("_PeriodInUSec")
     368                      .dwattr $C$DW$28, DW_AT_data_member_location[DW_OP_plus_uconst 0x6]
     369                      .dwattr $C$DW$28, DW_AT_accessibility(DW_ACCESS_public)
     370                      .dwendtag $C$DW$T$24
     371              
     372              $C$DW$T$35      .dwtag  DW_TAG_pointer_type
     373                      .dwattr $C$DW$T$35, DW_AT_type(*$C$DW$T$24)
     374                      .dwattr $C$DW$T$35, DW_AT_address_class(0x16)
     375              
     376              $C$DW$T$25      .dwtag  DW_TAG_union_type
     377                      .dwattr $C$DW$T$25, DW_AT_name("PRD_GROUP")
     378                      .dwattr $C$DW$T$25, DW_AT_byte_size(0x02)
     379              $C$DW$29        .dwtag  DW_TAG_member
     380                      .dwattr $C$DW$29, DW_AT_type(*$C$DW$T$23)
     381                      .dwattr $C$DW$29, DW_AT_name("all")
     382                      .dwattr $C$DW$29, DW_AT_TI_symbol_name("_all")
     383                      .dwattr $C$DW$29, DW_AT_data_member_location[DW_OP_plus_uconst 0x0]
     384                      .dwattr $C$DW$29, DW_AT_accessibility(DW_ACCESS_public)
     385              $C$DW$30        .dwtag  DW_TAG_member
     386                      .dwattr $C$DW$30, DW_AT_type(*$C$DW$T$26)
     387                      .dwattr $C$DW$30, DW_AT_name("half")
     388                      .dwattr $C$DW$30, DW_AT_TI_symbol_name("_half")
     389                      .dwattr $C$DW$30, DW_AT_data_member_location[DW_OP_plus_uconst 0x0]
     390                      .dwattr $C$DW$30, DW_AT_accessibility(DW_ACCESS_public)
     391                      .dwendtag $C$DW$T$25
     392              
     393              
     394              $C$DW$T$26      .dwtag  DW_TAG_structure_type
     395                      .dwattr $C$DW$T$26, DW_AT_name("PRD_REG")
     396                      .dwattr $C$DW$T$26, DW_AT_byte_size(0x02)
     397              $C$DW$31        .dwtag  DW_TAG_member
     398                      .dwattr $C$DW$31, DW_AT_type(*$C$DW$T$19)
     399                      .dwattr $C$DW$31, DW_AT_name("LSW")
     400                      .dwattr $C$DW$31, DW_AT_TI_symbol_name("_LSW")
     401                      .dwattr $C$DW$31, DW_AT_data_member_location[DW_OP_plus_uconst 0x0]
     402                      .dwattr $C$DW$31, DW_AT_accessibility(DW_ACCESS_public)
     403              $C$DW$32        .dwtag  DW_TAG_member
     404                      .dwattr $C$DW$32, DW_AT_type(*$C$DW$T$19)
     405                      .dwattr $C$DW$32, DW_AT_name("MSW")
TMS320C2000 Assembler PC v6.2.11 Mon Jun 29 19:41:38 2020

Tools Copyright (c) 1996-2015 Texas Instruments Incorporated
F2806x_CpuTimers.asm                                                 PAGE    9

     406                      .dwattr $C$DW$32, DW_AT_TI_symbol_name("_MSW")
     407                      .dwattr $C$DW$32, DW_AT_data_member_location[DW_OP_plus_uconst 0x1]
     408                      .dwattr $C$DW$32, DW_AT_accessibility(DW_ACCESS_public)
     409                      .dwendtag $C$DW$T$26
     410              
     411              
     412              $C$DW$T$27      .dwtag  DW_TAG_structure_type
     413                      .dwattr $C$DW$T$27, DW_AT_name("TCR_BITS")
     414                      .dwattr $C$DW$T$27, DW_AT_byte_size(0x01)
     415              $C$DW$33        .dwtag  DW_TAG_member
     416                      .dwattr $C$DW$33, DW_AT_type(*$C$DW$T$19)
     417                      .dwattr $C$DW$33, DW_AT_name("rsvd1")
     418                      .dwattr $C$DW$33, DW_AT_TI_symbol_name("_rsvd1")
     419                      .dwattr $C$DW$33, DW_AT_bit_offset(0x0c), DW_AT_bit_size(0x04)
     420                      .dwattr $C$DW$33, DW_AT_data_member_location[DW_OP_plus_uconst 0x0]
     421                      .dwattr $C$DW$33, DW_AT_accessibility(DW_ACCESS_public)
     422              $C$DW$34        .dwtag  DW_TAG_member
     423                      .dwattr $C$DW$34, DW_AT_type(*$C$DW$T$19)
     424                      .dwattr $C$DW$34, DW_AT_name("TSS")
     425                      .dwattr $C$DW$34, DW_AT_TI_symbol_name("_TSS")
     426                      .dwattr $C$DW$34, DW_AT_bit_offset(0x0b), DW_AT_bit_size(0x01)
     427                      .dwattr $C$DW$34, DW_AT_data_member_location[DW_OP_plus_uconst 0x0]
     428                      .dwattr $C$DW$34, DW_AT_accessibility(DW_ACCESS_public)
     429              $C$DW$35        .dwtag  DW_TAG_member
     430                      .dwattr $C$DW$35, DW_AT_type(*$C$DW$T$19)
     431                      .dwattr $C$DW$35, DW_AT_name("TRB")
     432                      .dwattr $C$DW$35, DW_AT_TI_symbol_name("_TRB")
     433                      .dwattr $C$DW$35, DW_AT_bit_offset(0x0a), DW_AT_bit_size(0x01)
     434                      .dwattr $C$DW$35, DW_AT_data_member_location[DW_OP_plus_uconst 0x0]
     435                      .dwattr $C$DW$35, DW_AT_accessibility(DW_ACCESS_public)
     436              $C$DW$36        .dwtag  DW_TAG_member
     437                      .dwattr $C$DW$36, DW_AT_type(*$C$DW$T$19)
     438                      .dwattr $C$DW$36, DW_AT_name("rsvd2")
     439                      .dwattr $C$DW$36, DW_AT_TI_symbol_name("_rsvd2")
     440                      .dwattr $C$DW$36, DW_AT_bit_offset(0x06), DW_AT_bit_size(0x04)
     441                      .dwattr $C$DW$36, DW_AT_data_member_location[DW_OP_plus_uconst 0x0]
     442                      .dwattr $C$DW$36, DW_AT_accessibility(DW_ACCESS_public)
     443              $C$DW$37        .dwtag  DW_TAG_member
     444                      .dwattr $C$DW$37, DW_AT_type(*$C$DW$T$19)
     445                      .dwattr $C$DW$37, DW_AT_name("SOFT")
     446                      .dwattr $C$DW$37, DW_AT_TI_symbol_name("_SOFT")
     447                      .dwattr $C$DW$37, DW_AT_bit_offset(0x05), DW_AT_bit_size(0x01)
     448                      .dwattr $C$DW$37, DW_AT_data_member_location[DW_OP_plus_uconst 0x0]
     449                      .dwattr $C$DW$37, DW_AT_accessibility(DW_ACCESS_public)
     450              $C$DW$38        .dwtag  DW_TAG_member
     451                      .dwattr $C$DW$38, DW_AT_type(*$C$DW$T$19)
     452                      .dwattr $C$DW$38, DW_AT_name("FREE")
     453                      .dwattr $C$DW$38, DW_AT_TI_symbol_name("_FREE")
     454                      .dwattr $C$DW$38, DW_AT_bit_offset(0x04), DW_AT_bit_size(0x01)
     455                      .dwattr $C$DW$38, DW_AT_data_member_location[DW_OP_plus_uconst 0x0]
     456                      .dwattr $C$DW$38, DW_AT_accessibility(DW_ACCESS_public)
     457              $C$DW$39        .dwtag  DW_TAG_member
     458                      .dwattr $C$DW$39, DW_AT_type(*$C$DW$T$19)
     459                      .dwattr $C$DW$39, DW_AT_name("rsvd3")
     460                      .dwattr $C$DW$39, DW_AT_TI_symbol_name("_rsvd3")
TMS320C2000 Assembler PC v6.2.11 Mon Jun 29 19:41:38 2020

Tools Copyright (c) 1996-2015 Texas Instruments Incorporated
F2806x_CpuTimers.asm                                                 PAGE   10

     461                      .dwattr $C$DW$39, DW_AT_bit_offset(0x02), DW_AT_bit_size(0x02)
     462                      .dwattr $C$DW$39, DW_AT_data_member_location[DW_OP_plus_uconst 0x0]
     463                      .dwattr $C$DW$39, DW_AT_accessibility(DW_ACCESS_public)
     464              $C$DW$40        .dwtag  DW_TAG_member
     465                      .dwattr $C$DW$40, DW_AT_type(*$C$DW$T$19)
     466                      .dwattr $C$DW$40, DW_AT_name("TIE")
     467                      .dwattr $C$DW$40, DW_AT_TI_symbol_name("_TIE")
     468                      .dwattr $C$DW$40, DW_AT_bit_offset(0x01), DW_AT_bit_size(0x01)
     469                      .dwattr $C$DW$40, DW_AT_data_member_location[DW_OP_plus_uconst 0x0]
     470                      .dwattr $C$DW$40, DW_AT_accessibility(DW_ACCESS_public)
     471              $C$DW$41        .dwtag  DW_TAG_member
     472                      .dwattr $C$DW$41, DW_AT_type(*$C$DW$T$19)
     473                      .dwattr $C$DW$41, DW_AT_name("TIF")
     474                      .dwattr $C$DW$41, DW_AT_TI_symbol_name("_TIF")
     475                      .dwattr $C$DW$41, DW_AT_bit_offset(0x00), DW_AT_bit_size(0x01)
     476                      .dwattr $C$DW$41, DW_AT_data_member_location[DW_OP_plus_uconst 0x0]
     477                      .dwattr $C$DW$41, DW_AT_accessibility(DW_ACCESS_public)
     478                      .dwendtag $C$DW$T$27
     479              
     480              
     481              $C$DW$T$28      .dwtag  DW_TAG_union_type
     482                      .dwattr $C$DW$T$28, DW_AT_name("TCR_REG")
     483                      .dwattr $C$DW$T$28, DW_AT_byte_size(0x01)
     484              $C$DW$42        .dwtag  DW_TAG_member
     485                      .dwattr $C$DW$42, DW_AT_type(*$C$DW$T$19)
     486                      .dwattr $C$DW$42, DW_AT_name("all")
     487                      .dwattr $C$DW$42, DW_AT_TI_symbol_name("_all")
     488                      .dwattr $C$DW$42, DW_AT_data_member_location[DW_OP_plus_uconst 0x0]
     489                      .dwattr $C$DW$42, DW_AT_accessibility(DW_ACCESS_public)
     490              $C$DW$43        .dwtag  DW_TAG_member
     491                      .dwattr $C$DW$43, DW_AT_type(*$C$DW$T$27)
     492                      .dwattr $C$DW$43, DW_AT_name("bit")
     493                      .dwattr $C$DW$43, DW_AT_TI_symbol_name("_bit")
     494                      .dwattr $C$DW$43, DW_AT_data_member_location[DW_OP_plus_uconst 0x0]
     495                      .dwattr $C$DW$43, DW_AT_accessibility(DW_ACCESS_public)
     496                      .dwendtag $C$DW$T$28
     497              
     498              
     499              $C$DW$T$29      .dwtag  DW_TAG_union_type
     500                      .dwattr $C$DW$T$29, DW_AT_name("TIM_GROUP")
     501                      .dwattr $C$DW$T$29, DW_AT_byte_size(0x02)
     502              $C$DW$44        .dwtag  DW_TAG_member
     503                      .dwattr $C$DW$44, DW_AT_type(*$C$DW$T$23)
     504                      .dwattr $C$DW$44, DW_AT_name("all")
     505                      .dwattr $C$DW$44, DW_AT_TI_symbol_name("_all")
     506                      .dwattr $C$DW$44, DW_AT_data_member_location[DW_OP_plus_uconst 0x0]
     507                      .dwattr $C$DW$44, DW_AT_accessibility(DW_ACCESS_public)
     508              $C$DW$45        .dwtag  DW_TAG_member
     509                      .dwattr $C$DW$45, DW_AT_type(*$C$DW$T$30)
     510                      .dwattr $C$DW$45, DW_AT_name("half")
     511                      .dwattr $C$DW$45, DW_AT_TI_symbol_name("_half")
     512                      .dwattr $C$DW$45, DW_AT_data_member_location[DW_OP_plus_uconst 0x0]
     513                      .dwattr $C$DW$45, DW_AT_accessibility(DW_ACCESS_public)
     514                      .dwendtag $C$DW$T$29
     515              
TMS320C2000 Assembler PC v6.2.11 Mon Jun 29 19:41:38 2020

Tools Copyright (c) 1996-2015 Texas Instruments Incorporated
F2806x_CpuTimers.asm                                                 PAGE   11

     516              
     517              $C$DW$T$30      .dwtag  DW_TAG_structure_type
     518                      .dwattr $C$DW$T$30, DW_AT_name("TIM_REG")
     519                      .dwattr $C$DW$T$30, DW_AT_byte_size(0x02)
     520              $C$DW$46        .dwtag  DW_TAG_member
     521                      .dwattr $C$DW$46, DW_AT_type(*$C$DW$T$19)
     522                      .dwattr $C$DW$46, DW_AT_name("LSW")
     523                      .dwattr $C$DW$46, DW_AT_TI_symbol_name("_LSW")
     524                      .dwattr $C$DW$46, DW_AT_data_member_location[DW_OP_plus_uconst 0x0]
     525                      .dwattr $C$DW$46, DW_AT_accessibility(DW_ACCESS_public)
     526              $C$DW$47        .dwtag  DW_TAG_member
     527                      .dwattr $C$DW$47, DW_AT_type(*$C$DW$T$19)
     528                      .dwattr $C$DW$47, DW_AT_name("MSW")
     529                      .dwattr $C$DW$47, DW_AT_TI_symbol_name("_MSW")
     530                      .dwattr $C$DW$47, DW_AT_data_member_location[DW_OP_plus_uconst 0x1]
     531                      .dwattr $C$DW$47, DW_AT_accessibility(DW_ACCESS_public)
     532                      .dwendtag $C$DW$T$30
     533              
     534              
     535              $C$DW$T$31      .dwtag  DW_TAG_structure_type
     536                      .dwattr $C$DW$T$31, DW_AT_name("TPRH_BITS")
     537                      .dwattr $C$DW$T$31, DW_AT_byte_size(0x01)
     538              $C$DW$48        .dwtag  DW_TAG_member
     539                      .dwattr $C$DW$48, DW_AT_type(*$C$DW$T$19)
     540                      .dwattr $C$DW$48, DW_AT_name("TDDRH")
     541                      .dwattr $C$DW$48, DW_AT_TI_symbol_name("_TDDRH")
     542                      .dwattr $C$DW$48, DW_AT_bit_offset(0x08), DW_AT_bit_size(0x08)
     543                      .dwattr $C$DW$48, DW_AT_data_member_location[DW_OP_plus_uconst 0x0]
     544                      .dwattr $C$DW$48, DW_AT_accessibility(DW_ACCESS_public)
     545              $C$DW$49        .dwtag  DW_TAG_member
     546                      .dwattr $C$DW$49, DW_AT_type(*$C$DW$T$19)
     547                      .dwattr $C$DW$49, DW_AT_name("PSCH")
     548                      .dwattr $C$DW$49, DW_AT_TI_symbol_name("_PSCH")
     549                      .dwattr $C$DW$49, DW_AT_bit_offset(0x00), DW_AT_bit_size(0x08)
     550                      .dwattr $C$DW$49, DW_AT_data_member_location[DW_OP_plus_uconst 0x0]
     551                      .dwattr $C$DW$49, DW_AT_accessibility(DW_ACCESS_public)
     552                      .dwendtag $C$DW$T$31
     553              
     554              
     555              $C$DW$T$32      .dwtag  DW_TAG_union_type
     556                      .dwattr $C$DW$T$32, DW_AT_name("TPRH_REG")
     557                      .dwattr $C$DW$T$32, DW_AT_byte_size(0x01)
     558              $C$DW$50        .dwtag  DW_TAG_member
     559                      .dwattr $C$DW$50, DW_AT_type(*$C$DW$T$19)
     560                      .dwattr $C$DW$50, DW_AT_name("all")
     561                      .dwattr $C$DW$50, DW_AT_TI_symbol_name("_all")
     562                      .dwattr $C$DW$50, DW_AT_data_member_location[DW_OP_plus_uconst 0x0]
     563                      .dwattr $C$DW$50, DW_AT_accessibility(DW_ACCESS_public)
     564              $C$DW$51        .dwtag  DW_TAG_member
     565                      .dwattr $C$DW$51, DW_AT_type(*$C$DW$T$31)
     566                      .dwattr $C$DW$51, DW_AT_name("bit")
     567                      .dwattr $C$DW$51, DW_AT_TI_symbol_name("_bit")
     568                      .dwattr $C$DW$51, DW_AT_data_member_location[DW_OP_plus_uconst 0x0]
     569                      .dwattr $C$DW$51, DW_AT_accessibility(DW_ACCESS_public)
     570                      .dwendtag $C$DW$T$32
TMS320C2000 Assembler PC v6.2.11 Mon Jun 29 19:41:38 2020

Tools Copyright (c) 1996-2015 Texas Instruments Incorporated
F2806x_CpuTimers.asm                                                 PAGE   12

     571              
     572              
     573              $C$DW$T$33      .dwtag  DW_TAG_structure_type
     574                      .dwattr $C$DW$T$33, DW_AT_name("TPR_BITS")
     575                      .dwattr $C$DW$T$33, DW_AT_byte_size(0x01)
     576              $C$DW$52        .dwtag  DW_TAG_member
     577                      .dwattr $C$DW$52, DW_AT_type(*$C$DW$T$19)
     578                      .dwattr $C$DW$52, DW_AT_name("TDDR")
     579                      .dwattr $C$DW$52, DW_AT_TI_symbol_name("_TDDR")
     580                      .dwattr $C$DW$52, DW_AT_bit_offset(0x08), DW_AT_bit_size(0x08)
     581                      .dwattr $C$DW$52, DW_AT_data_member_location[DW_OP_plus_uconst 0x0]
     582                      .dwattr $C$DW$52, DW_AT_accessibility(DW_ACCESS_public)
     583              $C$DW$53        .dwtag  DW_TAG_member
     584                      .dwattr $C$DW$53, DW_AT_type(*$C$DW$T$19)
     585                      .dwattr $C$DW$53, DW_AT_name("PSC")
     586                      .dwattr $C$DW$53, DW_AT_TI_symbol_name("_PSC")
     587                      .dwattr $C$DW$53, DW_AT_bit_offset(0x00), DW_AT_bit_size(0x08)
     588                      .dwattr $C$DW$53, DW_AT_data_member_location[DW_OP_plus_uconst 0x0]
     589                      .dwattr $C$DW$53, DW_AT_accessibility(DW_ACCESS_public)
     590                      .dwendtag $C$DW$T$33
     591              
     592              
     593              $C$DW$T$34      .dwtag  DW_TAG_union_type
     594                      .dwattr $C$DW$T$34, DW_AT_name("TPR_REG")
     595                      .dwattr $C$DW$T$34, DW_AT_byte_size(0x01)
     596              $C$DW$54        .dwtag  DW_TAG_member
     597                      .dwattr $C$DW$54, DW_AT_type(*$C$DW$T$19)
     598                      .dwattr $C$DW$54, DW_AT_name("all")
     599                      .dwattr $C$DW$54, DW_AT_TI_symbol_name("_all")
     600                      .dwattr $C$DW$54, DW_AT_data_member_location[DW_OP_plus_uconst 0x0]
     601                      .dwattr $C$DW$54, DW_AT_accessibility(DW_ACCESS_public)
     602              $C$DW$55        .dwtag  DW_TAG_member
     603                      .dwattr $C$DW$55, DW_AT_type(*$C$DW$T$33)
     604                      .dwattr $C$DW$55, DW_AT_name("bit")
     605                      .dwattr $C$DW$55, DW_AT_TI_symbol_name("_bit")
     606                      .dwattr $C$DW$55, DW_AT_data_member_location[DW_OP_plus_uconst 0x0]
     607                      .dwattr $C$DW$55, DW_AT_accessibility(DW_ACCESS_public)
     608                      .dwendtag $C$DW$T$34
     609              
     610              $C$DW$T$4       .dwtag  DW_TAG_base_type
     611                      .dwattr $C$DW$T$4, DW_AT_encoding(DW_ATE_boolean)
     612                      .dwattr $C$DW$T$4, DW_AT_name("bool")
     613                      .dwattr $C$DW$T$4, DW_AT_byte_size(0x01)
     614              $C$DW$T$5       .dwtag  DW_TAG_base_type
     615                      .dwattr $C$DW$T$5, DW_AT_encoding(DW_ATE_signed_char)
     616                      .dwattr $C$DW$T$5, DW_AT_name("signed char")
     617                      .dwattr $C$DW$T$5, DW_AT_byte_size(0x01)
     618              $C$DW$T$6       .dwtag  DW_TAG_base_type
     619                      .dwattr $C$DW$T$6, DW_AT_encoding(DW_ATE_unsigned_char)
     620                      .dwattr $C$DW$T$6, DW_AT_name("unsigned char")
     621                      .dwattr $C$DW$T$6, DW_AT_byte_size(0x01)
     622              $C$DW$T$7       .dwtag  DW_TAG_base_type
     623                      .dwattr $C$DW$T$7, DW_AT_encoding(DW_ATE_signed_char)
     624                      .dwattr $C$DW$T$7, DW_AT_name("wchar_t")
     625                      .dwattr $C$DW$T$7, DW_AT_byte_size(0x01)
TMS320C2000 Assembler PC v6.2.11 Mon Jun 29 19:41:38 2020

Tools Copyright (c) 1996-2015 Texas Instruments Incorporated
F2806x_CpuTimers.asm                                                 PAGE   13

     626              $C$DW$T$8       .dwtag  DW_TAG_base_type
     627                      .dwattr $C$DW$T$8, DW_AT_encoding(DW_ATE_signed)
     628                      .dwattr $C$DW$T$8, DW_AT_name("short")
     629                      .dwattr $C$DW$T$8, DW_AT_byte_size(0x01)
     630              $C$DW$T$9       .dwtag  DW_TAG_base_type
     631                      .dwattr $C$DW$T$9, DW_AT_encoding(DW_ATE_unsigned)
     632                      .dwattr $C$DW$T$9, DW_AT_name("unsigned short")
     633                      .dwattr $C$DW$T$9, DW_AT_byte_size(0x01)
     634              $C$DW$T$10      .dwtag  DW_TAG_base_type
     635                      .dwattr $C$DW$T$10, DW_AT_encoding(DW_ATE_signed)
     636                      .dwattr $C$DW$T$10, DW_AT_name("int")
     637                      .dwattr $C$DW$T$10, DW_AT_byte_size(0x01)
     638              $C$DW$T$11      .dwtag  DW_TAG_base_type
     639                      .dwattr $C$DW$T$11, DW_AT_encoding(DW_ATE_unsigned)
     640                      .dwattr $C$DW$T$11, DW_AT_name("unsigned int")
     641                      .dwattr $C$DW$T$11, DW_AT_byte_size(0x01)
     642              $C$DW$T$19      .dwtag  DW_TAG_typedef, DW_AT_name("Uint16")
     643                      .dwattr $C$DW$T$19, DW_AT_type(*$C$DW$T$11)
     644                      .dwattr $C$DW$T$19, DW_AT_language(DW_LANG_C)
     645              $C$DW$T$12      .dwtag  DW_TAG_base_type
     646                      .dwattr $C$DW$T$12, DW_AT_encoding(DW_ATE_signed)
     647                      .dwattr $C$DW$T$12, DW_AT_name("long")
     648                      .dwattr $C$DW$T$12, DW_AT_byte_size(0x02)
     649              $C$DW$T$13      .dwtag  DW_TAG_base_type
     650                      .dwattr $C$DW$T$13, DW_AT_encoding(DW_ATE_unsigned)
     651                      .dwattr $C$DW$T$13, DW_AT_name("unsigned long")
     652                      .dwattr $C$DW$T$13, DW_AT_byte_size(0x02)
     653              $C$DW$T$23      .dwtag  DW_TAG_typedef, DW_AT_name("Uint32")
     654                      .dwattr $C$DW$T$23, DW_AT_type(*$C$DW$T$13)
     655                      .dwattr $C$DW$T$23, DW_AT_language(DW_LANG_C)
     656              $C$DW$T$14      .dwtag  DW_TAG_base_type
     657                      .dwattr $C$DW$T$14, DW_AT_encoding(DW_ATE_signed)
     658                      .dwattr $C$DW$T$14, DW_AT_name("long long")
     659                      .dwattr $C$DW$T$14, DW_AT_byte_size(0x04)
     660              $C$DW$T$15      .dwtag  DW_TAG_base_type
     661                      .dwattr $C$DW$T$15, DW_AT_encoding(DW_ATE_unsigned)
     662                      .dwattr $C$DW$T$15, DW_AT_name("unsigned long long")
     663                      .dwattr $C$DW$T$15, DW_AT_byte_size(0x04)
     664              $C$DW$T$16      .dwtag  DW_TAG_base_type
     665                      .dwattr $C$DW$T$16, DW_AT_encoding(DW_ATE_float)
     666                      .dwattr $C$DW$T$16, DW_AT_name("float")
     667                      .dwattr $C$DW$T$16, DW_AT_byte_size(0x02)
     668              $C$DW$T$17      .dwtag  DW_TAG_base_type
     669                      .dwattr $C$DW$T$17, DW_AT_encoding(DW_ATE_float)
     670                      .dwattr $C$DW$T$17, DW_AT_name("double")
     671                      .dwattr $C$DW$T$17, DW_AT_byte_size(0x02)
     672              $C$DW$T$18      .dwtag  DW_TAG_base_type
     673                      .dwattr $C$DW$T$18, DW_AT_encoding(DW_ATE_float)
     674                      .dwattr $C$DW$T$18, DW_AT_name("long double")
     675                      .dwattr $C$DW$T$18, DW_AT_byte_size(0x04)
     676                      .dwattr $C$DW$CU, DW_AT_language(DW_LANG_C)
     677              
     678              ;***************************************************************
     679              ;* DWARF CIE ENTRIES                                           *
     680              ;***************************************************************
TMS320C2000 Assembler PC v6.2.11 Mon Jun 29 19:41:38 2020

Tools Copyright (c) 1996-2015 Texas Instruments Incorporated
F2806x_CpuTimers.asm                                                 PAGE   14

     681              
     682              $C$DW$CIE       .dwcie 78
     683                      .dwcfi  cfa_register, 20
     684                      .dwcfi  cfa_offset, 0
     685                      .dwcfi  undefined, 0
     686                      .dwcfi  undefined, 1
     687                      .dwcfi  undefined, 2
     688                      .dwcfi  undefined, 3
     689                      .dwcfi  undefined, 20
     690                      .dwcfi  undefined, 21
     691                      .dwcfi  undefined, 22
     692                      .dwcfi  undefined, 23
     693                      .dwcfi  undefined, 24
     694                      .dwcfi  undefined, 25
     695                      .dwcfi  undefined, 26
     696                      .dwcfi  same_value, 28
     697                      .dwcfi  undefined, 29
     698                      .dwcfi  undefined, 30
     699                      .dwcfi  undefined, 31
     700                      .dwcfi  undefined, 32
     701                      .dwcfi  undefined, 33
     702                      .dwcfi  undefined, 34
     703                      .dwcfi  undefined, 35
     704                      .dwcfi  undefined, 36
     705                      .dwcfi  undefined, 37
     706                      .dwcfi  undefined, 38
     707                      .dwcfi  undefined, 75
     708                      .dwcfi  undefined, 76
     709                      .dwcfi  undefined, 77
     710                      .dwcfi  undefined, 4
     711                      .dwcfi  same_value, 6
     712                      .dwcfi  same_value, 8
     713                      .dwcfi  same_value, 10
     714                      .dwcfi  undefined, 12
     715                      .dwcfi  undefined, 14
     716                      .dwcfi  undefined, 16
     717                      .dwcfi  undefined, 17
     718                      .dwcfi  undefined, 18
     719                      .dwcfi  undefined, 19
     720                      .dwcfi  undefined, 5
     721                      .dwcfi  same_value, 7
     722                      .dwcfi  same_value, 9
     723                      .dwcfi  same_value, 11
     724                      .dwcfi  undefined, 13
     725                      .dwcfi  undefined, 15
     726                      .dwcfi  undefined, 43
     727                      .dwcfi  undefined, 44
     728                      .dwcfi  undefined, 47
     729                      .dwcfi  undefined, 48
     730                      .dwcfi  undefined, 51
     731                      .dwcfi  undefined, 52
     732                      .dwcfi  undefined, 55
     733                      .dwcfi  undefined, 56
     734                      .dwcfi  same_value, 59
     735                      .dwcfi  same_value, 60
TMS320C2000 Assembler PC v6.2.11 Mon Jun 29 19:41:38 2020

Tools Copyright (c) 1996-2015 Texas Instruments Incorporated
F2806x_CpuTimers.asm                                                 PAGE   15

     736                      .dwcfi  same_value, 63
     737                      .dwcfi  same_value, 64
     738                      .dwcfi  same_value, 67
     739                      .dwcfi  same_value, 68
     740                      .dwcfi  same_value, 71
     741                      .dwcfi  same_value, 72
     742                      .dwcfi  undefined, 73
     743                      .dwcfi  undefined, 74
     744                      .dwcfi  undefined, 39
     745                      .dwcfi  undefined, 40
     746                      .dwcfi  undefined, 27
     747                      .dwcfi  undefined, 78
     748                      .dwendentry
     749              
     750              ;***************************************************************
     751              ;* DWARF REGISTER MAP                                          *
     752              ;***************************************************************
     753              
     754              $C$DW$56        .dwtag  DW_TAG_TI_assign_register, DW_AT_name("AL")
     755                      .dwattr $C$DW$56, DW_AT_location[DW_OP_reg0]
     756              $C$DW$57        .dwtag  DW_TAG_TI_assign_register, DW_AT_name("AH")
     757                      .dwattr $C$DW$57, DW_AT_location[DW_OP_reg1]
     758              $C$DW$58        .dwtag  DW_TAG_TI_assign_register, DW_AT_name("PL")
     759                      .dwattr $C$DW$58, DW_AT_location[DW_OP_reg2]
     760              $C$DW$59        .dwtag  DW_TAG_TI_assign_register, DW_AT_name("PH")
     761                      .dwattr $C$DW$59, DW_AT_location[DW_OP_reg3]
     762              $C$DW$60        .dwtag  DW_TAG_TI_assign_register, DW_AT_name("SP")
     763                      .dwattr $C$DW$60, DW_AT_location[DW_OP_reg20]
     764              $C$DW$61        .dwtag  DW_TAG_TI_assign_register, DW_AT_name("XT")
     765                      .dwattr $C$DW$61, DW_AT_location[DW_OP_reg21]
     766              $C$DW$62        .dwtag  DW_TAG_TI_assign_register, DW_AT_name("T")
     767                      .dwattr $C$DW$62, DW_AT_location[DW_OP_reg22]
     768              $C$DW$63        .dwtag  DW_TAG_TI_assign_register, DW_AT_name("ST0")
     769                      .dwattr $C$DW$63, DW_AT_location[DW_OP_reg23]
     770              $C$DW$64        .dwtag  DW_TAG_TI_assign_register, DW_AT_name("ST1")
     771                      .dwattr $C$DW$64, DW_AT_location[DW_OP_reg24]
     772              $C$DW$65        .dwtag  DW_TAG_TI_assign_register, DW_AT_name("PC")
     773                      .dwattr $C$DW$65, DW_AT_location[DW_OP_reg25]
     774              $C$DW$66        .dwtag  DW_TAG_TI_assign_register, DW_AT_name("RPC")
     775                      .dwattr $C$DW$66, DW_AT_location[DW_OP_reg26]
     776              $C$DW$67        .dwtag  DW_TAG_TI_assign_register, DW_AT_name("FP")
     777                      .dwattr $C$DW$67, DW_AT_location[DW_OP_reg28]
     778              $C$DW$68        .dwtag  DW_TAG_TI_assign_register, DW_AT_name("DP")
     779                      .dwattr $C$DW$68, DW_AT_location[DW_OP_reg29]
     780              $C$DW$69        .dwtag  DW_TAG_TI_assign_register, DW_AT_name("SXM")
     781                      .dwattr $C$DW$69, DW_AT_location[DW_OP_reg30]
     782              $C$DW$70        .dwtag  DW_TAG_TI_assign_register, DW_AT_name("PM")
     783                      .dwattr $C$DW$70, DW_AT_location[DW_OP_reg31]
     784              $C$DW$71        .dwtag  DW_TAG_TI_assign_register, DW_AT_name("OVM")
     785                      .dwattr $C$DW$71, DW_AT_location[DW_OP_regx 0x20]
     786              $C$DW$72        .dwtag  DW_TAG_TI_assign_register, DW_AT_name("PAGE0")
     787                      .dwattr $C$DW$72, DW_AT_location[DW_OP_regx 0x21]
     788              $C$DW$73        .dwtag  DW_TAG_TI_assign_register, DW_AT_name("AMODE")
     789                      .dwattr $C$DW$73, DW_AT_location[DW_OP_regx 0x22]
     790              $C$DW$74        .dwtag  DW_TAG_TI_assign_register, DW_AT_name("INTM")
TMS320C2000 Assembler PC v6.2.11 Mon Jun 29 19:41:38 2020

Tools Copyright (c) 1996-2015 Texas Instruments Incorporated
F2806x_CpuTimers.asm                                                 PAGE   16

     791                      .dwattr $C$DW$74, DW_AT_location[DW_OP_regx 0x23]
     792              $C$DW$75        .dwtag  DW_TAG_TI_assign_register, DW_AT_name("IFR")
     793                      .dwattr $C$DW$75, DW_AT_location[DW_OP_regx 0x24]
     794              $C$DW$76        .dwtag  DW_TAG_TI_assign_register, DW_AT_name("IER")
     795                      .dwattr $C$DW$76, DW_AT_location[DW_OP_regx 0x25]
     796              $C$DW$77        .dwtag  DW_TAG_TI_assign_register, DW_AT_name("V")
     797                      .dwattr $C$DW$77, DW_AT_location[DW_OP_regx 0x26]
     798              $C$DW$78        .dwtag  DW_TAG_TI_assign_register, DW_AT_name("PSEUDOH")
     799                      .dwattr $C$DW$78, DW_AT_location[DW_OP_regx 0x4c]
     800              $C$DW$79        .dwtag  DW_TAG_TI_assign_register, DW_AT_name("VOL")
     801                      .dwattr $C$DW$79, DW_AT_location[DW_OP_regx 0x4d]
     802              $C$DW$80        .dwtag  DW_TAG_TI_assign_register, DW_AT_name("AR0")
     803                      .dwattr $C$DW$80, DW_AT_location[DW_OP_reg4]
     804              $C$DW$81        .dwtag  DW_TAG_TI_assign_register, DW_AT_name("AR1")
     805                      .dwattr $C$DW$81, DW_AT_location[DW_OP_reg6]
     806              $C$DW$82        .dwtag  DW_TAG_TI_assign_register, DW_AT_name("AR2")
     807                      .dwattr $C$DW$82, DW_AT_location[DW_OP_reg8]
     808              $C$DW$83        .dwtag  DW_TAG_TI_assign_register, DW_AT_name("AR3")
     809                      .dwattr $C$DW$83, DW_AT_location[DW_OP_reg10]
     810              $C$DW$84        .dwtag  DW_TAG_TI_assign_register, DW_AT_name("AR4")
     811                      .dwattr $C$DW$84, DW_AT_location[DW_OP_reg12]
     812              $C$DW$85        .dwtag  DW_TAG_TI_assign_register, DW_AT_name("AR5")
     813                      .dwattr $C$DW$85, DW_AT_location[DW_OP_reg14]
     814              $C$DW$86        .dwtag  DW_TAG_TI_assign_register, DW_AT_name("AR6")
     815                      .dwattr $C$DW$86, DW_AT_location[DW_OP_reg16]
     816              $C$DW$87        .dwtag  DW_TAG_TI_assign_register, DW_AT_name("XAR6")
     817                      .dwattr $C$DW$87, DW_AT_location[DW_OP_reg17]
     818              $C$DW$88        .dwtag  DW_TAG_TI_assign_register, DW_AT_name("AR7")
     819                      .dwattr $C$DW$88, DW_AT_location[DW_OP_reg18]
     820              $C$DW$89        .dwtag  DW_TAG_TI_assign_register, DW_AT_name("XAR7")
     821                      .dwattr $C$DW$89, DW_AT_location[DW_OP_reg19]
     822              $C$DW$90        .dwtag  DW_TAG_TI_assign_register, DW_AT_name("XAR0")
     823                      .dwattr $C$DW$90, DW_AT_location[DW_OP_reg5]
     824              $C$DW$91        .dwtag  DW_TAG_TI_assign_register, DW_AT_name("XAR1")
     825                      .dwattr $C$DW$91, DW_AT_location[DW_OP_reg7]
     826              $C$DW$92        .dwtag  DW_TAG_TI_assign_register, DW_AT_name("XAR2")
     827                      .dwattr $C$DW$92, DW_AT_location[DW_OP_reg9]
     828              $C$DW$93        .dwtag  DW_TAG_TI_assign_register, DW_AT_name("XAR3")
     829                      .dwattr $C$DW$93, DW_AT_location[DW_OP_reg11]
     830              $C$DW$94        .dwtag  DW_TAG_TI_assign_register, DW_AT_name("XAR4")
     831                      .dwattr $C$DW$94, DW_AT_location[DW_OP_reg13]
     832              $C$DW$95        .dwtag  DW_TAG_TI_assign_register, DW_AT_name("XAR5")
     833                      .dwattr $C$DW$95, DW_AT_location[DW_OP_reg15]
     834              $C$DW$96        .dwtag  DW_TAG_TI_assign_register, DW_AT_name("R0HL")
     835                      .dwattr $C$DW$96, DW_AT_location[DW_OP_regx 0x2b]
     836              $C$DW$97        .dwtag  DW_TAG_TI_assign_register, DW_AT_name("R0H")
     837                      .dwattr $C$DW$97, DW_AT_location[DW_OP_regx 0x2c]
     838              $C$DW$98        .dwtag  DW_TAG_TI_assign_register, DW_AT_name("R1HL")
     839                      .dwattr $C$DW$98, DW_AT_location[DW_OP_regx 0x2f]
     840              $C$DW$99        .dwtag  DW_TAG_TI_assign_register, DW_AT_name("R1H")
     841                      .dwattr $C$DW$99, DW_AT_location[DW_OP_regx 0x30]
     842              $C$DW$100       .dwtag  DW_TAG_TI_assign_register, DW_AT_name("R2HL")
     843                      .dwattr $C$DW$100, DW_AT_location[DW_OP_regx 0x33]
     844              $C$DW$101       .dwtag  DW_TAG_TI_assign_register, DW_AT_name("R2H")
     845                      .dwattr $C$DW$101, DW_AT_location[DW_OP_regx 0x34]
TMS320C2000 Assembler PC v6.2.11 Mon Jun 29 19:41:38 2020

Tools Copyright (c) 1996-2015 Texas Instruments Incorporated
F2806x_CpuTimers.asm                                                 PAGE   17

     846              $C$DW$102       .dwtag  DW_TAG_TI_assign_register, DW_AT_name("R3HL")
     847                      .dwattr $C$DW$102, DW_AT_location[DW_OP_regx 0x37]
     848              $C$DW$103       .dwtag  DW_TAG_TI_assign_register, DW_AT_name("R3H")
     849                      .dwattr $C$DW$103, DW_AT_location[DW_OP_regx 0x38]
     850              $C$DW$104       .dwtag  DW_TAG_TI_assign_register, DW_AT_name("R4HL")
     851                      .dwattr $C$DW$104, DW_AT_location[DW_OP_regx 0x3b]
     852              $C$DW$105       .dwtag  DW_TAG_TI_assign_register, DW_AT_name("R4H")
     853                      .dwattr $C$DW$105, DW_AT_location[DW_OP_regx 0x3c]
     854              $C$DW$106       .dwtag  DW_TAG_TI_assign_register, DW_AT_name("R5HL")
     855                      .dwattr $C$DW$106, DW_AT_location[DW_OP_regx 0x3f]
     856              $C$DW$107       .dwtag  DW_TAG_TI_assign_register, DW_AT_name("R5H")
     857                      .dwattr $C$DW$107, DW_AT_location[DW_OP_regx 0x40]
     858              $C$DW$108       .dwtag  DW_TAG_TI_assign_register, DW_AT_name("R6HL")
     859                      .dwattr $C$DW$108, DW_AT_location[DW_OP_regx 0x43]
     860              $C$DW$109       .dwtag  DW_TAG_TI_assign_register, DW_AT_name("R6H")
     861                      .dwattr $C$DW$109, DW_AT_location[DW_OP_regx 0x44]
     862              $C$DW$110       .dwtag  DW_TAG_TI_assign_register, DW_AT_name("R7HL")
     863                      .dwattr $C$DW$110, DW_AT_location[DW_OP_regx 0x47]
     864              $C$DW$111       .dwtag  DW_TAG_TI_assign_register, DW_AT_name("R7H")
     865                      .dwattr $C$DW$111, DW_AT_location[DW_OP_regx 0x48]
     866              $C$DW$112       .dwtag  DW_TAG_TI_assign_register, DW_AT_name("RBL")
     867                      .dwattr $C$DW$112, DW_AT_location[DW_OP_regx 0x49]
     868              $C$DW$113       .dwtag  DW_TAG_TI_assign_register, DW_AT_name("RB")
     869                      .dwattr $C$DW$113, DW_AT_location[DW_OP_regx 0x4a]
     870              $C$DW$114       .dwtag  DW_TAG_TI_assign_register, DW_AT_name("STFL")
     871                      .dwattr $C$DW$114, DW_AT_location[DW_OP_regx 0x27]
     872              $C$DW$115       .dwtag  DW_TAG_TI_assign_register, DW_AT_name("STF")
     873                      .dwattr $C$DW$115, DW_AT_location[DW_OP_regx 0x28]
     874              $C$DW$116       .dwtag  DW_TAG_TI_assign_register, DW_AT_name("FPUHAZ")
     875                      .dwattr $C$DW$116, DW_AT_location[DW_OP_reg27]
     876              $C$DW$117       .dwtag  DW_TAG_TI_assign_register, DW_AT_name("CIE_RETA")
     877                      .dwattr $C$DW$117, DW_AT_location[DW_OP_regx 0x4e]
     878                      .dwendtag $C$DW$CU
     879              

No Assembly Errors, No Assembly Warnings
